# version: 1.0
15 compute 536656351.95
15 compute 7210222677.19
15 init
15 compute 1560726.184
15 compute 119978.908
15 compute 126347.994
15 bcast 4 0
15 compute 50219.076
15 bcast 4 0
15 compute 10103.838
15 bcast 4 0
15 compute 7969.694
15 bcast 4 0
15 compute 12237.982
15 bcast 4 0
15 compute 24909.462
15 compute 31912.122
15 compute 494150311590.204
15 alltoall 134217728 2147483648
15 compute 135824751533.272
15 barrier
15 compute 415924003084.56
15 alltoall 134217728 2147483648
15 compute 343120636414.038
15 alltoall 134217728 2147483648
15 compute 286454505697.18
15 reduce 16 0 0
15 compute 176220567212.29
15 alltoall 134217728 2147483648
15 compute 285982628318.556
15 reduce 16 0 0
15 compute 176518377370.496
15 alltoall 134217728 2147483648
15 compute 285486243997.498
15 reduce 16 0 0
15 compute 176689128964.788
15 alltoall 134217728 2147483648
15 compute 285700109802.3
15 reduce 16 0 0
15 compute 176565480929.716
15 alltoall 134217728 2147483648
15 compute 283981880189.732
15 reduce 16 0 0
15 compute 176083013661.796
15 alltoall 134217728 2147483648
15 compute 285658769398.914
15 reduce 16 0 0
15 compute 176775512578.092
15 alltoall 134217728 2147483648
15 compute 284715377346.108
15 reduce 16 0 0
15 compute 175960291911.912
15 alltoall 134217728 2147483648
15 compute 285143824460.834
15 reduce 16 0 0
15 compute 177358845060.234
15 alltoall 134217728 2147483648
15 compute 286425286998.292
15 reduce 16 0 0
15 compute 176168795713.26
15 alltoall 134217728 2147483648
15 compute 284960342730.928
15 reduce 16 0 0
15 compute 177156178376.148
15 alltoall 134217728 2147483648
15 compute 284690070199.712
15 reduce 16 0 0
15 compute 177094080888.066
15 alltoall 134217728 2147483648
15 compute 286597261957.286
15 reduce 16 0 0
15 compute 176397279470.774
15 alltoall 134217728 2147483648
15 compute 286435308338.288
15 reduce 16 0 0
15 compute 174688256955.574
15 alltoall 134217728 2147483648
15 compute 285707064777.52
15 reduce 16 0 0
15 compute 174122760781.988
15 alltoall 134217728 2147483648
15 compute 285617679090.528
15 reduce 16 0 0
15 compute 176710412616.17
15 alltoall 134217728 2147483648
15 compute 285696326865.33
15 reduce 16 0 0
15 compute 185188558154.362
15 alltoall 134217728 2147483648
15 compute 284655060067.582
15 reduce 16 0 0
15 compute 279767193083.668
15 alltoall 134217728 2147483648
15 compute 363527046304.23
15 reduce 16 0 0
15 compute 301110418195.086
15 alltoall 134217728 2147483648
15 compute 384425966077.086
15 reduce 16 0 0
15 compute 297881108023.356
15 alltoall 134217728 2147483648
15 compute 383352033571.084
15 reduce 16 0 0
15 compute 294552874741.79
15 alltoall 134217728 2147483648
15 compute 379914607545.37
15 reduce 16 0 0
15 compute 291258218247.89
15 alltoall 134217728 2147483648
15 compute 378365973954.81
15 reduce 16 0 0
15 compute 288637259228.452
15 alltoall 134217728 2147483648
15 compute 376235020733.512
15 reduce 16 0 0
15 compute 285540963716.426
15 alltoall 134217728 2147483648
15 compute 372904821171.71
15 reduce 16 0 0
15 compute 283116660597.844
15 alltoall 134217728 2147483648
15 compute 369090965957.24
15 reduce 16 0 0
15 compute 188271.516
15 finalize
15 compute 1088680.208
15 compute 137385.52
