15 init
15 compute 0.09932
15 compute 0.10486
15 bcast 1 0 1 
15 compute 0.02236
15 bcast 1 0 1 
15 compute 0.02138
15 bcast 1 0 1 
15 bcast 1 0 1 
15 compute 0.02134
15 bcast 1 0 16 
15 compute 0.0214
15 compute 13122.7
15 alltoall 8388608 8388608 26 26
15 compute 3483.24
15 compute 0.04816
15 barrier
15 compute 0.0337
15 compute 10446.5
15 alltoall 8388608 8388608 26 26
15 compute 8949.44
15 alltoall 8388608 8388608 26 26
15 compute 6856.91
15 reduce 16 0 0 26 
15 compute 4577.75
15 alltoall 8388608 8388608 26 26
15 compute 6844.67
15 reduce 16 0 0 26 
15 compute 4592.9
15 alltoall 8388608 8388608 26 26
15 compute 6844.15
15 reduce 16 0 0 26 
15 compute 4593.12
15 alltoall 8388608 8388608 26 26
15 compute 6843.26
15 reduce 16 0 0 26 
15 compute 4602.8
15 alltoall 8388608 8388608 26 26
15 compute 6842.72
15 reduce 16 0 0 26 
15 compute 4615.88
15 alltoall 8388608 8388608 26 26
15 compute 6836.64
15 reduce 16 0 0 26 
15 compute 4604.22
15 alltoall 8388608 8388608 26 26
15 compute 6859.91
15 reduce 16 0 0 26 
15 compute 4622.77
15 alltoall 8388608 8388608 26 26
15 compute 6857.58
15 reduce 16 0 0 26 
15 compute 4591.16
15 alltoall 8388608 8388608 26 26
15 compute 6822.24
15 reduce 16 0 0 26 
15 compute 4605.37
15 alltoall 8388608 8388608 26 26
15 compute 6859.66
15 reduce 16 0 0 26 
15 compute 4590.23
15 alltoall 8388608 8388608 26 26
15 compute 6849.99
15 reduce 16 0 0 26 
15 compute 4604.99
15 alltoall 8388608 8388608 26 26
15 compute 6859.26
15 reduce 16 0 0 26 
15 compute 4619.14
15 alltoall 8388608 8388608 26 26
15 compute 6838.21
15 reduce 16 0 0 26 
15 compute 4605.72
15 alltoall 8388608 8388608 26 26
15 compute 6854.74
15 reduce 16 0 0 26 
15 compute 4614.41
15 alltoall 8388608 8388608 26 26
15 compute 6861.84
15 reduce 16 0 0 26 
15 compute 4603.92
15 alltoall 8388608 8388608 26 26
15 compute 6828.71
15 reduce 16 0 0 26 
15 compute 4612.45
15 alltoall 8388608 8388608 26 26
15 compute 6853.8
15 reduce 16 0 0 26 
15 compute 4590.37
15 alltoall 8388608 8388608 26 26
15 compute 6837.28
15 reduce 16 0 0 26 
15 compute 4594.1
15 alltoall 8388608 8388608 26 26
15 compute 6858.58
15 reduce 16 0 0 26 
15 compute 4607.1
15 alltoall 8388608 8388608 26 26
15 compute 6861.88
15 reduce 16 0 0 26 
15 compute 0.06526
15 compute 0.03802
15 finalize
