0 init
0 compute 0.26724
0 compute 2.67428
0 bcast 1 0 1 
0 compute 0.03156
0 bcast 1 0 1 
0 compute 0.02096
0 bcast 1 0 1 
0 compute 0.02104
0 bcast 1 0 1 
0 compute 0.02034
0 bcast 1 0 16 
0 compute 0.0371
0 compute 0.04584
0 compute 13273.8
0 alltoall 8388608 8388608 26 26
0 compute 3516.03
0 compute 0.37398
0 barrier
0 compute 10296.9
0 alltoall 8388608 8388608 26 26
0 compute 8998.67
0 alltoall 8388608 8388608 26 26
0 compute 6844.92
0 reduce 16 0 0 26 
0 compute 4637.46
0 alltoall 8388608 8388608 26 26
0 compute 6828.16
0 reduce 16 0 0 26 
0 compute 4653.39
0 alltoall 8388608 8388608 26 26
0 compute 6848.39
0 reduce 16 0 0 26 
0 compute 4644.27
0 alltoall 8388608 8388608 26 26
0 compute 6850.87
0 reduce 16 0 0 26 
0 compute 4655.85
0 alltoall 8388608 8388608 26 26
0 compute 6842.34
0 reduce 16 0 0 26 
0 compute 4629.48
0 alltoall 8388608 8388608 26 26
0 compute 6831.01
0 reduce 16 0 0 26 
0 compute 4649.84
0 alltoall 8388608 8388608 26 26
0 compute 6850.35
0 reduce 16 0 0 26 
0 compute 4645.57
0 alltoall 8388608 8388608 26 26
0 compute 6846.99
0 reduce 16 0 0 26 
0 compute 4650.15
0 alltoall 8388608 8388608 26 26
0 compute 6833.46
0 reduce 16 0 0 26 
0 compute 4631.85
0 alltoall 8388608 8388608 26 26
0 compute 6826.26
0 reduce 16 0 0 26 
0 compute 4630.49
0 alltoall 8388608 8388608 26 26
0 compute 6842.23
0 reduce 16 0 0 26 
0 compute 4632.08
0 alltoall 8388608 8388608 26 26
0 compute 6828.86
0 reduce 16 0 0 26 
0 compute 4662.02
0 alltoall 8388608 8388608 26 26
0 compute 6841.53
0 reduce 16 0 0 26 
0 compute 4643.82
0 alltoall 8388608 8388608 26 26
0 compute 6849.65
0 reduce 16 0 0 26 
0 compute 4647.42
0 alltoall 8388608 8388608 26 26
0 compute 6829.8
0 reduce 16 0 0 26 
0 compute 4631.91
0 alltoall 8388608 8388608 26 26
0 compute 6833.85
0 reduce 16 0 0 26 
0 compute 4634.83
0 alltoall 8388608 8388608 26 26
0 compute 6833.24
0 reduce 16 0 0 26 
0 compute 4653.93
0 alltoall 8388608 8388608 26 26
0 compute 6852.17
0 reduce 16 0 0 26 
0 compute 4644.08
0 alltoall 8388608 8388608 26 26
0 compute 6841.77
0 reduce 16 0 0 26 
0 compute 4664.2
0 alltoall 8388608 8388608 26 26
0 compute 6824.47
0 reduce 16 0 0 26 
0 compute 0.81404
0 compute 1.13266
0 finalize
