B 0 "400000-40a000 0 /nix/store/nf55qlxbya44af8jsf6xdbpba33mhy23-NPB-3.1/bin/ft.D.128"
B 0 "7f8e9e624000-7f8e9e741000 0 /nix/store/j3r8qbyr9pindh4fdn5mw3zp0qxks3nx-papi-5.6.0/lib/libpfm.so.4.8.0"
B 0 "7f8e9ea08000-7f8e9ea1e000 0 /nix/store/r43dk927l97n78rff7hnvsq49f3szkg6-zlib-1.2.11/lib/libz.so.1.2.11"
B 0 "7f8e9ec1f000-7f8e9ec21000 0 /nix/store/2kcrj1ksd2a14bm5sky182fv2xwfhfap-glibc-2.26-131/lib/libutil-2.26.so"
B 0 "7f8e9ee22000-7f8e9ee8d000 0 /nix/store/c5xfsp7mvyaasv8f638vrbhv9vjnjj4j-libnl-3.3.0/lib/libnl-route-3.so.200.25.0"
B 0 "7f8e9f096000-7f8e9f0b5000 0 /nix/store/c5xfsp7mvyaasv8f638vrbhv9vjnjj4j-libnl-3.3.0/lib/libnl-3.so.200.25.0"
B 0 "7f8e9f2b7000-7f8e9f2cb000 0 /nix/store/jfz41csbqcwqh2pdanaqwbjlg4ia8mmp-rdma-core-17/lib/libibverbs.so.1.1.17.0"
B 0 "7f8e9f4cd000-7f8e9f4e2000 0 /nix/store/jfz41csbqcwqh2pdanaqwbjlg4ia8mmp-rdma-core-17/lib/librdmacm.so.1.1.17.0"
B 0 "7f8e9f6e3000-7f8e9f8ea000 0 /nix/store/zllrk0d9l55dzn6kvl6apr3yd7bflg9v-openmpi-3.0.0/lib/libopen-pal.so.40.0.0"
B 0 "7f8e9fb08000-7f8e9fc32000 0 /nix/store/zllrk0d9l55dzn6kvl6apr3yd7bflg9v-openmpi-3.0.0/lib/libopen-rte.so.40.0.0"
B 0 "7f8e9fe42000-7f8e9fe49000 0 /nix/store/2kcrj1ksd2a14bm5sky182fv2xwfhfap-glibc-2.26-131/lib/librt-2.26.so"
B 0 "7f8ea004a000-7f8ea004d000 0 /nix/store/2kcrj1ksd2a14bm5sky182fv2xwfhfap-glibc-2.26-131/lib/libdl-2.26.so"
B 0 "7f8ea024e000-7f8ea03a7000 0 /nix/store/pxy47wnmlfr4hjcvldv7ggk34skpgaw6-libxml2-2.9.7/lib/libxml2.so.2.9.7"
B 0 "7f8ea05b2000-7f8ea05fd000 0 /nix/store/j3r8qbyr9pindh4fdn5mw3zp0qxks3nx-papi-5.6.0/lib/libpapi.so.5.6.0.0"
B 0 "7f8ea080c000-7f8ea09b5000 0 /nix/store/2kcrj1ksd2a14bm5sky182fv2xwfhfap-glibc-2.26-131/lib/libc-2.26.so"
B 0 "7f8ea0bbe000-7f8ea0bd7000 0 /nix/store/2kcrj1ksd2a14bm5sky182fv2xwfhfap-glibc-2.26-131/lib/libpthread-2.26.so"
B 0 "7f8ea0ddc000-7f8ea0e1a000 0 /nix/store/irh4sy0gay53xk046lwncrrr3dvj71wv-gfortran-7.3.0-lib/lib/libquadmath.so.0.0.0"
B 0 "7f8ea101b000-7f8ea1031000 0 /nix/store/2kcrj1ksd2a14bm5sky182fv2xwfhfap-glibc-2.26-131/lib/libgcc_s.so.1"
B 0 "7f8ea1231000-7f8ea137c000 0 /nix/store/2kcrj1ksd2a14bm5sky182fv2xwfhfap-glibc-2.26-131/lib/libm-2.26.so"
B 0 "7f8ea157d000-7f8ea174c000 0 /nix/store/irh4sy0gay53xk046lwncrrr3dvj71wv-gfortran-7.3.0-lib/lib/libgfortran.so.4.0.0"
B 0 "7f8ea194e000-7f8ea19a3000 0 /nix/store/zllrk0d9l55dzn6kvl6apr3yd7bflg9v-openmpi-3.0.0/lib/libmpi_mpifh.so.40.0.0"
B 0 "7f8ea1ba5000-7f8ea1baa000 0 /nix/store/zllrk0d9l55dzn6kvl6apr3yd7bflg9v-openmpi-3.0.0/lib/libmpi_usempi_ignore_tkr.so.40.0.0"
B 0 "7f8ea1dab000-7f8ea1dda000 0 /nix/store/zllrk0d9l55dzn6kvl6apr3yd7bflg9v-openmpi-3.0.0/lib/libmpi_usempif08.so.40.0.0"
B 0 "7f8ea1fdc000-7f8ea21fa000 0 /nix/store/zllrk0d9l55dzn6kvl6apr3yd7bflg9v-openmpi-3.0.0/lib/libmpi.so.40.0.0"
B 0 "7f8ea242c000-7f8ea2516000 0 /nix/store/7y06dglddhr03nsp1niw3xlx70ga0r2d-extrae-3.6.1/lib/libmpitracef-3.6.1.so"
B 0 "7f8ea40cf000-7f8ea40f4000 0 /nix/store/2kcrj1ksd2a14bm5sky182fv2xwfhfap-glibc-2.26-131/lib/ld-2.26.so"
