# version: 1.0
25 compute 580349265.617
25 compute 5074907865.784
25 init
25 compute 656332.645
25 compute 58522.23
25 compute 38564.649
25 bcast 4 0
25 compute 24892.789
25 bcast 4 0
25 compute 5135.284
25 bcast 4 0
25 compute 3618.041
25 bcast 4 0
25 compute 3201.216
25 bcast 4 0
25 compute 11721.119
25 compute 13104.978
25 compute 1687789178880.46
25 alltoall 268435456 0
25 compute 532952864392.642
25 barrier
25 compute 1607025221301.13
25 alltoall 268435456 0
25 compute 1236265382496.44
25 alltoall 268435456 0
25 compute 1185331451421.36
25 reduce 16 0 0
25 compute 480424904800.153
25 alltoall 268435456 0
25 compute 1354818328986.89
25 reduce 16 0 0
25 compute 506285081667.905
25 alltoall 268435456 0
25 compute 1306495127012.03
25 reduce 16 0 0
25 compute 449007255928.567
25 alltoall 268435456 0
25 compute 1348284735914.62
25 reduce 16 0 0
25 compute 720158734784.465
25 alltoall 268435456 0
25 compute 1295066232531.83
25 reduce 16 0 0
25 compute 660151079687.342
25 alltoall 268435456 0
25 compute 1527415472054.37
25 reduce 16 0 0
25 compute 676304527499.172
25 alltoall 268435456 0
25 compute 1505638486493.26
25 reduce 16 0 0
25 compute 649946252609.403
25 alltoall 268435456 0
25 compute 1510581537839.26
25 reduce 16 0 0
25 compute 645984580179.061
25 alltoall 268435456 0
25 compute 1494374815740.89
25 reduce 16 0 0
25 compute 633286640394.829
25 alltoall 268435456 0
25 compute 1493566316844.68
25 reduce 16 0 0
25 compute 618218171018.193
25 alltoall 268435456 0
25 compute 1485268693195.42
25 reduce 16 0 0
25 compute 624679139636.992
25 alltoall 268435456 0
25 compute 1485859685503.85
25 reduce 16 0 0
25 compute 613236516208.443
25 alltoall 268435456 0
25 compute 1476588210514.98
25 reduce 16 0 0
25 compute 614792066476.342
25 alltoall 268435456 0
25 compute 1467737948542.93
25 reduce 16 0 0
25 compute 608766732602.531
25 alltoall 268435456 0
25 compute 1465319109316.5
25 reduce 16 0 0
25 compute 603407470339.788
25 alltoall 268435456 0
25 compute 1442877374063.13
25 reduce 16 0 0
25 compute 586696008996.696
25 alltoall 268435456 0
25 compute 1454861011465.56
25 reduce 16 0 0
25 compute 603468232020.456
25 alltoall 268435456 0
25 compute 1136306886229.71
25 reduce 16 0 0
25 compute 580589754201.282
25 alltoall 268435456 0
25 compute 1427596380991.5
25 reduce 16 0 0
25 compute 598841592315.201
25 alltoall 268435456 0
25 compute 1430122242821.06
25 reduce 16 0 0
25 compute 594531405749.794
25 alltoall 268435456 0
25 compute 1422797290729.92
25 reduce 16 0 0
25 compute 595323608989.341
25 alltoall 268435456 0
25 compute 1427291553917.88
25 reduce 16 0 0
25 compute 592511680412.37
25 alltoall 268435456 0
25 compute 1427725285523.28
25 reduce 16 0 0
25 compute 587000138171.883
25 alltoall 268435456 0
25 compute 1423657739059.42
25 reduce 16 0 0
25 compute 584504774560.571
25 alltoall 268435456 0
25 compute 1408629989217
25 reduce 16 0 0
25 compute 109474.918
25 finalize
25 compute 549241.966
25 compute 59272.515
