# version: 1.0
6 compute 1432810211.061
6 compute 2390058960.745
6 init
6 compute 1407101.162
6 compute 141570.443
6 compute 172949.029
6 bcast 4 0
6 compute 79663.594
6 bcast 4 0
6 compute 44283.488
6 bcast 4 0
6 compute 40548.736
6 bcast 4 0
6 compute 39064.839
6 bcast 4 0
6 compute 67125.498
6 compute 89834.124
6 compute 2987425790580
6 alltoall 268435456 0
6 compute 1013153502753.92
6 barrier
6 compute 2831046340228.15
6 alltoall 268435456 0
6 compute 2356119614092.25
6 alltoall 268435456 0
6 compute 2292140008744.03
6 reduce 16 0 0
6 compute 914058116060.915
6 alltoall 268435456 0
6 compute 2359456585576.41
6 reduce 16 0 0
6 compute 933567333380.769
6 alltoall 268435456 0
6 compute 2284259642025.5
6 reduce 16 0 0
6 compute 893379445367.584
6 alltoall 268435456 0
6 compute 2353938576212.68
6 reduce 16 0 0
6 compute 1304746475143.4
6 alltoall 268435456 0
6 compute 2312498102247.64
6 reduce 16 0 0
6 compute 1262794690437.41
6 alltoall 268435456 0
6 compute 2676236275783.07
6 reduce 16 0 0
6 compute 1249768162103.63
6 alltoall 268435456 0
6 compute 2647532148558.03
6 reduce 16 0 0
6 compute 1226711968361.39
6 alltoall 268435456 0
6 compute 2625493147402.15
6 reduce 16 0 0
6 compute 1207710667709.89
6 alltoall 268435456 0
6 compute 2604712019623.25
6 reduce 16 0 0
6 compute 1191738169199.34
6 alltoall 268435456 0
6 compute 2579946532612.96
6 reduce 16 0 0
6 compute 1176164511223.96
6 alltoall 268435456 0
6 compute 2587988750061.4
6 reduce 16 0 0
6 compute 1164769007844.22
6 alltoall 268435456 0
6 compute 2570071978641.13
6 reduce 16 0 0
6 compute 1152467900032.19
6 alltoall 268435456 0
6 compute 2570443211689.43
6 reduce 16 0 0
6 compute 1148687973655.79
6 alltoall 268435456 0
6 compute 2574669390594.06
6 reduce 16 0 0
6 compute 1146634972845.15
6 alltoall 268435456 0
6 compute 2546748489131.75
6 reduce 16 0 0
6 compute 1141097427543.92
6 alltoall 268435456 0
6 compute 2530581940393.46
6 reduce 16 0 0
6 compute 1118845711820.54
6 alltoall 268435456 0
6 compute 2552342776303.36
6 reduce 16 0 0
6 compute 1140529412313.46
6 alltoall 268435456 0
6 compute 2199346365620.62
6 reduce 16 0 0
6 compute 1092216586163.24
6 alltoall 268435456 0
6 compute 2533214307546.34
6 reduce 16 0 0
6 compute 1126914321961.06
6 alltoall 268435456 0
6 compute 2572776656078.15
6 reduce 16 0 0
6 compute 1126554603903.46
6 alltoall 268435456 0
6 compute 2540317904904.63
6 reduce 16 0 0
6 compute 1109921423028.98
6 alltoall 268435456 0
6 compute 2540388179065.33
6 reduce 16 0 0
6 compute 1116607676973.68
6 alltoall 268435456 0
6 compute 2535555802409.74
6 reduce 16 0 0
6 compute 1095872257073.84
6 alltoall 268435456 0
6 compute 2517006556173.66
6 reduce 16 0 0
6 compute 1100923351260.53
6 alltoall 268435456 0
6 compute 2507435371288.29
6 reduce 16 0 0
6 compute 593275.359
6 finalize
6 compute 1188751.554
6 compute 159560.61
