# version: 1.0
24 compute 575405154.235
24 compute 4887447707.983
24 init
24 compute 688278.113
24 compute 59072.439
24 compute 58155.424
24 bcast 4 0
24 compute 24392.599
24 bcast 4 0
24 compute 5768.858
24 bcast 4 0
24 compute 4485.037
24 bcast 4 0
24 compute 3618.041
24 bcast 4 0
24 compute 13088.305
24 compute 15305.814
24 compute 1680666491404.01
24 alltoall 268435456 0
24 compute 531921503190.924
24 barrier
24 compute 1603114299632.09
24 alltoall 268435456 0
24 compute 1235759718000.25
24 alltoall 268435456 0
24 compute 1177402502982.13
24 reduce 16 0 0
24 compute 457313905456.363
24 alltoall 268435456 0
24 compute 1349962598610.25
24 reduce 16 0 0
24 compute 485565734339.991
24 alltoall 268435456 0
24 compute 1299708391798.95
24 reduce 16 0 0
24 compute 445016033623.538
24 alltoall 268435456 0
24 compute 1345795481207.14
24 reduce 16 0 0
24 compute 714213654612.143
24 alltoall 268435456 0
24 compute 1290150442141.06
24 reduce 16 0 0
24 compute 660795207162.806
24 alltoall 268435456 0
24 compute 1519331965388.65
24 reduce 16 0 0
24 compute 675458790807.974
24 alltoall 268435456 0
24 compute 1498243519656.62
24 reduce 16 0 0
24 compute 651614543985.983
24 alltoall 268435456 0
24 compute 1504817551456.44
24 reduce 16 0 0
24 compute 640096538639.853
24 alltoall 268435456 0
24 compute 1485294029252.79
24 reduce 16 0 0
24 compute 629870975285.122
24 alltoall 268435456 0
24 compute 1488420643248.13
24 reduce 16 0 0
24 compute 615002370261.424
24 alltoall 268435456 0
24 compute 1477441767276.68
24 reduce 16 0 0
24 compute 619468832122.219
24 alltoall 268435456 0
24 compute 1482131882510.14
24 reduce 16 0 0
24 compute 609428573306.465
24 alltoall 268435456 0
24 compute 1466383239182.25
24 reduce 16 0 0
24 compute 608223365751.56
24 alltoall 268435456 0
24 compute 1460632696306.02
24 reduce 16 0 0
24 compute 608964065243.784
24 alltoall 268435456 0
24 compute 1459891735247.77
24 reduce 16 0 0
24 compute 599521609573.602
24 alltoall 268435456 0
24 compute 1440733968478.4
24 reduce 16 0 0
24 compute 587844898142.068
24 alltoall 268435456 0
24 compute 1448229256856.07
24 reduce 16 0 0
24 compute 603037200907.517
24 alltoall 268435456 0
24 compute 1133476003136.1
24 reduce 16 0 0
24 compute 569958932440.187
24 alltoall 268435456 0
24 compute 1421802327437.49
24 reduce 16 0 0
24 compute 598854077624.483
24 alltoall 268435456 0
24 compute 1423345661815.11
24 reduce 16 0 0
24 compute 592327173126.234
24 alltoall 268435456 0
24 compute 1418749367169.94
24 reduce 16 0 0
24 compute 591525935104.774
24 alltoall 268435456 0
24 compute 1418931321352.93
24 reduce 16 0 0
24 compute 590924525389.226
24 alltoall 268435456 0
24 compute 1421366865291.4
24 reduce 16 0 0
24 compute 584593602018.85
24 alltoall 268435456 0
24 compute 1416350800860.96
24 reduce 16 0 0
24 compute 583582277728.266
24 alltoall 268435456 0
24 compute 1402803798972.35
24 reduce 16 0 0
24 compute 110758.739
24 finalize
24 compute 508393.116
24 compute 62423.712
