# version: 1.0
29 compute 492405593.049
29 compute 5952919616.846
29 init
29 compute 735779.49
29 compute 61056.526
29 compute 61673.427
29 bcast 4 0
29 compute 23709.006
29 bcast 4 0
29 compute 6052.299
29 bcast 4 0
29 compute 3618.041
29 bcast 4 0
29 compute 3451.311
29 bcast 4 0
29 compute 11854.503
29 compute 16622.981
29 compute 1665261389372.22
29 alltoall 268435456 0
29 compute 533272245161.233
29 barrier
29 compute 1595629231269.88
29 alltoall 268435456 0
29 compute 1241477392391.2
29 alltoall 268435456 0
29 compute 1231282087563.68
29 reduce 16 0 0
29 compute 478801746384.25
29 alltoall 268435456 0
29 compute 1330907974403.5
29 reduce 16 0 0
29 compute 514872178992.049
29 alltoall 268435456 0
29 compute 1282682959942.38
29 reduce 16 0 0
29 compute 453189436653.565
29 alltoall 268435456 0
29 compute 1332696949289.06
29 reduce 16 0 0
29 compute 714444749161.381
29 alltoall 268435456 0
29 compute 1286102426579.45
29 reduce 16 0 0
29 compute 659008169679.846
29 alltoall 268435456 0
29 compute 1510116540590.76
29 reduce 16 0 0
29 compute 667959531055.083
29 alltoall 268435456 0
29 compute 1489307505627.82
29 reduce 16 0 0
29 compute 641392489097.296
29 alltoall 268435456 0
29 compute 1492722414016.75
29 reduce 16 0 0
29 compute 635138562324.513
29 alltoall 268435456 0
29 compute 1477159246142.76
29 reduce 16 0 0
29 compute 625883583418.44
29 alltoall 268435456 0
29 compute 1470218223622.77
29 reduce 16 0 0
29 compute 607372055093.059
29 alltoall 268435456 0
29 compute 1466112325374.11
29 reduce 16 0 0
29 compute 612648543663.747
29 alltoall 268435456 0
29 compute 1466020809244.52
29 reduce 16 0 0
29 compute 604504592254.418
29 alltoall 268435456 0
29 compute 1453006895869.27
29 reduce 16 0 0
29 compute 602919246251.774
29 alltoall 268435456 0
29 compute 1450097173294.69
29 reduce 16 0 0
29 compute 597747928164.022
29 alltoall 268435456 0
29 compute 1448939890327.55
29 reduce 16 0 0
29 compute 590976325649.181
29 alltoall 268435456 0
29 compute 1424894580714.05
29 reduce 16 0 0
29 compute 577267176801.468
29 alltoall 268435456 0
29 compute 1442536691803.04
29 reduce 16 0 0
29 compute 591972658261.758
29 alltoall 268435456 0
29 compute 1136474459116.56
29 reduce 16 0 0
29 compute 569836577913.128
29 alltoall 268435456 0
29 compute 1415347814037.41
29 reduce 16 0 0
29 compute 588299868381.753
29 alltoall 268435456 0
29 compute 1415783463654.71
29 reduce 16 0 0
29 compute 584689304021.797
29 alltoall 268435456 0
29 compute 1409965053815.5
29 reduce 16 0 0
29 compute 584859977202.97
29 alltoall 268435456 0
29 compute 1414896685890.5
29 reduce 16 0 0
29 compute 580729383223.489
29 alltoall 268435456 0
29 compute 1416610184155.84
29 reduce 16 0 0
29 compute 576024427386.075
29 alltoall 268435456 0
29 compute 1414723302329.77
29 reduce 16 0 0
29 compute 573341495692.633
29 alltoall 268435456 0
29 compute 1399231480256.89
29 reduce 16 0 0
29 compute 139286.242
29 finalize
29 compute 556461.375
29 compute 69276.315
