26 init
26 compute 0.08648
26 compute 0.12004
26 bcast 1 0 1 
26 compute 0.03018
26 bcast 1 0 1 
26 compute 0.02244
26 bcast 1 0 1 
26 compute 0.0221
26 bcast 1 0 1 
26 compute 0.0212
26 bcast 1 0 16 
26 compute 0.0211
26 compute 118176
26 alltoall 33554432 33554432 26 26
26 compute 29063.3
26 compute 0.11208
26 barrier
26 compute 0.03768
26 compute 96620.4
26 alltoall 33554432 33554432 26 26
26 compute 74819.3
26 alltoall 33554432 33554432 26 26
26 compute 62660.4
26 reduce 16 0 0 26 
26 compute 38617
26 alltoall 33554432 33554432 26 26
26 compute 62684.3
26 reduce 16 0 0 26 
26 compute 38569.3
26 alltoall 33554432 33554432 26 26
26 compute 62663.2
26 reduce 16 0 0 26 
26 compute 38606.5
26 alltoall 33554432 33554432 26 26
26 compute 62653
26 reduce 16 0 0 26 
26 compute 38619.9
26 alltoall 33554432 33554432 26 26
26 compute 62655.3
26 reduce 16 0 0 26 
26 compute 38650.5
26 alltoall 33554432 33554432 26 26
26 compute 62675.5
26 reduce 16 0 0 26 
26 compute 38567.4
26 alltoall 33554432 33554432 26 26
26 compute 62652.9
26 reduce 16 0 0 26 
26 compute 38617.9
26 alltoall 33554432 33554432 26 26
26 compute 62680.5
26 reduce 16 0 0 26 
26 compute 38599.6
26 alltoall 33554432 33554432 26 26
26 compute 62663
26 reduce 16 0 0 26 
26 compute 38556.7
26 alltoall 33554432 33554432 26 26
26 compute 62655.2
26 reduce 16 0 0 26 
26 compute 38573.4
26 alltoall 33554432 33554432 26 26
26 compute 62669.2
26 reduce 16 0 0 26 
26 compute 38588
26 alltoall 33554432 33554432 26 26
26 compute 62667.3
26 reduce 16 0 0 26 
26 compute 38615.3
26 alltoall 33554432 33554432 26 26
26 compute 62653.8
26 reduce 16 0 0 26 
26 compute 38678.5
26 alltoall 33554432 33554432 26 26
26 compute 62667.1
26 reduce 16 0 0 26 
26 compute 39555.1
26 alltoall 33554432 33554432 26 26
26 compute 62654.3
26 reduce 16 0 0 26 
26 compute 40612.9
26 alltoall 33554432 33554432 26 26
26 compute 62672
26 reduce 16 0 0 26 
26 compute 51778.7
26 alltoall 33554432 33554432 26 26
26 compute 64174.1
26 reduce 16 0 0 26 
26 compute 77203.8
26 alltoall 33554432 33554432 26 26
26 compute 86206
26 reduce 16 0 0 26 
26 compute 76717
26 alltoall 33554432 33554432 26 26
26 compute 92295.9
26 reduce 16 0 0 26 
26 compute 75592.4
26 alltoall 33554432 33554432 26 26
26 compute 91786
26 reduce 16 0 0 26 
26 compute 74589.9
26 alltoall 33554432 33554432 26 26
26 compute 90877.8
26 reduce 16 0 0 26 
26 compute 73681.3
26 alltoall 33554432 33554432 26 26
26 compute 90218.4
26 reduce 16 0 0 26 
26 compute 72909.4
26 alltoall 33554432 33554432 26 26
26 compute 89837.4
26 reduce 16 0 0 26 
26 compute 72037.8
26 alltoall 33554432 33554432 26 26
26 compute 89179.1
26 reduce 16 0 0 26 
26 compute 71227.1
26 alltoall 33554432 33554432 26 26
26 compute 88599.5
26 reduce 16 0 0 26 
26 compute 0.06916
26 compute 0.0429
26 finalize
