13 init
13 compute 0.08542
13 compute 0.14086
13 bcast 1 0 1 
13 compute 0.02356
13 bcast 1 0 1 
13 compute 0.02082
13 bcast 1 0 1 
13 compute 0.02102
13 bcast 1 0 1 
13 compute 0.0207
13 bcast 1 0 16 
13 compute 0.02242
13 compute 0.02182
13 compute 117198
13 alltoall 33554432 33554432 26 26
13 compute 29098.7
13 compute 0.07402
13 barrier
13 compute 0.03322
13 compute 95698
13 alltoall 33554432 33554432 26 26
13 compute 79490.5
13 alltoall 33554432 33554432 26 26
13 compute 69949
13 reduce 16 0 0 26 
13 compute 40046.1
13 alltoall 33554432 33554432 26 26
13 compute 69712.8
13 reduce 16 0 0 26 
13 compute 39882.5
13 alltoall 33554432 33554432 26 26
13 compute 69625.8
13 reduce 16 0 0 26 
13 compute 40112.6
13 alltoall 33554432 33554432 26 26
13 compute 69864.2
13 reduce 16 0 0 26 
13 compute 40066.9
13 alltoall 33554432 33554432 26 26
13 compute 69766.8
13 reduce 16 0 0 26 
13 compute 40016.1
13 alltoall 33554432 33554432 26 26
13 compute 69866.7
13 reduce 16 0 0 26 
13 compute 39932.1
13 alltoall 33554432 33554432 26 26
13 compute 69427.2
13 reduce 16 0 0 26 
13 compute 40132.1
13 alltoall 33554432 33554432 26 26
13 compute 69828.1
13 reduce 16 0 0 26 
13 compute 39989.9
13 alltoall 33554432 33554432 26 26
13 compute 69477.8
13 reduce 16 0 0 26 
13 compute 39833
13 alltoall 33554432 33554432 26 26
13 compute 69803.9
13 reduce 16 0 0 26 
13 compute 39847.1
13 alltoall 33554432 33554432 26 26
13 compute 69776.2
13 reduce 16 0 0 26 
13 compute 39941.9
13 alltoall 33554432 33554432 26 26
13 compute 69763.7
13 reduce 16 0 0 26 
13 compute 40794.1
13 alltoall 33554432 33554432 26 26
13 compute 69631.5
13 reduce 16 0 0 26 
13 compute 42268.7
13 alltoall 33554432 33554432 26 26
13 compute 69449.2
13 reduce 16 0 0 26 
13 compute 61168.4
13 alltoall 33554432 33554432 26 26
13 compute 69506.5
13 reduce 16 0 0 26 
13 compute 80920.6
13 alltoall 33554432 33554432 26 26
13 compute 69780.7
13 reduce 16 0 0 26 
13 compute 80186.4
13 alltoall 33554432 33554432 26 26
13 compute 71339.9
13 reduce 16 0 0 26 
13 compute 82643.3
13 alltoall 33554432 33554432 26 26
13 compute 93310.7
13 reduce 16 0 0 26 
13 compute 81932.5
13 alltoall 33554432 33554432 26 26
13 compute 99521.4
13 reduce 16 0 0 26 
13 compute 80821.9
13 alltoall 33554432 33554432 26 26
13 compute 98921.9
13 reduce 16 0 0 26 
13 compute 79936
13 alltoall 33554432 33554432 26 26
13 compute 97763.2
13 reduce 16 0 0 26 
13 compute 79177.3
13 alltoall 33554432 33554432 26 26
13 compute 97531
13 reduce 16 0 0 26 
13 compute 78496.1
13 alltoall 33554432 33554432 26 26
13 compute 96917.1
13 reduce 16 0 0 26 
13 compute 77735
13 alltoall 33554432 33554432 26 26
13 compute 96179.2
13 reduce 16 0 0 26 
13 compute 77240.6
13 alltoall 33554432 33554432 26 26
13 compute 95621
13 reduce 16 0 0 26 
13 compute 0.07292
13 compute 0.04064
13 finalize
