1 init
1 compute 0.08924
1 compute 0.11668
1 bcast 1 0 1 
1 compute 0.0236
1 bcast 1 0 1 
1 bcast 1 0 1 
1 compute 0.02014
1 bcast 1 0 1 
1 compute 0.02074
1 bcast 1 0 16 
1 compute 0.02374
1 compute 0.03118
1 compute 116546
1 alltoall 33554432 33554432 26 26
1 compute 29057.9
1 compute 0.07896
1 barrier
1 compute 0.07128
1 compute 95318.1
1 alltoall 33554432 33554432 26 26
1 compute 79880.2
1 alltoall 33554432 33554432 26 26
1 compute 69718.5
1 reduce 16 0 0 26 
1 compute 40237.7
1 alltoall 33554432 33554432 26 26
1 compute 69879.4
1 reduce 16 0 0 26 
1 compute 40266.6
1 alltoall 33554432 33554432 26 26
1 compute 69688
1 reduce 16 0 0 26 
1 compute 40278
1 alltoall 33554432 33554432 26 26
1 compute 70160.9
1 reduce 16 0 0 26 
1 compute 40175.2
1 alltoall 33554432 33554432 26 26
1 compute 69777.8
1 reduce 16 0 0 26 
1 compute 40013
1 alltoall 33554432 33554432 26 26
1 compute 69912.3
1 reduce 16 0 0 26 
1 compute 40231.1
1 alltoall 33554432 33554432 26 26
1 compute 69612.6
1 reduce 16 0 0 26 
1 compute 40208.6
1 alltoall 33554432 33554432 26 26
1 compute 69949.3
1 reduce 16 0 0 26 
1 compute 39980
1 alltoall 33554432 33554432 26 26
1 compute 69912.2
1 reduce 16 0 0 26 
1 compute 40173.4
1 alltoall 33554432 33554432 26 26
1 compute 70074.3
1 reduce 16 0 0 26 
1 compute 40186.2
1 alltoall 33554432 33554432 26 26
1 compute 69591.7
1 reduce 16 0 0 26 
1 compute 40054.9
1 alltoall 33554432 33554432 26 26
1 compute 69731.4
1 reduce 16 0 0 26 
1 compute 40106
1 alltoall 33554432 33554432 26 26
1 compute 70156.8
1 reduce 16 0 0 26 
1 compute 40318.4
1 alltoall 33554432 33554432 26 26
1 compute 70029.7
1 reduce 16 0 0 26 
1 compute 40621.1
1 alltoall 33554432 33554432 26 26
1 compute 70076.2
1 reduce 16 0 0 26 
1 compute 41750.5
1 alltoall 33554432 33554432 26 26
1 compute 69515.1
1 reduce 16 0 0 26 
1 compute 44497.6
1 alltoall 33554432 33554432 26 26
1 compute 71234.3
1 reduce 16 0 0 26 
1 compute 72298.1
1 alltoall 33554432 33554432 26 26
1 compute 93363.2
1 reduce 16 0 0 26 
1 compute 77433.5
1 alltoall 33554432 33554432 26 26
1 compute 99540.3
1 reduce 16 0 0 26 
1 compute 76670.6
1 alltoall 33554432 33554432 26 26
1 compute 98849.1
1 reduce 16 0 0 26 
1 compute 75415.1
1 alltoall 33554432 33554432 26 26
1 compute 97981.8
1 reduce 16 0 0 26 
1 compute 74740.1
1 alltoall 33554432 33554432 26 26
1 compute 97395.2
1 reduce 16 0 0 26 
1 compute 73800.8
1 alltoall 33554432 33554432 26 26
1 compute 97227.6
1 reduce 16 0 0 26 
1 compute 73013.9
1 alltoall 33554432 33554432 26 26
1 compute 96377.7
1 reduce 16 0 0 26 
1 compute 72231.7
1 alltoall 33554432 33554432 26 26
1 compute 95634.8
1 reduce 16 0 0 26 
1 compute 0.06454
1 compute 0.0388
1 finalize
