5 init
5 compute 0.087
5 compute 0.11852
5 bcast 1 0 1 
5 compute 0.02112
5 bcast 1 0 1 
5 compute 0.02214
5 bcast 1 0 1 
5 bcast 1 0 1 
5 bcast 1 0 16 
5 compute 0.0298
5 compute 0.02158
5 compute 117028
5 alltoall 33554432 33554432 26 26
5 compute 29117
5 compute 0.0693
5 barrier
5 compute 0.03376
5 compute 95366.2
5 alltoall 33554432 33554432 26 26
5 compute 79579.8
5 alltoall 33554432 33554432 26 26
5 compute 69918.6
5 reduce 16 0 0 26 
5 compute 40057.9
5 alltoall 33554432 33554432 26 26
5 compute 69773.3
5 reduce 16 0 0 26 
5 compute 40106.3
5 alltoall 33554432 33554432 26 26
5 compute 69712.1
5 reduce 16 0 0 26 
5 compute 40231.5
5 alltoall 33554432 33554432 26 26
5 compute 69683.6
5 reduce 16 0 0 26 
5 compute 40162.6
5 alltoall 33554432 33554432 26 26
5 compute 70025.6
5 reduce 16 0 0 26 
5 compute 39913.1
5 alltoall 33554432 33554432 26 26
5 compute 69435.3
5 reduce 16 0 0 26 
5 compute 40151.9
5 alltoall 33554432 33554432 26 26
5 compute 69794.3
5 reduce 16 0 0 26 
5 compute 39964.8
5 alltoall 33554432 33554432 26 26
5 compute 69523.2
5 reduce 16 0 0 26 
5 compute 40026.4
5 alltoall 33554432 33554432 26 26
5 compute 69913.7
5 reduce 16 0 0 26 
5 compute 40028.8
5 alltoall 33554432 33554432 26 26
5 compute 69811.3
5 reduce 16 0 0 26 
5 compute 40153.7
5 alltoall 33554432 33554432 26 26
5 compute 69609.1
5 reduce 16 0 0 26 
5 compute 39931.3
5 alltoall 33554432 33554432 26 26
5 compute 70024.6
5 reduce 16 0 0 26 
5 compute 40240
5 alltoall 33554432 33554432 26 26
5 compute 69639.1
5 reduce 16 0 0 26 
5 compute 40071.3
5 alltoall 33554432 33554432 26 26
5 compute 69617.3
5 reduce 16 0 0 26 
5 compute 41086
5 alltoall 33554432 33554432 26 26
5 compute 69610.4
5 reduce 16 0 0 26 
5 compute 41964.3
5 alltoall 33554432 33554432 26 26
5 compute 70029.3
5 reduce 16 0 0 26 
5 compute 52866.1
5 alltoall 33554432 33554432 26 26
5 compute 71340.3
5 reduce 16 0 0 26 
5 compute 78564.1
5 alltoall 33554432 33554432 26 26
5 compute 93488.7
5 reduce 16 0 0 26 
5 compute 78342.9
5 alltoall 33554432 33554432 26 26
5 compute 99397.4
5 reduce 16 0 0 26 
5 compute 76970.4
5 alltoall 33554432 33554432 26 26
5 compute 98776.1
5 reduce 16 0 0 26 
5 compute 75983.1
5 alltoall 33554432 33554432 26 26
5 compute 97893.4
5 reduce 16 0 0 26 
5 compute 75058.4
5 alltoall 33554432 33554432 26 26
5 compute 97353.2
5 reduce 16 0 0 26 
5 compute 74374.4
5 alltoall 33554432 33554432 26 26
5 compute 96993.4
5 reduce 16 0 0 26 
5 compute 73557.3
5 alltoall 33554432 33554432 26 26
5 compute 96265.6
5 reduce 16 0 0 26 
5 compute 72915.4
5 alltoall 33554432 33554432 26 26
5 compute 95398.9
5 reduce 16 0 0 26 
5 compute 0.07254
5 compute 0.03876
5 finalize
