29 init
29 compute 0.08876
29 compute 0.11788
29 bcast 1 0 1 
29 compute 0.0238
29 bcast 1 0 1 
29 compute 0.02108
29 bcast 1 0 1 
29 compute 0.02202
29 bcast 1 0 1 
29 compute 0.02192
29 bcast 1 0 16 
29 compute 0.02426
29 compute 117173
29 alltoall 33554432 33554432 26 26
29 compute 29089.9
29 compute 0.06602
29 barrier
29 compute 0.03588
29 compute 95790.5
29 alltoall 33554432 33554432 26 26
29 compute 74827.2
29 alltoall 33554432 33554432 26 26
29 compute 62725.2
29 reduce 16 0 0 26 
29 compute 38707.6
29 alltoall 33554432 33554432 26 26
29 compute 62730
29 reduce 16 0 0 26 
29 compute 38594.7
29 alltoall 33554432 33554432 26 26
29 compute 62708.1
29 reduce 16 0 0 26 
29 compute 38681.6
29 alltoall 33554432 33554432 26 26
29 compute 62727.9
29 reduce 16 0 0 26 
29 compute 38653.3
29 alltoall 33554432 33554432 26 26
29 compute 62725.5
29 reduce 16 0 0 26 
29 compute 38725.1
29 alltoall 33554432 33554432 26 26
29 compute 62717.8
29 reduce 16 0 0 26 
29 compute 38652
29 alltoall 33554432 33554432 26 26
29 compute 62940.7
29 reduce 16 0 0 26 
29 compute 38700.3
29 alltoall 33554432 33554432 26 26
29 compute 62714.1
29 reduce 16 0 0 26 
29 compute 38664.1
29 alltoall 33554432 33554432 26 26
29 compute 62717.9
29 reduce 16 0 0 26 
29 compute 38694.5
29 alltoall 33554432 33554432 26 26
29 compute 62711.3
29 reduce 16 0 0 26 
29 compute 38689.1
29 alltoall 33554432 33554432 26 26
29 compute 62705.3
29 reduce 16 0 0 26 
29 compute 38725.6
29 alltoall 33554432 33554432 26 26
29 compute 62709.2
29 reduce 16 0 0 26 
29 compute 38701.7
29 alltoall 33554432 33554432 26 26
29 compute 62719.8
29 reduce 16 0 0 26 
29 compute 38699.7
29 alltoall 33554432 33554432 26 26
29 compute 62722.8
29 reduce 16 0 0 26 
29 compute 39327.6
29 alltoall 33554432 33554432 26 26
29 compute 62717
29 reduce 16 0 0 26 
29 compute 40213.7
29 alltoall 33554432 33554432 26 26
29 compute 62714
29 reduce 16 0 0 26 
29 compute 43376.3
29 alltoall 33554432 33554432 26 26
29 compute 64226.2
29 reduce 16 0 0 26 
29 compute 73002.6
29 alltoall 33554432 33554432 26 26
29 compute 86257.3
29 reduce 16 0 0 26 
29 compute 76297.8
29 alltoall 33554432 33554432 26 26
29 compute 92358.1
29 reduce 16 0 0 26 
29 compute 75201.9
29 alltoall 33554432 33554432 26 26
29 compute 91838.8
29 reduce 16 0 0 26 
29 compute 74092.5
29 alltoall 33554432 33554432 26 26
29 compute 90931.6
29 reduce 16 0 0 26 
29 compute 73271.3
29 alltoall 33554432 33554432 26 26
29 compute 90294.9
29 reduce 16 0 0 26 
29 compute 72447.1
29 alltoall 33554432 33554432 26 26
29 compute 89913.5
29 reduce 16 0 0 26 
29 compute 71593.4
29 alltoall 33554432 33554432 26 26
29 compute 89265.1
29 reduce 16 0 0 26 
29 compute 70832.4
29 alltoall 33554432 33554432 26 26
29 compute 88642.8
29 reduce 16 0 0 26 
29 compute 0.06296
29 compute 0.03574
29 finalize
