# version: 1.0
38 compute 2395926122.753
38 compute 1992284347.142
38 init
38 compute 2536096.684
38 compute 74294.888
38 compute 51386.186
38 bcast 4 0
38 compute 39681.74
38 bcast 4 0
38 compute 21174.71
38 bcast 4 0
38 compute 19690.813
38 bcast 4 0
38 compute 18707.106
38 bcast 4 0
38 compute 28160.697
38 compute 55304.341
38 compute 34878949532.882
38 alltoall 2097152 268435456
38 compute 9658826193.082
38 barrier
38 compute 32107078471.985
38 alltoall 2097152 268435456
38 compute 23884591397.106
38 alltoall 2097152 268435456
38 compute 17829046130.66
38 reduce 16 0 0
38 compute 12017381803.768
38 alltoall 2097152 268435456
38 compute 17909813577.298
38 reduce 16 0 0
38 compute 12067407156.181
38 alltoall 2097152 268435456
38 compute 17869145345.907
38 reduce 16 0 0
38 compute 12197036046.448
38 alltoall 2097152 268435456
38 compute 17907798328.461
38 reduce 16 0 0
38 compute 12142915371.737
38 alltoall 2097152 268435456
38 compute 18094187496.107
38 reduce 16 0 0
38 compute 11895970901.817
38 alltoall 2097152 268435456
38 compute 18181376915.501
38 reduce 16 0 0
38 compute 12017970060.554
38 alltoall 2097152 268435456
38 compute 17952206647.212
38 reduce 16 0 0
38 compute 12035737142.814
38 alltoall 2097152 268435456
38 compute 17933308635.362
38 reduce 16 0 0
38 compute 12300513602.983
38 alltoall 2097152 268435456
38 compute 17901083977.977
38 reduce 16 0 0
38 compute 12017391590.819
38 alltoall 2097152 268435456
38 compute 17999563435.956
38 reduce 16 0 0
38 compute 12343600436.427
38 alltoall 2097152 268435456
38 compute 17912704608.806
38 reduce 16 0 0
38 compute 12069326651.979
38 alltoall 2097152 268435456
38 compute 17989893429.416
38 reduce 16 0 0
38 compute 11994511216.246
38 alltoall 2097152 268435456
38 compute 17881011520.007
38 reduce 16 0 0
38 compute 12104282730.243
38 alltoall 2097152 268435456
38 compute 18065537763.344
38 reduce 16 0 0
38 compute 12008780453.163
38 alltoall 2097152 268435456
38 compute 18119201914.642
38 reduce 16 0 0
38 compute 12748041282.236
38 alltoall 2097152 268435456
38 compute 18197436649.215
38 reduce 16 0 0
38 compute 18441466862.138
38 alltoall 2097152 268435456
38 compute 18217154022.304
38 reduce 16 0 0
38 compute 18943625926.765
38 alltoall 2097152 268435456
38 compute 22293383984.639
38 reduce 16 0 0
38 compute 18665114099.139
38 alltoall 2097152 268435456
38 compute 23440605746.646
38 reduce 16 0 0
38 compute 18631615524.516
38 alltoall 2097152 268435456
38 compute 23803917636.055
38 reduce 16 0 0
38 compute 18436649748.997
38 alltoall 2097152 268435456
38 compute 23505471502.937
38 reduce 16 0 0
38 compute 18256988553.676
38 alltoall 2097152 268435456
38 compute 23387863095.385
38 reduce 16 0 0
38 compute 18175618728.221
38 alltoall 2097152 268435456
38 compute 23040156733.824
38 reduce 16 0 0
38 compute 17953192521.702
38 alltoall 2097152 268435456
38 compute 22945219271.292
38 reduce 16 0 0
38 compute 17765549961.281
38 alltoall 2097152 268435456
38 compute 22506300045.342
38 reduce 16 0 0
38 compute 216698.981
38 finalize
38 compute 585038.897
38 compute 90134.238
