# version: 1.0
21 compute 2320401967.809
21 compute 1951583770.131
21 init
21 compute 1639139.303
21 compute 55237.649
21 compute 46617.708
21 bcast 4 0
21 compute 31311.894
21 bcast 4 0
21 compute 18873.836
21 bcast 4 0
21 compute 17723.399
21 bcast 4 0
21 compute 16973.114
21 bcast 4 0
21 compute 22558.569
21 compute 35580.182
21 compute 28787474018.128
21 alltoall 2097152 268435456
21 compute 8071604994.801
21 barrier
21 compute 26166348502.112
21 alltoall 2097152 268435456
21 compute 19879439350.786
21 alltoall 2097152 268435456
21 compute 14725301489.04
21 reduce 16 0 0
21 compute 9739919330.102
21 alltoall 2097152 268435456
21 compute 14724715783.223
21 reduce 16 0 0
21 compute 9587349408.888
21 alltoall 2097152 268435456
21 compute 14859817735.797
21 reduce 16 0 0
21 compute 9677455769.632
21 alltoall 2097152 268435456
21 compute 14699582702.947
21 reduce 16 0 0
21 compute 9940541270.814
21 alltoall 2097152 268435456
21 compute 15085361476.529
21 reduce 16 0 0
21 compute 9028311471.833
21 alltoall 2097152 268435456
21 compute 14667512337.504
21 reduce 16 0 0
21 compute 9937951203.629
21 alltoall 2097152 268435456
21 compute 15238103079.624
21 reduce 16 0 0
21 compute 9478203249.102
21 alltoall 2097152 268435456
21 compute 14852827980.699
21 reduce 16 0 0
21 compute 9720171895.594
21 alltoall 2097152 268435456
21 compute 14871348532.502
21 reduce 16 0 0
21 compute 9674696171.383
21 alltoall 2097152 268435456
21 compute 14597499559.421
21 reduce 16 0 0
21 compute 9924262603.937
21 alltoall 2097152 268435456
21 compute 14723889402.651
21 reduce 16 0 0
21 compute 9638757603.248
21 alltoall 2097152 268435456
21 compute 15350943292.617
21 reduce 16 0 0
21 compute 9635056964.206
21 alltoall 2097152 268435456
21 compute 15120198359.516
21 reduce 16 0 0
21 compute 9573489327.391
21 alltoall 2097152 268435456
21 compute 14749607538.497
21 reduce 16 0 0
21 compute 10014865503.294
21 alltoall 2097152 268435456
21 compute 14636479299.429
21 reduce 16 0 0
21 compute 9948953232.812
21 alltoall 2097152 268435456
21 compute 15147659890.934
21 reduce 16 0 0
21 compute 10562483919.246
21 alltoall 2097152 268435456
21 compute 14780149389.992
21 reduce 16 0 0
21 compute 15254000718.432
21 alltoall 2097152 268435456
21 compute 18368883257.512
21 reduce 16 0 0
21 compute 15186469749.745
21 alltoall 2097152 268435456
21 compute 19596814460.79
21 reduce 16 0 0
21 compute 15142885560.711
21 alltoall 2097152 268435456
21 compute 19204789314.488
21 reduce 16 0 0
21 compute 14936168004.545
21 alltoall 2097152 268435456
21 compute 19132749366.373
21 reduce 16 0 0
21 compute 14905212879.399
21 alltoall 2097152 268435456
21 compute 19002903393.646
21 reduce 16 0 0
21 compute 14523174576.656
21 alltoall 2097152 268435456
21 compute 19069936106.401
21 reduce 16 0 0
21 compute 14634233529.694
21 alltoall 2097152 268435456
21 compute 18653239221.733
21 reduce 16 0 0
21 compute 14220612713.488
21 alltoall 2097152 268435456
21 compute 18768972867.146
21 reduce 16 0 0
21 compute 119495.391
21 finalize
21 compute 435998.95
21 compute 68476.011
