# version: 1.0
76 compute 1261741913.134
76 compute 18429024619.215
76 init
76 compute 2415134.069
76 compute 122213.09
76 compute 75311.941
76 bcast 4 0
76 compute 47734.799
76 bcast 4 0
76 compute 9753.705
76 bcast 4 0
76 compute 8619.941
76 bcast 4 0
76 compute 10087.165
76 bcast 4 0
76 compute 22591.915
76 compute 34062.939
76 compute 74490981487.22
76 alltoall 2097152 268435456
76 compute 21278474565.557
76 barrier
76 compute 66736120942.923
76 alltoall 2097152 268435456
76 compute 46698761438.607
76 alltoall 2097152 268435456
76 compute 36890428321.141
76 reduce 16 0 0
76 compute 25007108341.515
76 alltoall 2097152 268435456
76 compute 37093630975.485
76 reduce 16 0 0
76 compute 25075917895.88
76 alltoall 2097152 268435456
76 compute 37271893889.661
76 reduce 16 0 0
76 compute 25022417756.883
76 alltoall 2097152 268435456
76 compute 37357421161.012
76 reduce 16 0 0
76 compute 24751350957.293
76 alltoall 2097152 268435456
76 compute 36834078416.311
76 reduce 16 0 0
76 compute 25027704715.164
76 alltoall 2097152 268435456
76 compute 37504223141.241
76 reduce 16 0 0
76 compute 24791031696.913
76 alltoall 2097152 268435456
76 compute 38184126756.474
76 reduce 16 0 0
76 compute 24759377856.356
76 alltoall 2097152 268435456
76 compute 37008467408.956
76 reduce 16 0 0
76 compute 25235203818.205
76 alltoall 2097152 268435456
76 compute 39176717814.467
76 reduce 16 0 0
76 compute 24332635339.131
76 alltoall 2097152 268435456
76 compute 37536202422.085
76 reduce 16 0 0
76 compute 24830885485.6
76 alltoall 2097152 268435456
76 compute 39950855991.898
76 reduce 16 0 0
76 compute 23941734820.025
76 alltoall 2097152 268435456
76 compute 37124532146.803
76 reduce 16 0 0
76 compute 25035254533.005
76 alltoall 2097152 268435456
76 compute 37497491967.7
76 reduce 16 0 0
76 compute 24501400262.108
76 alltoall 2097152 268435456
76 compute 38247467066.649
76 reduce 16 0 0
76 compute 26241782489.472
76 alltoall 2097152 268435456
76 compute 37992486910.995
76 reduce 16 0 0
76 compute 40195141351.74
76 alltoall 2097152 268435456
76 compute 38797028087.177
76 reduce 16 0 0
76 compute 39040403451.352
76 alltoall 2097152 268435456
76 compute 37809900771.284
76 reduce 16 0 0
76 compute 39845482365.13
76 alltoall 2097152 268435456
76 compute 45873084267.131
76 reduce 16 0 0
76 compute 39539467590.354
76 alltoall 2097152 268435456
76 compute 48390626086.294
76 reduce 16 0 0
76 compute 39508843157.49
76 alltoall 2097152 268435456
76 compute 48720630140.2
76 reduce 16 0 0
76 compute 38472884142.6
76 alltoall 2097152 268435456
76 compute 48057066298.389
76 reduce 16 0 0
76 compute 38915884652.182
76 alltoall 2097152 268435456
76 compute 47091449620.1
76 reduce 16 0 0
76 compute 38204550064.383
76 alltoall 2097152 268435456
76 compute 48030315687.018
76 reduce 16 0 0
76 compute 37882950903.123
76 alltoall 2097152 268435456
76 compute 47087296825.971
76 reduce 16 0 0
76 compute 37667954018.674
76 alltoall 2097152 268435456
76 compute 47265395377.713
76 reduce 16 0 0
76 compute 224235.177
76 finalize
76 compute 986891.543
76 compute 121562.843
