# version: 1.0
59 compute 1308534537.577
59 compute 1359063981.472
59 init
59 compute 1167910.304
59 compute 56238.029
59 compute 43083.032
59 bcast 4 0
59 compute 32028.833
59 bcast 4 0
59 compute 17073.152
59 bcast 4 0
59 compute 16289.521
59 bcast 4 0
59 compute 15839.35
59 bcast 4 0
59 compute 22925.375
59 compute 38764.725
59 compute 28395838269.741
59 alltoall 2097152 268435456
59 compute 7304017388.975
59 barrier
59 compute 25970951996.311
59 alltoall 2097152 268435456
59 compute 18815384430.174
59 alltoall 2097152 268435456
59 compute 14299123686.325
59 reduce 16 0 0
59 compute 9761541676.806
59 alltoall 2097152 268435456
59 compute 14485886195.787
59 reduce 16 0 0
59 compute 9712015914.165
59 alltoall 2097152 268435456
59 compute 14244737344.032
59 reduce 16 0 0
59 compute 9762320372.598
59 alltoall 2097152 268435456
59 compute 14296051202.558
59 reduce 16 0 0
59 compute 9751855113.977
59 alltoall 2097152 268435456
59 compute 14371871886.807
59 reduce 16 0 0
59 compute 9790983893.932
59 alltoall 2097152 268435456
59 compute 14393456552.531
59 reduce 16 0 0
59 compute 9716929880.763
59 alltoall 2097152 268435456
59 compute 14490597335.34
59 reduce 16 0 0
59 compute 9734510575.556
59 alltoall 2097152 268435456
59 compute 14395138774.866
59 reduce 16 0 0
59 compute 9752767493.883
59 alltoall 2097152 268435456
59 compute 14710901569.149
59 reduce 16 0 0
59 compute 9445037851.038
59 alltoall 2097152 268435456
59 compute 14390413730.031
59 reduce 16 0 0
59 compute 9724515012.018
59 alltoall 2097152 268435456
59 compute 14548916121.394
59 reduce 16 0 0
59 compute 9688473037.937
59 alltoall 2097152 268435456
59 compute 14436281153.031
59 reduce 16 0 0
59 compute 9777334325.733
59 alltoall 2097152 268435456
59 compute 14521783998.437
59 reduce 16 0 0
59 compute 10014602003.202
59 alltoall 2097152 268435456
59 compute 14376073065.982
59 reduce 16 0 0
59 compute 15278690230.216
59 alltoall 2097152 268435456
59 compute 14683630426.718
59 reduce 16 0 0
59 compute 15800016225.51
59 alltoall 2097152 268435456
59 compute 14475913857.738
59 reduce 16 0 0
59 compute 15824806225.465
59 alltoall 2097152 268435456
59 compute 14542513455.972
59 reduce 16 0 0
59 compute 15957133540.744
59 alltoall 2097152 268435456
59 compute 18078542669.998
59 reduce 16 0 0
59 compute 15665306872.067
59 alltoall 2097152 268435456
59 compute 18939624356.746
59 reduce 16 0 0
59 compute 15591966663.374
59 alltoall 2097152 268435456
59 compute 18773251409.041
59 reduce 16 0 0
59 compute 15468397158.132
59 alltoall 2097152 268435456
59 compute 18673589885.381
59 reduce 16 0 0
59 compute 15334051159.378
59 alltoall 2097152 268435456
59 compute 18554617209.604
59 reduce 16 0 0
59 compute 15279721471.939
59 alltoall 2097152 268435456
59 compute 18629351014.329
59 reduce 16 0 0
59 compute 15091029979.742
59 alltoall 2097152 268435456
59 compute 18495134398.055
59 reduce 16 0 0
59 compute 15119201880.998
59 alltoall 2097152 268435456
59 compute 18126157740.185
59 reduce 16 0 0
59 compute 74211.523
59 finalize
59 compute 401635.897
59 compute 63874.263
