# version: 1.0
34 compute 2279215172.772
34 compute 2617319286.865
34 init
34 compute 2749944.582
34 compute 75128.538
34 compute 52569.969
34 bcast 4 0
34 compute 41048.926
34 bcast 4 0
34 compute 20807.904
34 bcast 4 0
34 compute 19807.524
34 bcast 4 0
34 compute 19440.718
34 bcast 4 0
34 compute 27843.91
34 compute 49318.734
34 compute 34985734912.579
34 alltoall 2097152 268435456
34 compute 9817729003.213
34 barrier
34 compute 32566701562.415
34 alltoall 2097152 268435456
34 compute 24267817000.852
34 alltoall 2097152 268435456
34 compute 18221748250.781
34 reduce 16 0 0
34 compute 12168498406.264
34 alltoall 2097152 268435456
34 compute 17786859772.6
34 reduce 16 0 0
34 compute 12109508615.325
34 alltoall 2097152 268435456
34 compute 18377960989.073
34 reduce 16 0 0
34 compute 12129880253.607
34 alltoall 2097152 268435456
34 compute 18134951330.48
34 reduce 16 0 0
34 compute 12130540137.601
34 alltoall 2097152 268435456
34 compute 18431365041.571
34 reduce 16 0 0
34 compute 12080101794.978
34 alltoall 2097152 268435456
34 compute 18483005207.38
34 reduce 16 0 0
34 compute 12008004608.454
34 alltoall 2097152 268435456
34 compute 17733529698.203
34 reduce 16 0 0
34 compute 11545613516.583
34 alltoall 2097152 268435456
34 compute 18054322186.377
34 reduce 16 0 0
34 compute 12171157933.167
34 alltoall 2097152 268435456
34 compute 17939529181.605
34 reduce 16 0 0
34 compute 11732470161.803
34 alltoall 2097152 268435456
34 compute 18005331777.093
34 reduce 16 0 0
34 compute 12617981911.782
34 alltoall 2097152 268435456
34 compute 17996059371.584
34 reduce 16 0 0
34 compute 11676858270.645
34 alltoall 2097152 268435456
34 compute 18262359027.014
34 reduce 16 0 0
34 compute 11933677391.507
34 alltoall 2097152 268435456
34 compute 17885176602.137
34 reduce 16 0 0
34 compute 11875430632.813
34 alltoall 2097152 268435456
34 compute 18118069617.866
34 reduce 16 0 0
34 compute 11614543416.662
34 alltoall 2097152 268435456
34 compute 18078234002.749
34 reduce 16 0 0
34 compute 11473297063.436
34 alltoall 2097152 268435456
34 compute 18246578882.837
34 reduce 16 0 0
34 compute 17843192687.643
34 alltoall 2097152 268435456
34 compute 18079049029.008
34 reduce 16 0 0
34 compute 19067862935.562
34 alltoall 2097152 268435456
34 compute 22275663853.547
34 reduce 16 0 0
34 compute 18491424405.46
34 alltoall 2097152 268435456
34 compute 23430531219.78
34 reduce 16 0 0
34 compute 18187363356.151
34 alltoall 2097152 268435456
34 compute 23377508178.678
34 reduce 16 0 0
34 compute 18282680763.007
34 alltoall 2097152 268435456
34 compute 23188790960.042
34 reduce 16 0 0
34 compute 17967219983.446
34 alltoall 2097152 268435456
34 compute 23581325166.38
34 reduce 16 0 0
34 compute 17967608230.924
34 alltoall 2097152 268435456
34 compute 23030036122.786
34 reduce 16 0 0
34 compute 17491881440.079
34 alltoall 2097152 268435456
34 compute 22694049212.925
34 reduce 16 0 0
34 compute 17403637470.108
34 alltoall 2097152 268435456
34 compute 23376985763.569
34 reduce 16 0 0
34 compute 88500.284
34 finalize
34 compute 489986.124
34 compute 98654.141
