# version: 1.0
64 compute 586912842.162
64 compute 14454386947.286
64 init
64 compute 2850699.521
64 compute 111125.545
64 compute 68459.338
64 bcast 4 0
64 compute 44166.777
64 bcast 4 0
64 compute 11737.792
64 bcast 4 0
64 compute 11754.465
64 bcast 4 0
64 compute 6018.953
64 bcast 4 0
64 compute 24525.983
64 compute 39231.569
64 compute 74951863789.302
64 alltoall 2097152 268435456
64 compute 22078430233.241
64 barrier
64 compute 67673996950.428
64 alltoall 2097152 268435456
64 compute 47628663117.018
64 alltoall 2097152 268435456
64 compute 38488939074.49
64 reduce 16 0 0
64 compute 22566227108.976
64 alltoall 2097152 268435456
64 compute 39201068897.697
64 reduce 16 0 0
64 compute 23830528327.61
64 alltoall 2097152 268435456
64 compute 38999842260.621
64 reduce 16 0 0
64 compute 24227447582.967
64 alltoall 2097152 268435456
64 compute 40164985980.385
64 reduce 16 0 0
64 compute 21464433002.921
64 alltoall 2097152 268435456
64 compute 38942459363.403
64 reduce 16 0 0
64 compute 23225519644.974
64 alltoall 2097152 268435456
64 compute 38465547339.007
64 reduce 16 0 0
64 compute 23929259898.022
64 alltoall 2097152 268435456
64 compute 40093095055.544
64 reduce 16 0 0
64 compute 22580348906.554
64 alltoall 2097152 268435456
64 compute 38556959495.765
64 reduce 16 0 0
64 compute 23133896041.23
64 alltoall 2097152 268435456
64 compute 40976407870.245
64 reduce 16 0 0
64 compute 20884110047.298
64 alltoall 2097152 268435456
64 compute 40642316713.83
64 reduce 16 0 0
64 compute 23368651547.77
64 alltoall 2097152 268435456
64 compute 40581745455.495
64 reduce 16 0 0
64 compute 22166974000.425
64 alltoall 2097152 268435456
64 compute 37700249419.598
64 reduce 16 0 0
64 compute 23650613302.537
64 alltoall 2097152 268435456
64 compute 37189067194.139
64 reduce 16 0 0
64 compute 26972766924.71
64 alltoall 2097152 268435456
64 compute 38331856339.058
64 reduce 16 0 0
64 compute 38845414733.785
64 alltoall 2097152 268435456
64 compute 37735147925.993
64 reduce 16 0 0
64 compute 40014720134.387
64 alltoall 2097152 268435456
64 compute 39378009809.703
64 reduce 16 0 0
64 compute 39228091645.774
64 alltoall 2097152 268435456
64 compute 37763481588.695
64 reduce 16 0 0
64 compute 40110905620.988
64 alltoall 2097152 268435456
64 compute 46523786856.856
64 reduce 16 0 0
64 compute 39532673893.063
64 alltoall 2097152 268435456
64 compute 48543505341.677
64 reduce 16 0 0
64 compute 39561465229.615
64 alltoall 2097152 268435456
64 compute 49090800534.851
64 reduce 16 0 0
64 compute 38901134299.177
64 alltoall 2097152 268435456
64 compute 48083833315.992
64 reduce 16 0 0
64 compute 39338890116.533
64 alltoall 2097152 268435456
64 compute 47392053639.57
64 reduce 16 0 0
64 compute 37846199526.238
64 alltoall 2097152 268435456
64 compute 47591296856.566
64 reduce 16 0 0
64 compute 37831570169.194
64 alltoall 2097152 268435456
64 compute 46944422954.523
64 reduce 16 0 0
64 compute 38093271894.741
64 alltoall 2097152 268435456
64 compute 46994804075.41
64 reduce 16 0 0
64 compute 148806.525
64 finalize
64 compute 1732608.141
64 compute 234772.513
