# version: 1.0
113 compute 921084779.262
113 compute 13165139486.014
113 init
113 compute 1131179.685
113 compute 41932.595
113 compute 28560.849
113 bcast 4 0
113 compute 16322.867
113 bcast 4 0
113 compute 3784.771
113 bcast 4 0
113 compute 2767.718
113 bcast 4 0
113 compute 3901.482
113 bcast 4 0
113 compute 8286.481
113 compute 11737.792
113 compute 28766028255.167
113 alltoall 2097152 268435456
113 compute 7061138480.048
113 barrier
113 compute 25871742294.278
113 alltoall 2097152 268435456
113 compute 19219193802.781
113 alltoall 2097152 268435456
113 compute 15302288477.477
113 reduce 16 0 0
113 compute 9390713899.111
113 alltoall 2097152 268435456
113 compute 14470048496.414
113 reduce 16 0 0
113 compute 9810649547.375
113 alltoall 2097152 268435456
113 compute 14482797839.324
113 reduce 16 0 0
113 compute 9752722576.821
113 alltoall 2097152 268435456
113 compute 14516954163.797
113 reduce 16 0 0
113 compute 9843790469.475
113 alltoall 2097152 268435456
113 compute 14858530746.927
113 reduce 16 0 0
113 compute 9640144113.255
113 alltoall 2097152 268435456
113 compute 14461681268.075
113 reduce 16 0 0
113 compute 9716504319.111
113 alltoall 2097152 268435456
113 compute 15403436499.125
113 reduce 16 0 0
113 compute 9270166708.579
113 alltoall 2097152 268435456
113 compute 14643906320.625
113 reduce 16 0 0
113 compute 9741335134.57
113 alltoall 2097152 268435456
113 compute 14470090062.203
113 reduce 16 0 0
113 compute 9771289646.294
113 alltoall 2097152 268435456
113 compute 14398756615.79
113 reduce 16 0 0
113 compute 9695918216.03
113 alltoall 2097152 268435456
113 compute 14712322675.631
113 reduce 16 0 0
113 compute 9373998999.862
113 alltoall 2097152 268435456
113 compute 15518329908.703
113 reduce 16 0 0
113 compute 9258417512.247
113 alltoall 2097152 268435456
113 compute 15132071486.257
113 reduce 16 0 0
113 compute 9500887232.408
113 alltoall 2097152 268435456
113 compute 15007666380.274
113 reduce 16 0 0
113 compute 9659142596.603
113 alltoall 2097152 268435456
113 compute 15106613632.614
113 reduce 16 0 0
113 compute 9550606335.157
113 alltoall 2097152 268435456
113 compute 14911819222.189
113 reduce 16 0 0
113 compute 10203173016.301
113 alltoall 2097152 268435456
113 compute 15510298708.006
113 reduce 16 0 0
113 compute 14363227869.995
113 alltoall 2097152 268435456
113 compute 18399450201.872
113 reduce 16 0 0
113 compute 14690389277.439
113 alltoall 2097152 268435456
113 compute 19412174357.536
113 reduce 16 0 0
113 compute 14548914103.961
113 alltoall 2097152 268435456
113 compute 19089289524.573
113 reduce 16 0 0
113 compute 14471905551.827
113 alltoall 2097152 268435456
113 compute 18905871869.006
113 reduce 16 0 0
113 compute 14346488461.436
113 alltoall 2097152 268435456
113 compute 18811771024.268
113 reduce 16 0 0
113 compute 14250112402.445
113 alltoall 2097152 268435456
113 compute 18334932961.3
113 reduce 16 0 0
113 compute 14095658032.079
113 alltoall 2097152 268435456
113 compute 18809521469.762
113 reduce 16 0 0
113 compute 14007870802.27
113 alltoall 2097152 268435456
113 compute 18731302557.866
113 reduce 16 0 0
113 compute 47201.263
113 finalize
113 compute 435298.684
113 compute 52553.296
