# version: 1.0
51 compute 1465381716.865
51 compute 1514246194.98
51 init
51 compute 1437379.33
51 compute 60439.625
51 compute 43833.317
51 bcast 4 0
51 compute 31778.738
51 bcast 4 0
51 compute 16989.787
51 bcast 4 0
51 compute 15739.312
51 bcast 4 0
51 compute 15772.658
51 bcast 4 0
51 compute 20941.288
51 compute 36647.254
51 compute 28580179892.949
51 alltoall 2097152 268435456
51 compute 7294553310.658
51 barrier
51 compute 26060653669.999
51 alltoall 2097152 268435456
51 compute 19001264937.936
51 alltoall 2097152 268435456
51 compute 14705615827.997
51 reduce 16 0 0
51 compute 9707264342.587
51 alltoall 2097152 268435456
51 compute 14984333483.808
51 reduce 16 0 0
51 compute 9570661036.382
51 alltoall 2097152 268435456
51 compute 14708055237.954
51 reduce 16 0 0
51 compute 9759525160.821
51 alltoall 2097152 268435456
51 compute 14799320705.658
51 reduce 16 0 0
51 compute 9669568206.83
51 alltoall 2097152 268435456
51 compute 14665386046.487
51 reduce 16 0 0
51 compute 9819748336.935
51 alltoall 2097152 268435456
51 compute 14839028222.116
51 reduce 16 0 0
51 compute 9733057923.758
51 alltoall 2097152 268435456
51 compute 14814912044.783
51 reduce 16 0 0
51 compute 9739542853.762
51 alltoall 2097152 268435456
51 compute 14752358266.71
51 reduce 16 0 0
51 compute 9741909452.728
51 alltoall 2097152 268435456
51 compute 15650787590.169
51 reduce 16 0 0
51 compute 9206401136.866
51 alltoall 2097152 268435456
51 compute 14687978961.867
51 reduce 16 0 0
51 compute 9754595271.508
51 alltoall 2097152 268435456
51 compute 14998068217.691
51 reduce 16 0 0
51 compute 9645527491.495
51 alltoall 2097152 268435456
51 compute 14819243406.742
51 reduce 16 0 0
51 compute 9754851985.689
51 alltoall 2097152 268435456
51 compute 14755283878.02
51 reduce 16 0 0
51 compute 9712834191.659
51 alltoall 2097152 268435456
51 compute 14601689567.686
51 reduce 16 0 0
51 compute 10389433785.174
51 alltoall 2097152 268435456
51 compute 15112508104.996
51 reduce 16 0 0
51 compute 15627775132.09
51 alltoall 2097152 268435456
51 compute 14749894464.154
51 reduce 16 0 0
51 compute 15722984764.674
51 alltoall 2097152 268435456
51 compute 14875142557.017
51 reduce 16 0 0
51 compute 15824340365.172
51 alltoall 2097152 268435456
51 compute 18289243272.48
51 reduce 16 0 0
51 compute 15646556449.613
51 alltoall 2097152 268435456
51 compute 19194037930.514
51 reduce 16 0 0
51 compute 15534625615.386
51 alltoall 2097152 268435456
51 compute 19146318270.598
51 reduce 16 0 0
51 compute 15297655150.815
51 alltoall 2097152 268435456
51 compute 18883213945.599
51 reduce 16 0 0
51 compute 15249492289.213
51 alltoall 2097152 268435456
51 compute 18709656418.791
51 reduce 16 0 0
51 compute 15121740912.13
51 alltoall 2097152 268435456
51 compute 18745548736.024
51 reduce 16 0 0
51 compute 14922932210.187
51 alltoall 2097152 268435456
51 compute 18712567657.975
51 reduce 16 0 0
51 compute 14925262695.435
51 alltoall 2097152 268435456
51 compute 18464106345.207
51 reduce 16 0 0
51 compute 69543.083
51 finalize
51 compute 385779.874
51 compute 64674.567
