# version: 1.0
18 compute 2394297954.284
18 compute 1856857104.338
18 init
18 compute 1108087.58
18 compute 59222.496
18 compute 98103.932
18 bcast 4 0
18 compute 32062.179
18 bcast 4 0
18 compute 18623.741
18 bcast 4 0
18 compute 17023.133
18 bcast 4 0
18 compute 16906.422
18 bcast 4 0
18 compute 21941.668
18 compute 37597.615
18 compute 29042544724.845
18 alltoall 2097152 268435456
18 compute 8173069653.392
18 barrier
18 compute 26459161545.469
18 alltoall 2097152 268435456
18 compute 20328270758.601
18 alltoall 2097152 268435456
18 compute 14923378429.686
18 reduce 16 0 0
18 compute 9932639969.46
18 alltoall 2097152 268435456
18 compute 14749783572.031
18 reduce 16 0 0
18 compute 9695311535.579
18 alltoall 2097152 268435456
18 compute 14859098595.961
18 reduce 16 0 0
18 compute 9684872320.184
18 alltoall 2097152 268435456
18 compute 14731974140.351
18 reduce 16 0 0
18 compute 9998069223.132
18 alltoall 2097152 268435456
18 compute 15476672785.009
18 reduce 16 0 0
18 compute 8962376175.938
18 alltoall 2097152 268435456
18 compute 14823243276.115
18 reduce 16 0 0
18 compute 10025448139.835
18 alltoall 2097152 268435456
18 compute 15143862398.435
18 reduce 16 0 0
18 compute 9681210345.829
18 alltoall 2097152 268435456
18 compute 14870619455.558
18 reduce 16 0 0
18 compute 9715380575.584
18 alltoall 2097152 268435456
18 compute 15020111140.82
18 reduce 16 0 0
18 compute 9689194195.206
18 alltoall 2097152 268435456
18 compute 14686778589.232
18 reduce 16 0 0
18 compute 9780142042.26
18 alltoall 2097152 268435456
18 compute 14962887954.269
18 reduce 16 0 0
18 compute 9715582185.5
18 alltoall 2097152 268435456
18 compute 15371935216.518
18 reduce 16 0 0
18 compute 9666787517.236
18 alltoall 2097152 268435456
18 compute 15031959708.232
18 reduce 16 0 0
18 compute 9627122516.928
18 alltoall 2097152 268435456
18 compute 14848955576.411
18 reduce 16 0 0
18 compute 10111626358.452
18 alltoall 2097152 268435456
18 compute 14740420065.25
18 reduce 16 0 0
18 compute 10052239399.98
18 alltoall 2097152 268435456
18 compute 15368935377.012
18 reduce 16 0 0
18 compute 9842514051.287
18 alltoall 2097152 268435456
18 compute 14871500656.954
18 reduce 16 0 0
18 compute 15284128262.55
18 alltoall 2097152 268435456
18 compute 18133917104.29
18 reduce 16 0 0
18 compute 15199648739.192
18 alltoall 2097152 268435456
18 compute 19256060940.305
18 reduce 16 0 0
18 compute 15112324451.901
18 alltoall 2097152 268435456
18 compute 19275282041.549
18 reduce 16 0 0
18 compute 14883725600.668
18 alltoall 2097152 268435456
18 compute 18740055916.212
18 reduce 16 0 0
18 compute 14772800348.417
18 alltoall 2097152 268435456
18 compute 19133472841.189
18 reduce 16 0 0
18 compute 14683195078.015
18 alltoall 2097152 268435456
18 compute 18947051261.231
18 reduce 16 0 0
18 compute 14656243707.051
18 alltoall 2097152 268435456
18 compute 19080399130.84
18 reduce 16 0 0
18 compute 14450611663.223
18 alltoall 2097152 268435456
18 compute 19006225555.588
18 reduce 16 0 0
18 compute 70543.463
18 finalize
18 compute 425011.443
18 compute 69476.391
