# version: 1.0
58 compute 1433639142.602
58 compute 1362432977.871
58 init
58 compute 705001.132
58 compute 82047.833
58 compute 62123.598
58 bcast 4 0
58 compute 30945.088
58 bcast 4 0
58 compute 16956.441
58 bcast 4 0
58 compute 16522.943
58 bcast 4 0
58 compute 16139.464
58 bcast 4 0
58 compute 21558.189
58 compute 39131.531
58 compute 28163032637.205
58 alltoall 2097152 268435456
58 compute 7261236171.621
58 barrier
58 compute 25711743684.568
58 alltoall 2097152 268435456
58 compute 18756941713.711
58 alltoall 2097152 268435456
58 compute 14168005680.409
58 reduce 16 0 0
58 compute 9752542625.132
58 alltoall 2097152 268435456
58 compute 14331236918.051
58 reduce 16 0 0
58 compute 9703203983.57
58 alltoall 2097152 268435456
58 compute 14231853950.202
58 reduce 16 0 0
58 compute 9744038661.52
58 alltoall 2097152 268435456
58 compute 14209613235.274
58 reduce 16 0 0
58 compute 9734749599.684
58 alltoall 2097152 268435456
58 compute 14189502562.788
58 reduce 16 0 0
58 compute 9772225134.978
58 alltoall 2097152 268435456
58 compute 14324150793.013
58 reduce 16 0 0
58 compute 9713566703.241
58 alltoall 2097152 268435456
58 compute 14365841162.669
58 reduce 16 0 0
58 compute 9731228845.639
58 alltoall 2097152 268435456
58 compute 14301435831.273
58 reduce 16 0 0
58 compute 9741094993.351
58 alltoall 2097152 268435456
58 compute 14396108459.873
58 reduce 16 0 0
58 compute 9442843234.067
58 alltoall 2097152 268435456
58 compute 14303636367.159
58 reduce 16 0 0
58 compute 9716259109.3
58 alltoall 2097152 268435456
58 compute 14417441396.643
58 reduce 16 0 0
58 compute 9668067536.792
58 alltoall 2097152 268435456
58 compute 14345216745.034
58 reduce 16 0 0
58 compute 9754323701.684
58 alltoall 2097152 268435456
58 compute 14300429899.164
58 reduce 16 0 0
58 compute 9941126009.597
58 alltoall 2097152 268435456
58 compute 14327104698.404
58 reduce 16 0 0
58 compute 14773608088.575
58 alltoall 2097152 268435456
58 compute 14465189250.602
58 reduce 16 0 0
58 compute 15770563254.299
58 alltoall 2097152 268435456
58 compute 14402176381.474
58 reduce 16 0 0
58 compute 15786275889.499
58 alltoall 2097152 268435456
58 compute 14482908331.295
58 reduce 16 0 0
58 compute 15922197503.426
58 alltoall 2097152 268435456
58 compute 17846914968.239
58 reduce 16 0 0
58 compute 15630948270.758
58 alltoall 2097152 268435456
58 compute 18902694278.647
58 reduce 16 0 0
58 compute 15546315772.625
58 alltoall 2097152 268435456
58 compute 18676085516.694
58 reduce 16 0 0
58 compute 15400474640.713
58 alltoall 2097152 268435456
58 compute 18567632937.035
58 reduce 16 0 0
58 compute 15274268517.27
58 alltoall 2097152 268435456
58 compute 18415685752.371
58 reduce 16 0 0
58 compute 15234522869.661
58 alltoall 2097152 268435456
58 compute 18466777159.731
58 reduce 16 0 0
58 compute 15054346862.119
58 alltoall 2097152 268435456
58 compute 18386086692.334
58 reduce 16 0 0
58 compute 15050885864.106
58 alltoall 2097152 268435456
58 compute 18256832694.472
58 reduce 16 0 0
58 compute 78279.735
58 finalize
58 compute 394016.336
58 compute 63307.381
