# version: 1.0
27 compute 2754137324.637
27 compute 2394707309.78
27 init
27 compute 2784090.886
27 compute 78713.233
27 compute 52736.699
27 bcast 4 0
27 compute 39915.162
27 bcast 4 0
27 compute 22291.801
27 bcast 4 0
27 compute 21574.862
27 bcast 4 0
27 compute 20724.539
27 bcast 4 0
27 compute 27843.91
27 compute 42099.325
27 compute 35442437677.04
27 alltoall 2097152 268435456
27 compute 9649514505.985
27 barrier
27 compute 32408610043.791
27 alltoall 2097152 268435456
27 compute 24705337078.661
27 alltoall 2097152 268435456
27 compute 18510094564.092
27 reduce 16 0 0
27 compute 12086039116.97
27 alltoall 2097152 268435456
27 compute 18345549293.974
27 reduce 16 0 0
27 compute 12008893679.506
27 alltoall 2097152 268435456
27 compute 18336979822.145
27 reduce 16 0 0
27 compute 12039694946.208
27 alltoall 2097152 268435456
27 compute 18150847535.41
27 reduce 16 0 0
27 compute 12242167506.555
27 alltoall 2097152 268435456
27 compute 19057305558.616
27 reduce 16 0 0
27 compute 11561114721.47
27 alltoall 2097152 268435456
27 compute 18072580838.696
27 reduce 16 0 0
27 compute 12291510599.808
27 alltoall 2097152 268435456
27 compute 19066379938.904
27 reduce 16 0 0
27 compute 11890460575.355
27 alltoall 2097152 268435456
27 compute 18358096810.219
27 reduce 16 0 0
27 compute 11979065715.852
27 alltoall 2097152 268435456
27 compute 18403914364.276
27 reduce 16 0 0
27 compute 12024912881.157
27 alltoall 2097152 268435456
27 compute 18007454600.126
27 reduce 16 0 0
27 compute 12138867900.949
27 alltoall 2097152 268435456
27 compute 18375921947.865
27 reduce 16 0 0
27 compute 12099351273.668
27 alltoall 2097152 268435456
27 compute 18933592565.536
27 reduce 16 0 0
27 compute 11877647008.049
27 alltoall 2097152 268435456
27 compute 18949395301.628
27 reduce 16 0 0
27 compute 11964555187.279
27 alltoall 2097152 268435456
27 compute 18281591049.073
27 reduce 16 0 0
27 compute 12380978067.865
27 alltoall 2097152 268435456
27 compute 18172484521.008
27 reduce 16 0 0
27 compute 12479234674.526
27 alltoall 2097152 268435456
27 compute 18648060271.146
27 reduce 16 0 0
27 compute 15061825102.771
27 alltoall 2097152 268435456
27 compute 18368504780.412
27 reduce 16 0 0
27 compute 18808612107.669
27 alltoall 2097152 268435456
27 compute 22528078884.824
27 reduce 16 0 0
27 compute 18683793944.784
27 alltoall 2097152 268435456
27 compute 23908754292.185
27 reduce 16 0 0
27 compute 18605399732.966
27 alltoall 2097152 268435456
27 compute 23783640183.55
27 reduce 16 0 0
27 compute 18435747673.005
27 alltoall 2097152 268435456
27 compute 23659360375.162
27 reduce 16 0 0
27 compute 18097710284.258
27 alltoall 2097152 268435456
27 compute 23827548112.225
27 reduce 16 0 0
27 compute 17970670594.18
27 alltoall 2097152 268435456
27 compute 23441062636.865
27 reduce 16 0 0
27 compute 17878807616.175
27 alltoall 2097152 268435456
27 compute 23252160764.754
27 reduce 16 0 0
27 compute 17736319741.35
27 alltoall 2097152 268435456
27 compute 23149124642.567
27 reduce 16 0 0
27 compute 108374.5
27 finalize
27 compute 510844.047
27 compute 77462.758
