# version: 1.0
97 compute 895211601.189
97 compute 11143246391.822
97 init
97 compute 972536.09
97 compute 41999.287
97 compute 29911.362
97 bcast 4 0
97 compute 18923.855
97 bcast 4 0
97 compute 3818.117
97 bcast 4 0
97 compute 2834.41
97 bcast 4 0
97 compute 3818.117
97 bcast 4 0
97 compute 8753.325
97 compute 10720.739
97 compute 29063726054.026
97 alltoall 2097152 268435456
97 compute 7897160931.237
97 barrier
97 compute 26382185605.723
97 alltoall 2097152 268435456
97 compute 19341798341.475
97 alltoall 2097152 268435456
97 compute 14722110126.783
97 reduce 16 0 0
97 compute 9750867972.339
97 alltoall 2097152 268435456
97 compute 14778307757.104
97 reduce 16 0 0
97 compute 9752081083.146
97 alltoall 2097152 268435456
97 compute 14967290860.071
97 reduce 16 0 0
97 compute 9784535544.49
97 alltoall 2097152 268435456
97 compute 15858566032.652
97 reduce 16 0 0
97 compute 9265433310.571
97 alltoall 2097152 268435456
97 compute 15116470843.598
97 reduce 16 0 0
97 compute 9814182622.767
97 alltoall 2097152 268435456
97 compute 15431681628.197
97 reduce 16 0 0
97 compute 9635831141.615
97 alltoall 2097152 268435456
97 compute 15755899750.951
97 reduce 16 0 0
97 compute 9293845936.601
97 alltoall 2097152 268435456
97 compute 14926171340.589
97 reduce 16 0 0
97 compute 9934178387.17
97 alltoall 2097152 268435456
97 compute 14805555774.084
97 reduce 16 0 0
97 compute 9854648160.497
97 alltoall 2097152 268435456
97 compute 15247163087.786
97 reduce 16 0 0
97 compute 9835627735.481
97 alltoall 2097152 268435456
97 compute 14870373228.694
97 reduce 16 0 0
97 compute 9876948464.727
97 alltoall 2097152 268435456
97 compute 14936622843.985
97 reduce 16 0 0
97 compute 9872766542.867
97 alltoall 2097152 268435456
97 compute 15083168043.341
97 reduce 16 0 0
97 compute 9782087564.611
97 alltoall 2097152 268435456
97 compute 15043847123.734
97 reduce 16 0 0
97 compute 9956504334.474
97 alltoall 2097152 268435456
97 compute 15805268670.681
97 reduce 16 0 0
97 compute 9985294553.935
97 alltoall 2097152 268435456
97 compute 15679412230.067
97 reduce 16 0 0
97 compute 13245339617.154
97 alltoall 2097152 268435456
97 compute 15104378383.542
97 reduce 16 0 0
97 compute 15189888498.376
97 alltoall 2097152 268435456
97 compute 18818132173.92
97 reduce 16 0 0
97 compute 14999537192.356
97 alltoall 2097152 268435456
97 compute 19528315674.472
97 reduce 16 0 0
97 compute 14912283098.395
97 alltoall 2097152 268435456
97 compute 19285776728.015
97 reduce 16 0 0
97 compute 14662010697.675
97 alltoall 2097152 268435456
97 compute 19363080759.055
97 reduce 16 0 0
97 compute 14643321631.861
97 alltoall 2097152 268435456
97 compute 19080469707.649
97 reduce 16 0 0
97 compute 14619809884.124
97 alltoall 2097152 268435456
97 compute 18999191933.827
97 reduce 16 0 0
97 compute 14475092012.222
97 alltoall 2097152 268435456
97 compute 19047674833.664
97 reduce 16 0 0
97 compute 14268776692.181
97 alltoall 2097152 268435456
97 compute 18538016920.557
97 reduce 16 0 0
97 compute 95369.56
97 finalize
97 compute 426145.207
97 compute 81030.78
