# version: 1.0
15 compute 1897187824.19
15 compute 2404984363.577
15 init
15 compute 662384.944
15 compute 57821.964
15 compute 76462.378
15 bcast 4 0
15 compute 31561.989
15 bcast 4 0
15 compute 18340.3
15 bcast 4 0
15 compute 16122.791
15 bcast 4 0
15 compute 16039.426
15 bcast 4 0
15 compute 21057.999
15 compute 41749.192
15 compute 29156956918.297
15 alltoall 2097152 268435456
15 compute 7772882590.073
15 barrier
15 compute 27031216877.255
15 alltoall 2097152 268435456
15 compute 19679087812.788
15 alltoall 2097152 268435456
15 compute 15136105752.029
15 reduce 16 0 0
15 compute 9850728438.235
15 alltoall 2097152 268435456
15 compute 15375382392.614
15 reduce 16 0 0
15 compute 10025333679.69
15 alltoall 2097152 268435456
15 compute 15189839363.045
15 reduce 16 0 0
15 compute 10055919264.464
15 alltoall 2097152 268435456
15 compute 14982945406.539
15 reduce 16 0 0
15 compute 9921361635.321
15 alltoall 2097152 268435456
15 compute 15285018300.636
15 reduce 16 0 0
15 compute 10043956503.675
15 alltoall 2097152 268435456
15 compute 15028305836.955
15 reduce 16 0 0
15 compute 9927203587.753
15 alltoall 2097152 268435456
15 compute 15199207038.076
15 reduce 16 0 0
15 compute 9994306477.165
15 alltoall 2097152 268435456
15 compute 15133427101.195
15 reduce 16 0 0
15 compute 9882976521.185
15 alltoall 2097152 268435456
15 compute 15079197418.41
15 reduce 16 0 0
15 compute 9875991117.74
15 alltoall 2097152 268435456
15 compute 15093083226.346
15 reduce 16 0 0
15 compute 10083692947.788
15 alltoall 2097152 268435456
15 compute 15185634932.635
15 reduce 16 0 0
15 compute 9758492618.604
15 alltoall 2097152 268435456
15 compute 15251015401.109
15 reduce 16 0 0
15 compute 9938938245.229
15 alltoall 2097152 268435456
15 compute 15336126747.802
15 reduce 16 0 0
15 compute 9672630520.067
15 alltoall 2097152 268435456
15 compute 15186813547.005
15 reduce 16 0 0
15 compute 10111077516.638
15 alltoall 2097152 268435456
15 compute 15366856470.661
15 reduce 16 0 0
15 compute 9779106732.325
15 alltoall 2097152 268435456
15 compute 15094221792.17
15 reduce 16 0 0
15 compute 10617179812.457
15 alltoall 2097152 268435456
15 compute 15445021195.307
15 reduce 16 0 0
15 compute 15193560976.721
15 alltoall 2097152 268435456
15 compute 18799601134.8
15 reduce 16 0 0
15 compute 15286866719.435
15 alltoall 2097152 268435456
15 compute 19744952965.372
15 reduce 16 0 0
15 compute 15085713243.483
15 alltoall 2097152 268435456
15 compute 19827594807.343
15 reduce 16 0 0
15 compute 14912056195.538
15 alltoall 2097152 268435456
15 compute 19298456611.207
15 reduce 16 0 0
15 compute 14736171651.466
15 alltoall 2097152 268435456
15 compute 19229004829.555
15 reduce 16 0 0
15 compute 14486742020.877
15 alltoall 2097152 268435456
15 compute 19050239841.33
15 reduce 16 0 0
15 compute 14397742663.968
15 alltoall 2097152 268435456
15 compute 19156986873.127
15 reduce 16 0 0
15 compute 14264585183.346
15 alltoall 2097152 268435456
15 compute 19068379615.159
15 reduce 16 0 0
15 compute 118478.338
15 finalize
15 compute 472662.877
15 compute 66792.038
