./lu.C.16_files/1540468266.215941_rank-1.txt
./lu.C.16_files/1540468266.215941_rank-2.txt
./lu.C.16_files/1540468266.215941_rank-3.txt
./lu.C.16_files/1540468266.215941_rank-4.txt
./lu.C.16_files/1540468266.215941_rank-5.txt
./lu.C.16_files/1540468266.215941_rank-6.txt
./lu.C.16_files/1540468266.215941_rank-7.txt
./lu.C.16_files/1540468266.215941_rank-8.txt
./lu.C.16_files/1540468266.215941_rank-9.txt
./lu.C.16_files/1540468266.215941_rank-10.txt
./lu.C.16_files/1540468266.215941_rank-11.txt
./lu.C.16_files/1540468266.215941_rank-12.txt
./lu.C.16_files/1540468266.215941_rank-13.txt
./lu.C.16_files/1540468266.215941_rank-14.txt
./lu.C.16_files/1540468266.215941_rank-15.txt
./lu.C.16_files/1540468266.215941_rank-16.txt
