B 0 "400000-403000 0 /nix/store/nf55qlxbya44af8jsf6xdbpba33mhy23-NPB-3.1/bin/is.D.32"
B 0 "7f22bb368000-7f22bb485000 0 /nix/store/j3r8qbyr9pindh4fdn5mw3zp0qxks3nx-papi-5.6.0/lib/libpfm.so.4.8.0"
B 0 "7f22bb74c000-7f22bb762000 0 /nix/store/r43dk927l97n78rff7hnvsq49f3szkg6-zlib-1.2.11/lib/libz.so.1.2.11"
B 0 "7f22bb963000-7f22bb965000 0 /nix/store/2kcrj1ksd2a14bm5sky182fv2xwfhfap-glibc-2.26-131/lib/libutil-2.26.so"
B 0 "7f22bbb66000-7f22bbcb1000 0 /nix/store/2kcrj1ksd2a14bm5sky182fv2xwfhfap-glibc-2.26-131/lib/libm-2.26.so"
B 0 "7f22bbeb2000-7f22bbf1d000 0 /nix/store/c5xfsp7mvyaasv8f638vrbhv9vjnjj4j-libnl-3.3.0/lib/libnl-route-3.so.200.25.0"
B 0 "7f22bc126000-7f22bc145000 0 /nix/store/c5xfsp7mvyaasv8f638vrbhv9vjnjj4j-libnl-3.3.0/lib/libnl-3.so.200.25.0"
B 0 "7f22bc347000-7f22bc35b000 0 /nix/store/jfz41csbqcwqh2pdanaqwbjlg4ia8mmp-rdma-core-17/lib/libibverbs.so.1.1.17.0"
B 0 "7f22bc55d000-7f22bc572000 0 /nix/store/jfz41csbqcwqh2pdanaqwbjlg4ia8mmp-rdma-core-17/lib/librdmacm.so.1.1.17.0"
B 0 "7f22bc773000-7f22bc97a000 0 /nix/store/zllrk0d9l55dzn6kvl6apr3yd7bflg9v-openmpi-3.0.0/lib/libopen-pal.so.40.0.0"
B 0 "7f22bcb98000-7f22bccc2000 0 /nix/store/zllrk0d9l55dzn6kvl6apr3yd7bflg9v-openmpi-3.0.0/lib/libopen-rte.so.40.0.0"
B 0 "7f22bced2000-7f22bced9000 0 /nix/store/2kcrj1ksd2a14bm5sky182fv2xwfhfap-glibc-2.26-131/lib/librt-2.26.so"
B 0 "7f22bd0da000-7f22bd0dd000 0 /nix/store/2kcrj1ksd2a14bm5sky182fv2xwfhfap-glibc-2.26-131/lib/libdl-2.26.so"
B 0 "7f22bd2de000-7f22bd437000 0 /nix/store/pxy47wnmlfr4hjcvldv7ggk34skpgaw6-libxml2-2.9.7/lib/libxml2.so.2.9.7"
B 0 "7f22bd642000-7f22bd68d000 0 /nix/store/j3r8qbyr9pindh4fdn5mw3zp0qxks3nx-papi-5.6.0/lib/libpapi.so.5.6.0.0"
B 0 "7f22bd89c000-7f22bda45000 0 /nix/store/2kcrj1ksd2a14bm5sky182fv2xwfhfap-glibc-2.26-131/lib/libc-2.26.so"
B 0 "7f22bdc4e000-7f22bdc67000 0 /nix/store/2kcrj1ksd2a14bm5sky182fv2xwfhfap-glibc-2.26-131/lib/libpthread-2.26.so"
B 0 "7f22bde6c000-7f22be08a000 0 /nix/store/zllrk0d9l55dzn6kvl6apr3yd7bflg9v-openmpi-3.0.0/lib/libmpi.so.40.0.0"
B 0 "7f22be2bc000-7f22be39e000 0 /nix/store/7y06dglddhr03nsp1niw3xlx70ga0r2d-extrae-3.6.1/lib/libmpitrace-3.6.1.so"
B 0 "7f22bff57000-7f22bff7c000 0 /nix/store/2kcrj1ksd2a14bm5sky182fv2xwfhfap-glibc-2.26-131/lib/ld-2.26.so"
