14 init
14 compute 0.38824
14 bcast 1 0 1 
14 compute 193984
14 allreduce 1029 0 1 
14 compute 0.1839
14 alltoall 1 1 1 1
14 compute 0.04354
14 alltoallv 268435456 8501012 8436648 8264332 8704652 8193500 8286704 8612040 8175552 8707540 8549544 8263080 8535744 8073172 8219688 8326256 8383020 9070664 8313820 8206168 8051004 8517756 8247444 8519184 8673096 8138032 8568208 8248220 8134428 8632188 8199420 8332728 8350612 266468324 8324292 8337196 8317320 8327628 8327304 8316124 8330312 8319684 8332692 8326344 8327396 8325336 8330628 8318460 8326256 8330536 8324332 8331408 8338404 8325160 8319380 8321472 8325036 8335404 8332800 8338756 8330644 8332620 8325132 8327396 8321592 8321280 1 1
14 compute 2332.84
14 compute 7702.62
14 allreduce 1029 0 1 
14 compute 0.06866
14 alltoall 1 1 1 1
14 compute 0.03072
14 alltoallv 268435456 8501012 8436648 8264332 8704652 8193500 8286704 8612040 8175552 8707540 8549544 8263080 8535744 8073172 8219688 8326256 8383020 9070664 8313820 8206168 8051004 8517756 8247444 8519184 8673096 8138032 8568208 8248220 8134428 8632188 8199420 8332728 8350612 266468324 8324292 8337196 8317320 8327628 8327304 8316124 8330312 8319684 8332692 8326344 8327396 8325336 8330628 8318460 8326256 8330536 8324332 8331408 8338404 8325160 8319380 8321472 8325036 8335404 8332800 8338756 8330644 8332620 8325132 8327396 8321592 8321280 1 1
14 compute 10026.5
14 allreduce 1029 0 1 
14 compute 0.0672
14 alltoall 1 1 1 1
14 compute 0.03312
14 alltoallv 268435456 8501012 8436648 8264332 8704652 8193500 8286704 8612040 8175552 8707540 8549544 8263080 8535744 8073172 8219688 8326256 8383020 9070664 8313820 8206168 8051004 8517756 8247444 8519184 8673096 8138032 8568208 8248220 8134428 8632188 8199420 8332728 8350612 266468324 8324292 8337196 8317320 8327628 8327304 8316124 8330312 8319684 8332692 8326344 8327396 8325336 8330628 8318460 8326256 8330536 8324332 8331408 8338404 8325160 8319380 8321472 8325036 8335404 8332800 8338756 8330644 8332620 8325132 8327396 8321592 8321280 1 1
14 compute 9991.51
14 allreduce 1029 0 1 
14 compute 0.07408
14 alltoall 1 1 1 1
14 compute 0.02864
14 alltoallv 268435456 8501012 8436648 8264332 8704652 8193500 8286704 8612040 8175552 8707540 8549544 8263080 8535744 8073172 8219688 8326256 8383020 9070664 8313820 8206168 8051004 8517756 8247444 8519184 8673096 8138032 8568208 8248220 8134428 8632188 8199420 8332728 8350612 266468324 8324292 8337196 8317320 8327628 8327304 8316124 8330312 8319684 8332692 8326344 8327396 8325336 8330628 8318460 8326256 8330536 8324332 8331408 8338404 8325160 8319380 8321472 8325036 8335404 8332800 8338756 8330644 8332620 8325132 8327396 8321592 8321280 1 1
14 compute 9947.64
14 allreduce 1029 0 1 
14 compute 0.06742
14 alltoall 1 1 1 1
14 compute 0.02944
14 alltoallv 268435456 8501012 8436648 8264332 8704652 8193500 8286704 8612040 8175552 8707540 8549544 8263080 8535744 8073172 8219688 8326256 8383020 9070664 8313820 8206168 8051004 8517756 8247444 8519184 8673096 8138032 8568208 8248220 8134428 8632188 8199420 8332728 8350612 266468324 8324292 8337196 8317320 8327628 8327304 8316124 8330312 8319684 8332692 8326344 8327396 8325336 8330628 8318460 8326256 8330536 8324332 8331408 8338404 8325160 8319380 8321472 8325036 8335404 8332800 8338756 8330644 8332620 8325132 8327396 8321592 8321280 1 1
14 compute 9989.68
14 allreduce 1029 0 1 
14 compute 0.06578
14 alltoall 1 1 1 1
14 compute 0.03652
14 alltoallv 268435456 8501012 8436648 8264332 8704652 8193500 8286704 8612040 8175552 8707540 8549544 8263080 8535744 8073172 8219688 8326256 8383020 9070664 8313820 8206168 8051004 8517756 8247444 8519184 8673096 8138032 8568208 8248220 8134428 8632188 8199420 8332728 8350612 266468324 8324292 8337196 8317320 8327628 8327304 8316124 8330312 8319684 8332692 8326344 8327396 8325336 8330628 8318460 8326256 8330536 8324332 8331408 8338404 8325160 8319380 8321472 8325036 8335404 8332800 8338756 8330644 8332620 8325132 8327396 8321592 8321280 1 1
14 compute 9982.08
14 allreduce 1029 0 1 
14 compute 0.06592
14 alltoall 1 1 1 1
14 compute 0.0317
14 alltoallv 268435456 8501012 8436648 8264332 8704652 8193500 8286704 8612040 8175552 8707540 8549544 8263080 8535744 8073172 8219688 8326256 8383020 9070664 8313820 8206168 8051004 8517756 8247444 8519184 8673096 8138032 8568208 8248220 8134428 8632188 8199420 8332728 8350612 266468324 8324292 8337196 8317320 8327628 8327304 8316124 8330312 8319684 8332692 8326344 8327396 8325336 8330628 8318460 8326256 8330536 8324332 8331408 8338404 8325160 8319380 8321472 8325036 8335404 8332800 8338756 8330644 8332620 8325132 8327396 8321592 8321280 1 1
14 compute 10013.6
14 allreduce 1029 0 1 
14 compute 0.06576
14 alltoall 1 1 1 1
14 compute 0.02686
14 alltoallv 268435456 8501012 8436648 8264332 8704652 8193500 8286704 8612040 8175552 8707540 8549544 8263080 8535744 8073172 8219688 8326256 8383020 9070664 8313820 8206168 8051004 8517756 8247444 8519184 8673096 8138032 8568208 8248220 8134428 8632188 8199420 8332728 8350612 266468324 8324292 8337196 8317320 8327628 8327304 8316124 8330312 8319684 8332692 8326344 8327396 8325336 8330628 8318460 8326256 8330536 8324332 8331408 8338404 8325160 8319380 8321472 8325036 8335404 8332800 8338756 8330644 8332620 8325132 8327396 8321592 8321280 1 1
14 compute 10014.2
14 allreduce 1029 0 1 
14 compute 0.06746
14 alltoall 1 1 1 1
14 compute 0.03852
14 alltoallv 268435456 8501012 8436648 8264332 8704652 8193500 8286704 8612040 8175552 8707540 8549544 8263080 8535744 8073172 8219688 8326256 8383020 9070664 8313820 8206168 8051004 8517756 8247444 8519184 8673096 8138032 8568208 8248220 8134428 8632188 8199420 8332728 8350612 266468324 8324292 8337196 8317320 8327628 8327304 8316124 8330312 8319684 8332692 8326344 8327396 8325336 8330628 8318460 8326256 8330536 8324332 8331408 8338404 8325160 8319380 8321472 8325036 8335404 8332800 8338756 8330644 8332620 8325132 8327396 8321592 8321280 1 1
14 compute 9850.72
14 allreduce 1029 0 1 
14 compute 0.0797
14 alltoall 1 1 1 1
14 compute 0.02642
14 alltoallv 268435456 8501012 8436648 8264332 8704652 8193500 8286704 8612040 8175552 8707540 8549544 8263080 8535744 8073172 8219688 8326256 8383020 9070664 8313820 8206168 8051004 8517756 8247444 8519184 8673096 8138032 8568208 8248220 8134428 8632188 8199420 8332728 8350612 266468324 8324292 8337196 8317320 8327628 8327304 8316124 8330312 8319684 8332692 8326344 8327396 8325336 8330628 8318460 8326256 8330536 8324332 8331408 8338404 8325160 8319380 8321472 8325036 8335404 8332800 8338756 8330644 8332620 8325132 8327396 8321592 8321280 1 1
14 compute 10037.9
14 allreduce 1029 0 1 
14 compute 0.07412
14 alltoall 1 1 1 1
14 compute 0.03466
14 alltoallv 268435456 8501012 8436648 8264332 8704652 8193500 8286704 8612040 8175552 8707540 8549544 8263080 8535744 8073172 8219688 8326256 8383020 9070664 8313820 8206168 8051004 8517756 8247444 8519184 8673096 8138032 8568208 8248220 8134428 8632188 8199420 8332728 8350612 266468324 8324292 8337196 8317320 8327628 8327304 8316124 8330312 8319684 8332692 8326344 8327396 8325336 8330628 8318460 8326256 8330536 8324332 8331408 8338404 8325160 8319380 8321472 8325036 8335404 8332800 8338756 8330644 8332620 8325132 8327396 8321592 8321280 1 1
14 compute 2306.23
14 compute 0.05578
14 reduce 1 0 0 0 
14 compute 36489.9
14 irecv 13 1000 1 1
14 compute 0.05052
14 send 15 1000 1 1
14 compute 0.07212
14 wait 14 15 1000
14 compute 1273.62
14 reduce 1 0 0 1 
14 compute 0.06976
14 finalize
