6 init
6 compute 0.2674
6 bcast 1 0 1 
6 compute 193953
6 allreduce 1029 0 1 
6 compute 0.1334
6 alltoall 1 1 1 1
6 compute 0.05122
6 alltoallv 268435456 8493352 8438140 8270024 8699396 8189304 8289516 8598992 8193056 8698440 8539532 8259728 8533632 8072292 8227552 8330312 8396548 9077628 8321600 8214548 8059748 8509548 8242372 8521736 8662100 8155364 8558508 8241400 8124900 8631088 8180332 8341856 8362912 275424748 8596324 8609480 8611820 8615672 8608312 8598404 8598992 8603312 8587952 8604296 8600704 8608220 8609512 8603932 8612040 8602476 8611408 8606360 8603624 8608576 8611464 8607748 8609528 8605352 8599332 8619240 8608208 8607692 8608392 8611768 8617764 8616844 1 1
6 compute 2661.13
6 compute 7672.25
6 allreduce 1029 0 1 
6 compute 0.0658
6 alltoall 1 1 1 1
6 compute 0.02596
6 alltoallv 268435456 8493352 8438140 8270024 8699396 8189304 8289516 8598992 8193056 8698440 8539532 8259728 8533632 8072292 8227552 8330312 8396548 9077628 8321600 8214548 8059748 8509548 8242372 8521736 8662100 8155364 8558508 8241400 8124900 8631088 8180332 8341856 8362912 275424748 8596324 8609480 8611820 8615672 8608312 8598404 8598992 8603312 8587952 8604296 8600704 8608220 8609512 8603932 8612040 8602476 8611408 8606360 8603624 8608576 8611464 8607748 8609528 8605352 8599332 8619240 8608208 8607692 8608392 8611768 8617764 8616844 1 1
6 compute 10239.1
6 allreduce 1029 0 1 
6 compute 0.06522
6 alltoall 1 1 1 1
6 compute 0.02568
6 alltoallv 268435456 8493352 8438140 8270024 8699396 8189304 8289516 8598992 8193056 8698440 8539532 8259728 8533632 8072292 8227552 8330312 8396548 9077628 8321600 8214548 8059748 8509548 8242372 8521736 8662100 8155364 8558508 8241400 8124900 8631088 8180332 8341856 8362912 275424748 8596324 8609480 8611820 8615672 8608312 8598404 8598992 8603312 8587952 8604296 8600704 8608220 8609512 8603932 8612040 8602476 8611408 8606360 8603624 8608576 8611464 8607748 8609528 8605352 8599332 8619240 8608208 8607692 8608392 8611768 8617764 8616844 1 1
6 compute 10228.8
6 allreduce 1029 0 1 
6 compute 0.07032
6 alltoall 1 1 1 1
6 compute 0.02742
6 alltoallv 268435456 8493352 8438140 8270024 8699396 8189304 8289516 8598992 8193056 8698440 8539532 8259728 8533632 8072292 8227552 8330312 8396548 9077628 8321600 8214548 8059748 8509548 8242372 8521736 8662100 8155364 8558508 8241400 8124900 8631088 8180332 8341856 8362912 275424748 8596324 8609480 8611820 8615672 8608312 8598404 8598992 8603312 8587952 8604296 8600704 8608220 8609512 8603932 8612040 8602476 8611408 8606360 8603624 8608576 8611464 8607748 8609528 8605352 8599332 8619240 8608208 8607692 8608392 8611768 8617764 8616844 1 1
6 compute 10213.3
6 allreduce 1029 0 1 
6 compute 0.0675
6 alltoall 1 1 1 1
6 compute 0.03126
6 alltoallv 268435456 8493352 8438140 8270024 8699396 8189304 8289516 8598992 8193056 8698440 8539532 8259728 8533632 8072292 8227552 8330312 8396548 9077628 8321600 8214548 8059748 8509548 8242372 8521736 8662100 8155364 8558508 8241400 8124900 8631088 8180332 8341856 8362912 275424748 8596324 8609480 8611820 8615672 8608312 8598404 8598992 8603312 8587952 8604296 8600704 8608220 8609512 8603932 8612040 8602476 8611408 8606360 8603624 8608576 8611464 8607748 8609528 8605352 8599332 8619240 8608208 8607692 8608392 8611768 8617764 8616844 1 1
6 compute 10096.9
6 allreduce 1029 0 1 
6 compute 0.06564
6 alltoall 1 1 1 1
6 compute 0.0257
6 alltoallv 268435456 8493352 8438140 8270024 8699396 8189304 8289516 8598992 8193056 8698440 8539532 8259728 8533632 8072292 8227552 8330312 8396548 9077628 8321600 8214548 8059748 8509548 8242372 8521736 8662100 8155364 8558508 8241400 8124900 8631088 8180332 8341856 8362912 275424748 8596324 8609480 8611820 8615672 8608312 8598404 8598992 8603312 8587952 8604296 8600704 8608220 8609512 8603932 8612040 8602476 8611408 8606360 8603624 8608576 8611464 8607748 8609528 8605352 8599332 8619240 8608208 8607692 8608392 8611768 8617764 8616844 1 1
6 compute 10105.9
6 allreduce 1029 0 1 
6 compute 0.07522
6 alltoall 1 1 1 1
6 compute 0.0306
6 alltoallv 268435456 8493352 8438140 8270024 8699396 8189304 8289516 8598992 8193056 8698440 8539532 8259728 8533632 8072292 8227552 8330312 8396548 9077628 8321600 8214548 8059748 8509548 8242372 8521736 8662100 8155364 8558508 8241400 8124900 8631088 8180332 8341856 8362912 275424744 8596320 8609480 8611820 8615672 8608312 8598404 8598992 8603312 8587952 8604296 8600704 8608220 8609512 8603932 8612040 8602476 8611408 8606360 8603624 8608576 8611464 8607748 8609528 8605352 8599332 8619240 8608208 8607692 8608392 8611768 8617764 8616844 1 1
6 compute 10104.2
6 allreduce 1029 0 1 
6 compute 0.07884
6 alltoall 1 1 1 1
6 compute 0.03516
6 alltoallv 268435456 8493352 8438140 8270024 8699396 8189304 8289516 8598992 8193056 8698440 8539532 8259728 8533632 8072292 8227552 8330312 8396548 9077628 8321600 8214548 8059748 8509548 8242372 8521736 8662100 8155364 8558508 8241400 8124900 8631088 8180332 8341856 8362912 275424744 8596320 8609480 8611820 8615672 8608312 8598404 8598992 8603312 8587952 8604296 8600704 8608220 8609512 8603932 8612040 8602476 8611408 8606360 8603624 8608576 8611464 8607748 8609528 8605352 8599332 8619240 8608208 8607692 8608392 8611768 8617764 8616844 1 1
6 compute 10143.5
6 allreduce 1029 0 1 
6 compute 0.06712
6 alltoall 1 1 1 1
6 compute 0.02984
6 alltoallv 268435456 8493352 8438140 8270024 8699396 8189304 8289516 8598992 8193056 8698440 8539532 8259728 8533632 8072292 8227552 8330312 8396548 9077628 8321600 8214548 8059748 8509548 8242372 8521736 8662100 8155364 8558508 8241400 8124900 8631088 8180332 8341856 8362912 275424744 8596320 8609480 8611820 8615672 8608312 8598404 8598992 8603312 8587952 8604296 8600704 8608220 8609512 8603932 8612040 8602476 8611408 8606360 8603624 8608576 8611464 8607748 8609528 8605352 8599332 8619240 8608208 8607692 8608392 8611768 8617764 8616844 1 1
6 compute 10278
6 allreduce 1029 0 1 
6 compute 0.06746
6 alltoall 1 1 1 1
6 compute 0.04398
6 alltoallv 268435456 8493352 8438140 8270024 8699396 8189304 8289516 8598992 8193056 8698440 8539532 8259728 8533632 8072292 8227552 8330312 8396548 9077628 8321600 8214548 8059748 8509548 8242372 8521736 8662100 8155364 8558508 8241400 8124900 8631088 8180332 8341856 8362912 275424740 8596316 8609480 8611820 8615672 8608312 8598404 8598992 8603312 8587952 8604296 8600704 8608220 8609512 8603932 8612040 8602476 8611408 8606360 8603624 8608576 8611464 8607748 8609528 8605352 8599332 8619240 8608208 8607692 8608392 8611768 8617764 8616844 1 1
6 compute 10252.7
6 allreduce 1029 0 1 
6 compute 0.06748
6 alltoall 1 1 1 1
6 compute 0.03
6 alltoallv 268435456 8493352 8438140 8270024 8699396 8189304 8289516 8598992 8193056 8698440 8539532 8259728 8533632 8072292 8227552 8330312 8396548 9077628 8321600 8214548 8059748 8509548 8242372 8521736 8662100 8155364 8558508 8241400 8124900 8631088 8180332 8341856 8362912 275424740 8596316 8609480 8611820 8615672 8608312 8598404 8598992 8603312 8587952 8604296 8600704 8608220 8609512 8603932 8612040 8602476 8611408 8606360 8603624 8608576 8611464 8607748 8609528 8605352 8599332 8619240 8608208 8607692 8608392 8611768 8617764 8616844 1 1
6 compute 2448.98
6 compute 0.05916
6 reduce 1 0 0 0 
6 compute 39622.6
6 irecv 5 1000 1 1
6 compute 0.03508
6 send 7 1000 1 1
6 wait 6 7 1000
6 compute 1317.22
6 reduce 1 0 0 1 
6 compute 0.03548
6 finalize
