89 init
89 compute 0.12954
89 compute 0.1295
89 bcast 1 0 1 
89 compute 0.02526
89 bcast 1 0 1 
89 compute 0.02538
89 bcast 1 0 1 
89 compute 0.0247
89 bcast 1 0 1 
89 compute 0.02546
89 bcast 1 0 16 
89 compute 0.02568
89 compute 0.024
89 compute 31037.1
89 alltoall 2097152 2097152 26 26
89 compute 8050.14
89 compute 0.0728
89 barrier
89 compute 0.03406
89 compute 26199.6
89 alltoall 2097152 2097152 26 26
89 compute 19909.5
89 alltoall 2097152 2097152 26 26
89 compute 15864.2
89 reduce 16 0 0 26 
89 compute 9690.94
89 alltoall 2097152 2097152 26 26
89 compute 15871.8
89 reduce 16 0 0 26 
89 compute 9667.35
89 alltoall 2097152 2097152 26 26
89 compute 15869.9
89 reduce 16 0 0 26 
89 compute 9649.63
89 alltoall 2097152 2097152 26 26
89 compute 15875.3
89 reduce 16 0 0 26 
89 compute 9646.04
89 alltoall 2097152 2097152 26 26
89 compute 15881
89 reduce 16 0 0 26 
89 compute 9666.93
89 alltoall 2097152 2097152 26 26
89 compute 15894.3
89 reduce 16 0 0 26 
89 compute 9653.76
89 alltoall 2097152 2097152 26 26
89 compute 15866.4
89 reduce 16 0 0 26 
89 compute 9669.76
89 alltoall 2097152 2097152 26 26
89 compute 15881.4
89 reduce 16 0 0 26 
89 compute 9683.97
89 alltoall 2097152 2097152 26 26
89 compute 15870.5
89 reduce 16 0 0 26 
89 compute 9646.13
89 alltoall 2097152 2097152 26 26
89 compute 15868.1
89 reduce 16 0 0 26 
89 compute 9652.34
89 alltoall 2097152 2097152 26 26
89 compute 15873.8
89 reduce 16 0 0 26 
89 compute 9652.15
89 alltoall 2097152 2097152 26 26
89 compute 15866.5
89 reduce 16 0 0 26 
89 compute 9655
89 alltoall 2097152 2097152 26 26
89 compute 15865.3
89 reduce 16 0 0 26 
89 compute 9847.43
89 alltoall 2097152 2097152 26 26
89 compute 15956
89 reduce 16 0 0 26 
89 compute 10140.5
89 alltoall 2097152 2097152 26 26
89 compute 15867.7
89 reduce 16 0 0 26 
89 compute 12595.5
89 alltoall 2097152 2097152 26 26
89 compute 15887.4
89 reduce 16 0 0 26 
89 compute 19264.6
89 alltoall 2097152 2097152 26 26
89 compute 16241.9
89 reduce 16 0 0 26 
89 compute 19831.7
89 alltoall 2097152 2097152 26 26
89 compute 21760.8
89 reduce 16 0 0 26 
89 compute 19578.2
89 alltoall 2097152 2097152 26 26
89 compute 23316.8
89 reduce 16 0 0 26 
89 compute 19284.8
89 alltoall 2097152 2097152 26 26
89 compute 23216.5
89 reduce 16 0 0 26 
89 compute 19058.2
89 alltoall 2097152 2097152 26 26
89 compute 22930.5
89 reduce 16 0 0 26 
89 compute 18826.3
89 alltoall 2097152 2097152 26 26
89 compute 22807.6
89 reduce 16 0 0 26 
89 compute 18619.4
89 alltoall 2097152 2097152 26 26
89 compute 22752.1
89 reduce 16 0 0 26 
89 compute 18474.6
89 alltoall 2097152 2097152 26 26
89 compute 22491.4
89 reduce 16 0 0 26 
89 compute 18289.4
89 alltoall 2097152 2097152 26 26
89 compute 22401.6
89 reduce 16 0 0 26 
89 compute 0.07386
89 compute 0.0448
89 finalize
