38 init
38 compute 0.09084
38 compute 0.12136
38 bcast 1 0 1 
38 compute 0.0246
38 bcast 1 0 1 
38 compute 0.02426
38 bcast 1 0 1 
38 compute 0.025
38 bcast 1 0 1 
38 compute 0.02702
38 bcast 1 0 16 
38 compute 0.03334
38 compute 0.02414
38 compute 31018.6
38 alltoall 2097152 2097152 26 26
38 compute 8042.17
38 compute 0.06268
38 barrier
38 compute 0.03374
38 compute 26174.8
38 alltoall 2097152 2097152 26 26
38 compute 19306.4
38 alltoall 2097152 2097152 26 26
38 compute 15500.2
38 reduce 16 0 0 26 
38 compute 9504.98
38 alltoall 2097152 2097152 26 26
38 compute 15501
38 reduce 16 0 0 26 
38 compute 9497.35
38 alltoall 2097152 2097152 26 26
38 compute 15509.1
38 reduce 16 0 0 26 
38 compute 9501.96
38 alltoall 2097152 2097152 26 26
38 compute 15505
38 reduce 16 0 0 26 
38 compute 9491.67
38 alltoall 2097152 2097152 26 26
38 compute 15503.3
38 reduce 16 0 0 26 
38 compute 9523.32
38 alltoall 2097152 2097152 26 26
38 compute 15508.9
38 reduce 16 0 0 26 
38 compute 9493.96
38 alltoall 2097152 2097152 26 26
38 compute 15509
38 reduce 16 0 0 26 
38 compute 9544.94
38 alltoall 2097152 2097152 26 26
38 compute 15513.2
38 reduce 16 0 0 26 
38 compute 9530.71
38 alltoall 2097152 2097152 26 26
38 compute 15510.9
38 reduce 16 0 0 26 
38 compute 9495.92
38 alltoall 2097152 2097152 26 26
38 compute 15502.6
38 reduce 16 0 0 26 
38 compute 9536.91
38 alltoall 2097152 2097152 26 26
38 compute 15508.4
38 reduce 16 0 0 26 
38 compute 9518.12
38 alltoall 2097152 2097152 26 26
38 compute 15509.6
38 reduce 16 0 0 26 
38 compute 9531.68
38 alltoall 2097152 2097152 26 26
38 compute 15505.2
38 reduce 16 0 0 26 
38 compute 9696.27
38 alltoall 2097152 2097152 26 26
38 compute 15516.2
38 reduce 16 0 0 26 
38 compute 9944.08
38 alltoall 2097152 2097152 26 26
38 compute 15507.9
38 reduce 16 0 0 26 
38 compute 12358.1
38 alltoall 2097152 2097152 26 26
38 compute 15513.2
38 reduce 16 0 0 26 
38 compute 19062.1
38 alltoall 2097152 2097152 26 26
38 compute 15882.4
38 reduce 16 0 0 26 
38 compute 19706.6
38 alltoall 2097152 2097152 26 26
38 compute 21398.4
38 reduce 16 0 0 26 
38 compute 19423.9
38 alltoall 2097152 2097152 26 26
38 compute 22936.1
38 reduce 16 0 0 26 
38 compute 19134
38 alltoall 2097152 2097152 26 26
38 compute 22804.7
38 reduce 16 0 0 26 
38 compute 18927.2
38 alltoall 2097152 2097152 26 26
38 compute 22580.4
38 reduce 16 0 0 26 
38 compute 18681.4
38 alltoall 2097152 2097152 26 26
38 compute 22419.4
38 reduce 16 0 0 26 
38 compute 18471.2
38 alltoall 2097152 2097152 26 26
38 compute 22332.2
38 reduce 16 0 0 26 
38 compute 18250.8
38 alltoall 2097152 2097152 26 26
38 compute 22145.8
38 reduce 16 0 0 26 
38 compute 18090.2
38 alltoall 2097152 2097152 26 26
38 compute 22006.6
38 reduce 16 0 0 26 
38 compute 0.0647
38 compute 0.04068
38 finalize
