0 init
0 compute 0.17754
0 compute 4.53694
0 bcast 1 0 1 
0 compute 0.05436
0 bcast 1 0 1 
0 compute 0.02184
0 bcast 1 0 1 
0 compute 0.0204
0 bcast 1 0 1 
0 compute 0.02512
0 bcast 1 0 16 
0 compute 0.05008
0 compute 0.07864
0 compute 31018
0 alltoall 2097152 2097152 26 26
0 compute 7966.05
0 compute 0.43216
0 barrier
0 compute 0.04112
0 compute 26062.9
0 alltoall 2097152 2097152 26 26
0 compute 20501.2
0 alltoall 2097152 2097152 26 26
0 compute 17249.7
0 reduce 16 0 0 26 
0 compute 9948.33
0 alltoall 2097152 2097152 26 26
0 compute 17251.4
0 reduce 16 0 0 26 
0 compute 9974.16
0 alltoall 2097152 2097152 26 26
0 compute 17287.1
0 reduce 16 0 0 26 
0 compute 9929.2
0 alltoall 2097152 2097152 26 26
0 compute 17245.7
0 reduce 16 0 0 26 
0 compute 9926.25
0 alltoall 2097152 2097152 26 26
0 compute 17248.3
0 reduce 16 0 0 26 
0 compute 9966.6
0 alltoall 2097152 2097152 26 26
0 compute 17375.1
0 reduce 16 0 0 26 
0 compute 9948.07
0 alltoall 2097152 2097152 26 26
0 compute 17242.5
0 reduce 16 0 0 26 
0 compute 9954.98
0 alltoall 2097152 2097152 26 26
0 compute 17272.1
0 reduce 16 0 0 26 
0 compute 10018
0 alltoall 2097152 2097152 26 26
0 compute 17238.9
0 reduce 16 0 0 26 
0 compute 9983.14
0 alltoall 2097152 2097152 26 26
0 compute 17241.8
0 reduce 16 0 0 26 
0 compute 9973.77
0 alltoall 2097152 2097152 26 26
0 compute 17244.9
0 reduce 16 0 0 26 
0 compute 9987.97
0 alltoall 2097152 2097152 26 26
0 compute 17245.6
0 reduce 16 0 0 26 
0 compute 9995.1
0 alltoall 2097152 2097152 26 26
0 compute 17378.9
0 reduce 16 0 0 26 
0 compute 9944.86
0 alltoall 2097152 2097152 26 26
0 compute 17240.1
0 reduce 16 0 0 26 
0 compute 10118.6
0 alltoall 2097152 2097152 26 26
0 compute 17245
0 reduce 16 0 0 26 
0 compute 10330.6
0 alltoall 2097152 2097152 26 26
0 compute 17358
0 reduce 16 0 0 26 
0 compute 10984.5
0 alltoall 2097152 2097152 26 26
0 compute 17734.7
0 reduce 16 0 0 26 
0 compute 17629.7
0 alltoall 2097152 2097152 26 26
0 compute 23131.8
0 reduce 16 0 0 26 
0 compute 19364
0 alltoall 2097152 2097152 26 26
0 compute 24693.1
0 reduce 16 0 0 26 
0 compute 19066.4
0 alltoall 2097152 2097152 26 26
0 compute 24567.2
0 reduce 16 0 0 26 
0 compute 18795.1
0 alltoall 2097152 2097152 26 26
0 compute 24353.9
0 reduce 16 0 0 26 
0 compute 18596.5
0 alltoall 2097152 2097152 26 26
0 compute 24275.1
0 reduce 16 0 0 26 
0 compute 18374
0 alltoall 2097152 2097152 26 26
0 compute 24114
0 reduce 16 0 0 26 
0 compute 18170
0 alltoall 2097152 2097152 26 26
0 compute 23862.6
0 reduce 16 0 0 26 
0 compute 17957.5
0 alltoall 2097152 2097152 26 26
0 compute 23746.5
0 reduce 16 0 0 26 
0 compute 0.97308
0 compute 0.99768
0 finalize
