96 init
96 compute 0.08642
96 compute 0.12246
96 bcast 1 0 1 
96 compute 0.02448
96 bcast 1 0 1 
96 compute 0.02496
96 bcast 1 0 1 
96 compute 0.0239
96 bcast 1 0 1 
96 compute 0.02694
96 bcast 1 0 16 
96 compute 0.02668
96 compute 0.0246
96 compute 31076.6
96 alltoall 2097152 2097152 26 26
96 compute 8040.51
96 compute 0.0571
96 barrier
96 compute 0.04004
96 compute 26189.6
96 alltoall 2097152 2097152 26 26
96 compute 20389.1
96 alltoall 2097152 2097152 26 26
96 compute 17141.7
96 reduce 16 0 0 26 
96 compute 9925.48
96 alltoall 2097152 2097152 26 26
96 compute 17135.9
96 reduce 16 0 0 26 
96 compute 9874.91
96 alltoall 2097152 2097152 26 26
96 compute 17208.8
96 reduce 16 0 0 26 
96 compute 9871.07
96 alltoall 2097152 2097152 26 26
96 compute 17153
96 reduce 16 0 0 26 
96 compute 9952.32
96 alltoall 2097152 2097152 26 26
96 compute 17164.6
96 reduce 16 0 0 26 
96 compute 9921.05
96 alltoall 2097152 2097152 26 26
96 compute 17136.8
96 reduce 16 0 0 26 
96 compute 9891.4
96 alltoall 2097152 2097152 26 26
96 compute 17217.4
96 reduce 16 0 0 26 
96 compute 9907.61
96 alltoall 2097152 2097152 26 26
96 compute 17135.2
96 reduce 16 0 0 26 
96 compute 9896.54
96 alltoall 2097152 2097152 26 26
96 compute 17213.8
96 reduce 16 0 0 26 
96 compute 9920.05
96 alltoall 2097152 2097152 26 26
96 compute 17157.7
96 reduce 16 0 0 26 
96 compute 9894.9
96 alltoall 2097152 2097152 26 26
96 compute 17223.6
96 reduce 16 0 0 26 
96 compute 9887.18
96 alltoall 2097152 2097152 26 26
96 compute 17201.1
96 reduce 16 0 0 26 
96 compute 9923.05
96 alltoall 2097152 2097152 26 26
96 compute 17226.3
96 reduce 16 0 0 26 
96 compute 9974.19
96 alltoall 2097152 2097152 26 26
96 compute 17262.3
96 reduce 16 0 0 26 
96 compute 10293.6
96 alltoall 2097152 2097152 26 26
96 compute 17246.7
96 reduce 16 0 0 26 
96 compute 10941.5
96 alltoall 2097152 2097152 26 26
96 compute 17130.6
96 reduce 16 0 0 26 
96 compute 17796.1
96 alltoall 2097152 2097152 26 26
96 compute 17520.1
96 reduce 16 0 0 26 
96 compute 19911.2
96 alltoall 2097152 2097152 26 26
96 compute 23143.4
96 reduce 16 0 0 26 
96 compute 19639.5
96 alltoall 2097152 2097152 26 26
96 compute 24548.1
96 reduce 16 0 0 26 
96 compute 19343.1
96 alltoall 2097152 2097152 26 26
96 compute 24400.9
96 reduce 16 0 0 26 
96 compute 19118.4
96 alltoall 2097152 2097152 26 26
96 compute 24244.5
96 reduce 16 0 0 26 
96 compute 18894.1
96 alltoall 2097152 2097152 26 26
96 compute 24026.9
96 reduce 16 0 0 26 
96 compute 18658.6
96 alltoall 2097152 2097152 26 26
96 compute 23932
96 reduce 16 0 0 26 
96 compute 18439.9
96 alltoall 2097152 2097152 26 26
96 compute 23810.9
96 reduce 16 0 0 26 
96 compute 18321.6
96 alltoall 2097152 2097152 26 26
96 compute 23607.9
96 reduce 16 0 0 26 
96 compute 0.07134
96 compute 0.04866
96 finalize
