17 init
17 compute 0.0953
17 compute 0.13712
17 bcast 1 0 1 
17 compute 0.0268
17 bcast 1 0 1 
17 compute 0.02444
17 bcast 1 0 1 
17 compute 0.02696
17 bcast 1 0 1 
17 compute 0.02648
17 bcast 1 0 16 
17 compute 0.03048
17 compute 0.0248
17 compute 30774.1
17 alltoall 2097152 2097152 26 26
17 compute 8004.63
17 compute 0.05774
17 barrier
17 compute 0.03392
17 compute 25901.8
17 alltoall 2097152 2097152 26 26
17 compute 19239.4
17 alltoall 2097152 2097152 26 26
17 compute 15443.4
17 reduce 16 0 0 26 
17 compute 9525.12
17 alltoall 2097152 2097152 26 26
17 compute 15451
17 reduce 16 0 0 26 
17 compute 9492.23
17 alltoall 2097152 2097152 26 26
17 compute 15446.1
17 reduce 16 0 0 26 
17 compute 9500.29
17 alltoall 2097152 2097152 26 26
17 compute 15448
17 reduce 16 0 0 26 
17 compute 9531.82
17 alltoall 2097152 2097152 26 26
17 compute 15451.6
17 reduce 16 0 0 26 
17 compute 9525.92
17 alltoall 2097152 2097152 26 26
17 compute 15449.9
17 reduce 16 0 0 26 
17 compute 9546.58
17 alltoall 2097152 2097152 26 26
17 compute 15449.2
17 reduce 16 0 0 26 
17 compute 9497.79
17 alltoall 2097152 2097152 26 26
17 compute 15448.6
17 reduce 16 0 0 26 
17 compute 9483.78
17 alltoall 2097152 2097152 26 26
17 compute 15448.6
17 reduce 16 0 0 26 
17 compute 9501.56
17 alltoall 2097152 2097152 26 26
17 compute 15450.1
17 reduce 16 0 0 26 
17 compute 9498.74
17 alltoall 2097152 2097152 26 26
17 compute 15451.2
17 reduce 16 0 0 26 
17 compute 9520.18
17 alltoall 2097152 2097152 26 26
17 compute 15452.3
17 reduce 16 0 0 26 
17 compute 9487.5
17 alltoall 2097152 2097152 26 26
17 compute 15453.8
17 reduce 16 0 0 26 
17 compute 9526.76
17 alltoall 2097152 2097152 26 26
17 compute 15452
17 reduce 16 0 0 26 
17 compute 9712.13
17 alltoall 2097152 2097152 26 26
17 compute 15446.5
17 reduce 16 0 0 26 
17 compute 9972.79
17 alltoall 2097152 2097152 26 26
17 compute 15447.4
17 reduce 16 0 0 26 
17 compute 11178.3
17 alltoall 2097152 2097152 26 26
17 compute 15821.9
17 reduce 16 0 0 26 
17 compute 19020.8
17 alltoall 2097152 2097152 26 26
17 compute 21336.2
17 reduce 16 0 0 26 
17 compute 18968.3
17 alltoall 2097152 2097152 26 26
17 compute 22863.8
17 reduce 16 0 0 26 
17 compute 18713.2
17 alltoall 2097152 2097152 26 26
17 compute 22736.4
17 reduce 16 0 0 26 
17 compute 18426.1
17 alltoall 2097152 2097152 26 26
17 compute 22509.4
17 reduce 16 0 0 26 
17 compute 18255
17 alltoall 2097152 2097152 26 26
17 compute 22345.8
17 reduce 16 0 0 26 
17 compute 17991
17 alltoall 2097152 2097152 26 26
17 compute 22269.7
17 reduce 16 0 0 26 
17 compute 17797.5
17 alltoall 2097152 2097152 26 26
17 compute 22076.9
17 reduce 16 0 0 26 
17 compute 17648.6
17 alltoall 2097152 2097152 26 26
17 compute 21920
17 reduce 16 0 0 26 
17 compute 0.12446
17 compute 0.07756
17 finalize
