22 init
22 compute 0.10174
22 compute 0.14416
22 bcast 1 0 1 
22 compute 0.0284
22 bcast 1 0 1 
22 compute 0.02492
22 bcast 1 0 1 
22 compute 0.02458
22 bcast 1 0 1 
22 compute 0.02532
22 bcast 1 0 16 
22 compute 0.0301
22 compute 0.02314
22 compute 30812.3
22 alltoall 2097152 2097152 26 26
22 compute 8013.86
22 compute 0.07212
22 barrier
22 compute 0.03332
22 compute 25962.6
22 alltoall 2097152 2097152 26 26
22 compute 19203
22 alltoall 2097152 2097152 26 26
22 compute 15460.5
22 reduce 16 0 0 26 
22 compute 9537.65
22 alltoall 2097152 2097152 26 26
22 compute 15463.1
22 reduce 16 0 0 26 
22 compute 9502.74
22 alltoall 2097152 2097152 26 26
22 compute 15456.3
22 reduce 16 0 0 26 
22 compute 9501.66
22 alltoall 2097152 2097152 26 26
22 compute 15453.3
22 reduce 16 0 0 26 
22 compute 9518.98
22 alltoall 2097152 2097152 26 26
22 compute 15450.2
22 reduce 16 0 0 26 
22 compute 9540.44
22 alltoall 2097152 2097152 26 26
22 compute 15455.4
22 reduce 16 0 0 26 
22 compute 9517.22
22 alltoall 2097152 2097152 26 26
22 compute 15455.1
22 reduce 16 0 0 26 
22 compute 9532.82
22 alltoall 2097152 2097152 26 26
22 compute 15448.8
22 reduce 16 0 0 26 
22 compute 9493.9
22 alltoall 2097152 2097152 26 26
22 compute 15448.3
22 reduce 16 0 0 26 
22 compute 9484.14
22 alltoall 2097152 2097152 26 26
22 compute 15450.8
22 reduce 16 0 0 26 
22 compute 9481.77
22 alltoall 2097152 2097152 26 26
22 compute 15451.9
22 reduce 16 0 0 26 
22 compute 9523.21
22 alltoall 2097152 2097152 26 26
22 compute 15460.4
22 reduce 16 0 0 26 
22 compute 9497.14
22 alltoall 2097152 2097152 26 26
22 compute 15453.3
22 reduce 16 0 0 26 
22 compute 9557.9
22 alltoall 2097152 2097152 26 26
22 compute 15465.4
22 reduce 16 0 0 26 
22 compute 9729
22 alltoall 2097152 2097152 26 26
22 compute 15455.3
22 reduce 16 0 0 26 
22 compute 10022.1
22 alltoall 2097152 2097152 26 26
22 compute 15452.6
22 reduce 16 0 0 26 
22 compute 12973.9
22 alltoall 2097152 2097152 26 26
22 compute 15837.5
22 reduce 16 0 0 26 
22 compute 19203.4
22 alltoall 2097152 2097152 26 26
22 compute 21340.9
22 reduce 16 0 0 26 
22 compute 19072.4
22 alltoall 2097152 2097152 26 26
22 compute 22863.6
22 reduce 16 0 0 26 
22 compute 18749.9
22 alltoall 2097152 2097152 26 26
22 compute 22752.1
22 reduce 16 0 0 26 
22 compute 18536.6
22 alltoall 2097152 2097152 26 26
22 compute 22517.5
22 reduce 16 0 0 26 
22 compute 18295.1
22 alltoall 2097152 2097152 26 26
22 compute 22357.3
22 reduce 16 0 0 26 
22 compute 18068
22 alltoall 2097152 2097152 26 26
22 compute 22273.7
22 reduce 16 0 0 26 
22 compute 17910.9
22 alltoall 2097152 2097152 26 26
22 compute 22094.4
22 reduce 16 0 0 26 
22 compute 17698.2
22 alltoall 2097152 2097152 26 26
22 compute 21948.5
22 reduce 16 0 0 26 
22 compute 0.0749
22 compute 0.04302
22 finalize
