119 init
119 compute 0.1718
119 compute 0.16576
119 bcast 1 0 1 
119 compute 0.02532
119 bcast 1 0 1 
119 compute 0.02434
119 bcast 1 0 1 
119 compute 0.02402
119 bcast 1 0 1 
119 compute 0.02922
119 bcast 1 0 16 
119 compute 0.02456
119 compute 0.02646
119 compute 31077.4
119 alltoall 2097152 2097152 26 26
119 compute 8023.4
119 compute 0.08376
119 barrier
119 compute 0.03414
119 compute 26159
119 alltoall 2097152 2097152 26 26
119 compute 20339.8
119 alltoall 2097152 2097152 26 26
119 compute 17243.4
119 reduce 16 0 0 26 
119 compute 9974.51
119 alltoall 2097152 2097152 26 26
119 compute 17236.9
119 reduce 16 0 0 26 
119 compute 9924.12
119 alltoall 2097152 2097152 26 26
119 compute 17148.8
119 reduce 16 0 0 26 
119 compute 9925.61
119 alltoall 2097152 2097152 26 26
119 compute 17124.6
119 reduce 16 0 0 26 
119 compute 9885.28
119 alltoall 2097152 2097152 26 26
119 compute 17217.3
119 reduce 16 0 0 26 
119 compute 9888.4
119 alltoall 2097152 2097152 26 26
119 compute 17166
119 reduce 16 0 0 26 
119 compute 9899.35
119 alltoall 2097152 2097152 26 26
119 compute 17106
119 reduce 16 0 0 26 
119 compute 9877.85
119 alltoall 2097152 2097152 26 26
119 compute 17114
119 reduce 16 0 0 26 
119 compute 9881.58
119 alltoall 2097152 2097152 26 26
119 compute 17200.4
119 reduce 16 0 0 26 
119 compute 9932.84
119 alltoall 2097152 2097152 26 26
119 compute 17202.2
119 reduce 16 0 0 26 
119 compute 9906.59
119 alltoall 2097152 2097152 26 26
119 compute 17234.9
119 reduce 16 0 0 26 
119 compute 9980.94
119 alltoall 2097152 2097152 26 26
119 compute 17210.4
119 reduce 16 0 0 26 
119 compute 9919.24
119 alltoall 2097152 2097152 26 26
119 compute 17221.6
119 reduce 16 0 0 26 
119 compute 9913.92
119 alltoall 2097152 2097152 26 26
119 compute 17243.5
119 reduce 16 0 0 26 
119 compute 10129.7
119 alltoall 2097152 2097152 26 26
119 compute 17115.4
119 reduce 16 0 0 26 
119 compute 10296.9
119 alltoall 2097152 2097152 26 26
119 compute 17110.2
119 reduce 16 0 0 26 
119 compute 11024.6
119 alltoall 2097152 2097152 26 26
119 compute 17491.7
119 reduce 16 0 0 26 
119 compute 18215.5
119 alltoall 2097152 2097152 26 26
119 compute 22995.5
119 reduce 16 0 0 26 
119 compute 19281.9
119 alltoall 2097152 2097152 26 26
119 compute 24670.7
119 reduce 16 0 0 26 
119 compute 19048
119 alltoall 2097152 2097152 26 26
119 compute 24391.7
119 reduce 16 0 0 26 
119 compute 18766.8
119 alltoall 2097152 2097152 26 26
119 compute 24301.6
119 reduce 16 0 0 26 
119 compute 18519.1
119 alltoall 2097152 2097152 26 26
119 compute 24106.9
119 reduce 16 0 0 26 
119 compute 18309
119 alltoall 2097152 2097152 26 26
119 compute 24058.8
119 reduce 16 0 0 26 
119 compute 18111.5
119 alltoall 2097152 2097152 26 26
119 compute 23767.7
119 reduce 16 0 0 26 
119 compute 17930.3
119 alltoall 2097152 2097152 26 26
119 compute 23655.2
119 reduce 16 0 0 26 
119 compute 0.06732
119 compute 0.0487
119 finalize
