9 init
9 compute 0.1007
9 compute 0.12972
9 bcast 1 0 1 
9 compute 0.0307
9 bcast 1 0 1 
9 compute 0.02742
9 bcast 1 0 1 
9 compute 0.02478
9 bcast 1 0 1 
9 compute 0.02656
9 bcast 1 0 16 
9 compute 0.03026
9 compute 0.02634
9 compute 30824.6
9 alltoall 2097152 2097152 26 26
9 compute 8007.93
9 compute 0.06374
9 barrier
9 compute 0.03304
9 compute 25896.3
9 alltoall 2097152 2097152 26 26
9 compute 19218.1
9 alltoall 2097152 2097152 26 26
9 compute 15516.5
9 reduce 16 0 0 26 
9 compute 9528.86
9 alltoall 2097152 2097152 26 26
9 compute 15516.1
9 reduce 16 0 0 26 
9 compute 9504.36
9 alltoall 2097152 2097152 26 26
9 compute 15511
9 reduce 16 0 0 26 
9 compute 9496.54
9 alltoall 2097152 2097152 26 26
9 compute 15519.2
9 reduce 16 0 0 26 
9 compute 9462.01
9 alltoall 2097152 2097152 26 26
9 compute 15522
9 reduce 16 0 0 26 
9 compute 9519.2
9 alltoall 2097152 2097152 26 26
9 compute 15518.3
9 reduce 16 0 0 26 
9 compute 9470.41
9 alltoall 2097152 2097152 26 26
9 compute 15516.7
9 reduce 16 0 0 26 
9 compute 9468.96
9 alltoall 2097152 2097152 26 26
9 compute 15516.6
9 reduce 16 0 0 26 
9 compute 9466.27
9 alltoall 2097152 2097152 26 26
9 compute 15520.5
9 reduce 16 0 0 26 
9 compute 9466.25
9 alltoall 2097152 2097152 26 26
9 compute 15511
9 reduce 16 0 0 26 
9 compute 9506.86
9 alltoall 2097152 2097152 26 26
9 compute 15519.7
9 reduce 16 0 0 26 
9 compute 9500
9 alltoall 2097152 2097152 26 26
9 compute 15513.1
9 reduce 16 0 0 26 
9 compute 9479.74
9 alltoall 2097152 2097152 26 26
9 compute 15519.5
9 reduce 16 0 0 26 
9 compute 9524.47
9 alltoall 2097152 2097152 26 26
9 compute 15524.1
9 reduce 16 0 0 26 
9 compute 9700.61
9 alltoall 2097152 2097152 26 26
9 compute 15510.1
9 reduce 16 0 0 26 
9 compute 9899.72
9 alltoall 2097152 2097152 26 26
9 compute 15516.9
9 reduce 16 0 0 26 
9 compute 10608.9
9 alltoall 2097152 2097152 26 26
9 compute 15891.4
9 reduce 16 0 0 26 
9 compute 17986.1
9 alltoall 2097152 2097152 26 26
9 compute 21399.4
9 reduce 16 0 0 26 
9 compute 18892.9
9 alltoall 2097152 2097152 26 26
9 compute 22933
9 reduce 16 0 0 26 
9 compute 18593.8
9 alltoall 2097152 2097152 26 26
9 compute 22795.4
9 reduce 16 0 0 26 
9 compute 18375.3
9 alltoall 2097152 2097152 26 26
9 compute 22586.7
9 reduce 16 0 0 26 
9 compute 18171.5
9 alltoall 2097152 2097152 26 26
9 compute 22414.4
9 reduce 16 0 0 26 
9 compute 17907.9
9 alltoall 2097152 2097152 26 26
9 compute 22333.5
9 reduce 16 0 0 26 
9 compute 17726.7
9 alltoall 2097152 2097152 26 26
9 compute 22153.7
9 reduce 16 0 0 26 
9 compute 17511.9
9 alltoall 2097152 2097152 26 26
9 compute 22009
9 reduce 16 0 0 26 
9 compute 0.08282
9 compute 0.04278
9 finalize
