25 init
25 compute 0.09632
25 compute 0.14884
25 bcast 1 0 1 
25 compute 0.03018
25 bcast 1 0 1 
25 compute 0.02526
25 bcast 1 0 1 
25 compute 0.02432
25 bcast 1 0 1 
25 compute 0.02652
25 bcast 1 0 16 
25 compute 0.02852
25 compute 0.02406
25 compute 30956.6
25 alltoall 2097152 2097152 26 26
25 compute 8029.01
25 compute 0.03744
25 barrier
25 compute 0.03792
25 compute 26087
25 alltoall 2097152 2097152 26 26
25 compute 19234.1
25 alltoall 2097152 2097152 26 26
25 compute 15502.4
25 reduce 16 0 0 26 
25 compute 9511.79
25 alltoall 2097152 2097152 26 26
25 compute 15504
25 reduce 16 0 0 26 
25 compute 9515.6
25 alltoall 2097152 2097152 26 26
25 compute 15504.5
25 reduce 16 0 0 26 
25 compute 9484.76
25 alltoall 2097152 2097152 26 26
25 compute 15505.9
25 reduce 16 0 0 26 
25 compute 9489.41
25 alltoall 2097152 2097152 26 26
25 compute 15503.3
25 reduce 16 0 0 26 
25 compute 9480.81
25 alltoall 2097152 2097152 26 26
25 compute 15507.1
25 reduce 16 0 0 26 
25 compute 9494.82
25 alltoall 2097152 2097152 26 26
25 compute 15499.9
25 reduce 16 0 0 26 
25 compute 9518.68
25 alltoall 2097152 2097152 26 26
25 compute 15502.9
25 reduce 16 0 0 26 
25 compute 9478.42
25 alltoall 2097152 2097152 26 26
25 compute 15504.9
25 reduce 16 0 0 26 
25 compute 9482.06
25 alltoall 2097152 2097152 26 26
25 compute 15503.9
25 reduce 16 0 0 26 
25 compute 9494.86
25 alltoall 2097152 2097152 26 26
25 compute 15502.4
25 reduce 16 0 0 26 
25 compute 9482.02
25 alltoall 2097152 2097152 26 26
25 compute 15506.2
25 reduce 16 0 0 26 
25 compute 9514.97
25 alltoall 2097152 2097152 26 26
25 compute 15506
25 reduce 16 0 0 26 
25 compute 9582.09
25 alltoall 2097152 2097152 26 26
25 compute 15508.5
25 reduce 16 0 0 26 
25 compute 9812.82
25 alltoall 2097152 2097152 26 26
25 compute 15509.2
25 reduce 16 0 0 26 
25 compute 10169.7
25 alltoall 2097152 2097152 26 26
25 compute 15505.1
25 reduce 16 0 0 26 
25 compute 14232.4
25 alltoall 2097152 2097152 26 26
25 compute 15884
25 reduce 16 0 0 26 
25 compute 19254.5
25 alltoall 2097152 2097152 26 26
25 compute 21400.4
25 reduce 16 0 0 26 
25 compute 19095.1
25 alltoall 2097152 2097152 26 26
25 compute 22920.3
25 reduce 16 0 0 26 
25 compute 18802.3
25 alltoall 2097152 2097152 26 26
25 compute 22800.1
25 reduce 16 0 0 26 
25 compute 18556
25 alltoall 2097152 2097152 26 26
25 compute 22570.9
25 reduce 16 0 0 26 
25 compute 18347.2
25 alltoall 2097152 2097152 26 26
25 compute 22408.6
25 reduce 16 0 0 26 
25 compute 18145
25 alltoall 2097152 2097152 26 26
25 compute 22321.1
25 reduce 16 0 0 26 
25 compute 17948.4
25 alltoall 2097152 2097152 26 26
25 compute 22133.3
25 reduce 16 0 0 26 
25 compute 17757.8
25 alltoall 2097152 2097152 26 26
25 compute 21994.6
25 reduce 16 0 0 26 
25 compute 0.0752
25 compute 0.04892
25 finalize
