121 init
121 compute 0.08752
121 compute 0.12344
121 bcast 1 0 1 
121 compute 0.02496
121 bcast 1 0 1 
121 compute 0.02454
121 bcast 1 0 1 
121 compute 0.02406
121 bcast 1 0 1 
121 compute 0.02428
121 bcast 1 0 16 
121 compute 0.02508
121 compute 0.0264
121 compute 31010.8
121 alltoall 2097152 2097152 26 26
121 compute 8036.93
121 compute 0.05866
121 barrier
121 compute 0.0347
121 compute 26167.1
121 alltoall 2097152 2097152 26 26
121 compute 20486
121 alltoall 2097152 2097152 26 26
121 compute 17197.1
121 reduce 16 0 0 26 
121 compute 9920.73
121 alltoall 2097152 2097152 26 26
121 compute 17180.9
121 reduce 16 0 0 26 
121 compute 9946.6
121 alltoall 2097152 2097152 26 26
121 compute 17184.1
121 reduce 16 0 0 26 
121 compute 9913.84
121 alltoall 2097152 2097152 26 26
121 compute 17129
121 reduce 16 0 0 26 
121 compute 9896.24
121 alltoall 2097152 2097152 26 26
121 compute 17118.9
121 reduce 16 0 0 26 
121 compute 9890.92
121 alltoall 2097152 2097152 26 26
121 compute 17128.9
121 reduce 16 0 0 26 
121 compute 9925.51
121 alltoall 2097152 2097152 26 26
121 compute 17260.4
121 reduce 16 0 0 26 
121 compute 9925.21
121 alltoall 2097152 2097152 26 26
121 compute 17127.7
121 reduce 16 0 0 26 
121 compute 9856.93
121 alltoall 2097152 2097152 26 26
121 compute 17151.8
121 reduce 16 0 0 26 
121 compute 9920.27
121 alltoall 2097152 2097152 26 26
121 compute 17127.6
121 reduce 16 0 0 26 
121 compute 9904.93
121 alltoall 2097152 2097152 26 26
121 compute 17225.1
121 reduce 16 0 0 26 
121 compute 9845.57
121 alltoall 2097152 2097152 26 26
121 compute 17211.3
121 reduce 16 0 0 26 
121 compute 9890.58
121 alltoall 2097152 2097152 26 26
121 compute 17251.1
121 reduce 16 0 0 26 
121 compute 9912.73
121 alltoall 2097152 2097152 26 26
121 compute 17238.6
121 reduce 16 0 0 26 
121 compute 10066.7
121 alltoall 2097152 2097152 26 26
121 compute 17266.1
121 reduce 16 0 0 26 
121 compute 10224.9
121 alltoall 2097152 2097152 26 26
121 compute 17130.7
121 reduce 16 0 0 26 
121 compute 10961.9
121 alltoall 2097152 2097152 26 26
121 compute 17637.9
121 reduce 16 0 0 26 
121 compute 17977.7
121 alltoall 2097152 2097152 26 26
121 compute 23108.4
121 reduce 16 0 0 26 
121 compute 19245.6
121 alltoall 2097152 2097152 26 26
121 compute 24635.6
121 reduce 16 0 0 26 
121 compute 19019.3
121 alltoall 2097152 2097152 26 26
121 compute 24481
121 reduce 16 0 0 26 
121 compute 18732.2
121 alltoall 2097152 2097152 26 26
121 compute 24180.4
121 reduce 16 0 0 26 
121 compute 18539.6
121 alltoall 2097152 2097152 26 26
121 compute 24028
121 reduce 16 0 0 26 
121 compute 18322.9
121 alltoall 2097152 2097152 26 26
121 compute 23997.2
121 reduce 16 0 0 26 
121 compute 18124.9
121 alltoall 2097152 2097152 26 26
121 compute 23870.3
121 reduce 16 0 0 26 
121 compute 17891.9
121 alltoall 2097152 2097152 26 26
121 compute 23612
121 reduce 16 0 0 26 
121 compute 0.06494
121 compute 0.05776
121 finalize
