92 init
92 compute 0.08532
92 compute 0.11892
92 bcast 1 0 1 
92 compute 0.0269
92 bcast 1 0 1 
92 compute 0.02654
92 bcast 1 0 1 
92 compute 0.02458
92 bcast 1 0 1 
92 compute 0.02936
92 bcast 1 0 16 
92 compute 0.02748
92 compute 0.02366
92 compute 31008.2
92 alltoall 2097152 2097152 26 26
92 compute 8032.08
92 compute 0.05442
92 barrier
92 compute 0.03504
92 compute 26151.9
92 alltoall 2097152 2097152 26 26
92 compute 20356.3
92 alltoall 2097152 2097152 26 26
92 compute 17218.9
92 reduce 16 0 0 26 
92 compute 9923.77
92 alltoall 2097152 2097152 26 26
92 compute 17208.7
92 reduce 16 0 0 26 
92 compute 9883.09
92 alltoall 2097152 2097152 26 26
92 compute 17259
92 reduce 16 0 0 26 
92 compute 9880.63
92 alltoall 2097152 2097152 26 26
92 compute 17259.4
92 reduce 16 0 0 26 
92 compute 9868.79
92 alltoall 2097152 2097152 26 26
92 compute 17213.5
92 reduce 16 0 0 26 
92 compute 9861.27
92 alltoall 2097152 2097152 26 26
92 compute 17138.7
92 reduce 16 0 0 26 
92 compute 9861.45
92 alltoall 2097152 2097152 26 26
92 compute 17261.7
92 reduce 16 0 0 26 
92 compute 9905.02
92 alltoall 2097152 2097152 26 26
92 compute 17141.9
92 reduce 16 0 0 26 
92 compute 9929.6
92 alltoall 2097152 2097152 26 26
92 compute 17221.2
92 reduce 16 0 0 26 
92 compute 9877.45
92 alltoall 2097152 2097152 26 26
92 compute 17258.7
92 reduce 16 0 0 26 
92 compute 9892.81
92 alltoall 2097152 2097152 26 26
92 compute 17146.8
92 reduce 16 0 0 26 
92 compute 9876.36
92 alltoall 2097152 2097152 26 26
92 compute 17162.1
92 reduce 16 0 0 26 
92 compute 9900.69
92 alltoall 2097152 2097152 26 26
92 compute 17193.8
92 reduce 16 0 0 26 
92 compute 10028.5
92 alltoall 2097152 2097152 26 26
92 compute 17246.6
92 reduce 16 0 0 26 
92 compute 10272
92 alltoall 2097152 2097152 26 26
92 compute 17197.8
92 reduce 16 0 0 26 
92 compute 11413.9
92 alltoall 2097152 2097152 26 26
92 compute 17269.5
92 reduce 16 0 0 26 
92 compute 19354.3
92 alltoall 2097152 2097152 26 26
92 compute 17509.6
92 reduce 16 0 0 26 
92 compute 19993.4
92 alltoall 2097152 2097152 26 26
92 compute 23024.2
92 reduce 16 0 0 26 
92 compute 19724.4
92 alltoall 2097152 2097152 26 26
92 compute 24558.9
92 reduce 16 0 0 26 
92 compute 19411
92 alltoall 2097152 2097152 26 26
92 compute 24455.5
92 reduce 16 0 0 26 
92 compute 19155.9
92 alltoall 2097152 2097152 26 26
92 compute 24301.5
92 reduce 16 0 0 26 
92 compute 18921.5
92 alltoall 2097152 2097152 26 26
92 compute 24157.4
92 reduce 16 0 0 26 
92 compute 18729.4
92 alltoall 2097152 2097152 26 26
92 compute 23952.3
92 reduce 16 0 0 26 
92 compute 18546.1
92 alltoall 2097152 2097152 26 26
92 compute 23798.8
92 reduce 16 0 0 26 
92 compute 18426.3
92 alltoall 2097152 2097152 26 26
92 compute 23726
92 reduce 16 0 0 26 
92 compute 0.0666
92 compute 0.04302
92 finalize
