37 init
37 compute 0.09336
37 compute 0.12616
37 bcast 1 0 1 
37 compute 0.02546
37 bcast 1 0 1 
37 compute 0.02284
37 bcast 1 0 1 
37 compute 0.02344
37 bcast 1 0 1 
37 compute 0.02464
37 bcast 1 0 16 
37 compute 0.03216
37 compute 0.02686
37 compute 31059.8
37 alltoall 2097152 2097152 26 26
37 compute 8050.73
37 compute 0.06272
37 barrier
37 compute 0.03118
37 compute 26168.7
37 alltoall 2097152 2097152 26 26
37 compute 19310.3
37 alltoall 2097152 2097152 26 26
37 compute 15519.9
37 reduce 16 0 0 26 
37 compute 9515.93
37 alltoall 2097152 2097152 26 26
37 compute 15520.4
37 reduce 16 0 0 26 
37 compute 9512.78
37 alltoall 2097152 2097152 26 26
37 compute 15524
37 reduce 16 0 0 26 
37 compute 9529.2
37 alltoall 2097152 2097152 26 26
37 compute 15522.1
37 reduce 16 0 0 26 
37 compute 9496
37 alltoall 2097152 2097152 26 26
37 compute 15523.2
37 reduce 16 0 0 26 
37 compute 9548.59
37 alltoall 2097152 2097152 26 26
37 compute 15527.5
37 reduce 16 0 0 26 
37 compute 9523.4
37 alltoall 2097152 2097152 26 26
37 compute 15518.8
37 reduce 16 0 0 26 
37 compute 9500.05
37 alltoall 2097152 2097152 26 26
37 compute 15513.7
37 reduce 16 0 0 26 
37 compute 9518.82
37 alltoall 2097152 2097152 26 26
37 compute 15518.4
37 reduce 16 0 0 26 
37 compute 9540.1
37 alltoall 2097152 2097152 26 26
37 compute 15520.6
37 reduce 16 0 0 26 
37 compute 9502.22
37 alltoall 2097152 2097152 26 26
37 compute 15514.6
37 reduce 16 0 0 26 
37 compute 9483.44
37 alltoall 2097152 2097152 26 26
37 compute 15519.6
37 reduce 16 0 0 26 
37 compute 9535.02
37 alltoall 2097152 2097152 26 26
37 compute 15515.8
37 reduce 16 0 0 26 
37 compute 9675.19
37 alltoall 2097152 2097152 26 26
37 compute 15520.7
37 reduce 16 0 0 26 
37 compute 9975.02
37 alltoall 2097152 2097152 26 26
37 compute 15525.5
37 reduce 16 0 0 26 
37 compute 11651.3
37 alltoall 2097152 2097152 26 26
37 compute 15518.9
37 reduce 16 0 0 26 
37 compute 19089.1
37 alltoall 2097152 2097152 26 26
37 compute 15890.1
37 reduce 16 0 0 26 
37 compute 19641.9
37 alltoall 2097152 2097152 26 26
37 compute 21411.2
37 reduce 16 0 0 26 
37 compute 19361.2
37 alltoall 2097152 2097152 26 26
37 compute 22938.8
37 reduce 16 0 0 26 
37 compute 19122.9
37 alltoall 2097152 2097152 26 26
37 compute 22802.7
37 reduce 16 0 0 26 
37 compute 18866
37 alltoall 2097152 2097152 26 26
37 compute 22584.2
37 reduce 16 0 0 26 
37 compute 18676
37 alltoall 2097152 2097152 26 26
37 compute 22432.1
37 reduce 16 0 0 26 
37 compute 18412.4
37 alltoall 2097152 2097152 26 26
37 compute 22338.5
37 reduce 16 0 0 26 
37 compute 18224.4
37 alltoall 2097152 2097152 26 26
37 compute 22144.1
37 reduce 16 0 0 26 
37 compute 18059.7
37 alltoall 2097152 2097152 26 26
37 compute 21995.9
37 reduce 16 0 0 26 
37 compute 0.03936
37 compute 0.03934
37 finalize
