62 init
62 compute 0.08856
62 compute 0.13146
62 bcast 1 0 1 
62 compute 0.02204
62 bcast 1 0 1 
62 compute 0.02302
62 bcast 1 0 1 
62 compute 0.02194
62 bcast 1 0 1 
62 compute 0.02454
62 bcast 1 0 16 
62 compute 0.02456
62 compute 0.02652
62 compute 31010.5
62 alltoall 2097152 2097152 26 26
62 compute 8018.24
62 compute 0.0727
62 barrier
62 compute 0.0324
62 compute 26161.5
62 alltoall 2097152 2097152 26 26
62 compute 19249.5
62 alltoall 2097152 2097152 26 26
62 compute 15546.4
62 reduce 16 0 0 26 
62 compute 9523.87
62 alltoall 2097152 2097152 26 26
62 compute 15546.4
62 reduce 16 0 0 26 
62 compute 9501.21
62 alltoall 2097152 2097152 26 26
62 compute 15541.6
62 reduce 16 0 0 26 
62 compute 9496.63
62 alltoall 2097152 2097152 26 26
62 compute 15544.9
62 reduce 16 0 0 26 
62 compute 9499.96
62 alltoall 2097152 2097152 26 26
62 compute 15540.1
62 reduce 16 0 0 26 
62 compute 9536.22
62 alltoall 2097152 2097152 26 26
62 compute 15546.6
62 reduce 16 0 0 26 
62 compute 9508.43
62 alltoall 2097152 2097152 26 26
62 compute 15546.2
62 reduce 16 0 0 26 
62 compute 9529.85
62 alltoall 2097152 2097152 26 26
62 compute 15550.9
62 reduce 16 0 0 26 
62 compute 9481.82
62 alltoall 2097152 2097152 26 26
62 compute 15543.1
62 reduce 16 0 0 26 
62 compute 9539.46
62 alltoall 2097152 2097152 26 26
62 compute 15538.7
62 reduce 16 0 0 26 
62 compute 9504.9
62 alltoall 2097152 2097152 26 26
62 compute 15541.2
62 reduce 16 0 0 26 
62 compute 9542.32
62 alltoall 2097152 2097152 26 26
62 compute 15546.2
62 reduce 16 0 0 26 
62 compute 9912.74
62 alltoall 2097152 2097152 26 26
62 compute 15546.7
62 reduce 16 0 0 26 
62 compute 11557.8
62 alltoall 2097152 2097152 26 26
62 compute 15543.5
62 reduce 16 0 0 26 
62 compute 20410.9
62 alltoall 2097152 2097152 26 26
62 compute 15542.2
62 reduce 16 0 0 26 
62 compute 20130
62 alltoall 2097152 2097152 26 26
62 compute 15535.4
62 reduce 16 0 0 26 
62 compute 19903.7
62 alltoall 2097152 2097152 26 26
62 compute 15930.1
62 reduce 16 0 0 26 
62 compute 20685.4
62 alltoall 2097152 2097152 26 26
62 compute 21440.2
62 reduce 16 0 0 26 
62 compute 20400
62 alltoall 2097152 2097152 26 26
62 compute 22964.9
62 reduce 16 0 0 26 
62 compute 20222.4
62 alltoall 2097152 2097152 26 26
62 compute 22841.8
62 reduce 16 0 0 26 
62 compute 19979.6
62 alltoall 2097152 2097152 26 26
62 compute 22616
62 reduce 16 0 0 26 
62 compute 19831.9
62 alltoall 2097152 2097152 26 26
62 compute 22449.4
62 reduce 16 0 0 26 
62 compute 19672.8
62 alltoall 2097152 2097152 26 26
62 compute 22367
62 reduce 16 0 0 26 
62 compute 19516.1
62 alltoall 2097152 2097152 26 26
62 compute 22184.8
62 reduce 16 0 0 26 
62 compute 19388.9
62 alltoall 2097152 2097152 26 26
62 compute 22040.6
62 reduce 16 0 0 26 
62 compute 0.05614
62 compute 0.05044
62 finalize
