3 init
3 compute 0.10308
3 compute 0.15352
3 bcast 1 0 1 
3 compute 0.02794
3 bcast 1 0 1 
3 bcast 1 0 1 
3 compute 0.02108
3 bcast 1 0 1 
3 compute 0.02102
3 bcast 1 0 16 
3 compute 0.0288
3 compute 0.02682
3 compute 30832.2
3 alltoall 2097152 2097152 26 26
3 compute 7990.93
3 compute 0.06256
3 barrier
3 compute 0.0321
3 compute 25902.1
3 alltoall 2097152 2097152 26 26
3 compute 20335.4
3 alltoall 2097152 2097152 26 26
3 compute 17092.1
3 reduce 16 0 0 26 
3 compute 9851
3 alltoall 2097152 2097152 26 26
3 compute 17099.3
3 reduce 16 0 0 26 
3 compute 9882.33
3 alltoall 2097152 2097152 26 26
3 compute 17104.6
3 reduce 16 0 0 26 
3 compute 9902.33
3 alltoall 2097152 2097152 26 26
3 compute 17092.5
3 reduce 16 0 0 26 
3 compute 9946.31
3 alltoall 2097152 2097152 26 26
3 compute 17099.9
3 reduce 16 0 0 26 
3 compute 9900.71
3 alltoall 2097152 2097152 26 26
3 compute 17095.9
3 reduce 16 0 0 26 
3 compute 9894.04
3 alltoall 2097152 2097152 26 26
3 compute 17094
3 reduce 16 0 0 26 
3 compute 9891.63
3 alltoall 2097152 2097152 26 26
3 compute 17103.4
3 reduce 16 0 0 26 
3 compute 9935.08
3 alltoall 2097152 2097152 26 26
3 compute 17091.4
3 reduce 16 0 0 26 
3 compute 9880.34
3 alltoall 2097152 2097152 26 26
3 compute 17228.1
3 reduce 16 0 0 26 
3 compute 9911.63
3 alltoall 2097152 2097152 26 26
3 compute 17164.5
3 reduce 16 0 0 26 
3 compute 9901.65
3 alltoall 2097152 2097152 26 26
3 compute 17161.5
3 reduce 16 0 0 26 
3 compute 9869.07
3 alltoall 2097152 2097152 26 26
3 compute 17205.1
3 reduce 16 0 0 26 
3 compute 9841.54
3 alltoall 2097152 2097152 26 26
3 compute 17178.6
3 reduce 16 0 0 26 
3 compute 10001.3
3 alltoall 2097152 2097152 26 26
3 compute 17097
3 reduce 16 0 0 26 
3 compute 10230.8
3 alltoall 2097152 2097152 26 26
3 compute 17144.4
3 reduce 16 0 0 26 
3 compute 10924.3
3 alltoall 2097152 2097152 26 26
3 compute 17546.7
3 reduce 16 0 0 26 
3 compute 17679.6
3 alltoall 2097152 2097152 26 26
3 compute 22988
3 reduce 16 0 0 26 
3 compute 19201.6
3 alltoall 2097152 2097152 26 26
3 compute 24544
3 reduce 16 0 0 26 
3 compute 19045.7
3 alltoall 2097152 2097152 26 26
3 compute 24432.1
3 reduce 16 0 0 26 
3 compute 18707.1
3 alltoall 2097152 2097152 26 26
3 compute 24224.5
3 reduce 16 0 0 26 
3 compute 18504.4
3 alltoall 2097152 2097152 26 26
3 compute 24103.5
3 reduce 16 0 0 26 
3 compute 18269
3 alltoall 2097152 2097152 26 26
3 compute 23965
3 reduce 16 0 0 26 
3 compute 18148.8
3 alltoall 2097152 2097152 26 26
3 compute 23727.1
3 reduce 16 0 0 26 
3 compute 17930.3
3 alltoall 2097152 2097152 26 26
3 compute 23596.6
3 reduce 16 0 0 26 
3 compute 0.06658
3 compute 0.0531
3 finalize
