47 init
47 compute 0.15424
47 compute 0.1308
47 bcast 1 0 1 
47 compute 0.02296
47 bcast 1 0 1 
47 compute 0.02604
47 bcast 1 0 1 
47 compute 0.02534
47 bcast 1 0 1 
47 compute 0.02816
47 bcast 1 0 16 
47 compute 0.027
47 compute 0.02546
47 compute 31027.4
47 alltoall 2097152 2097152 26 26
47 compute 8034.07
47 compute 0.06376
47 barrier
47 compute 0.0335
47 compute 26170.3
47 alltoall 2097152 2097152 26 26
47 compute 20303.7
47 alltoall 2097152 2097152 26 26
47 compute 17160.7
47 reduce 16 0 0 26 
47 compute 9906.21
47 alltoall 2097152 2097152 26 26
47 compute 17247.9
47 reduce 16 0 0 26 
47 compute 9930.94
47 alltoall 2097152 2097152 26 26
47 compute 17279.8
47 reduce 16 0 0 26 
47 compute 9955.43
47 alltoall 2097152 2097152 26 26
47 compute 17149.5
47 reduce 16 0 0 26 
47 compute 9900.59
47 alltoall 2097152 2097152 26 26
47 compute 17227.1
47 reduce 16 0 0 26 
47 compute 9895.53
47 alltoall 2097152 2097152 26 26
47 compute 17235.7
47 reduce 16 0 0 26 
47 compute 9899.93
47 alltoall 2097152 2097152 26 26
47 compute 17168.2
47 reduce 16 0 0 26 
47 compute 9893.93
47 alltoall 2097152 2097152 26 26
47 compute 17152.9
47 reduce 16 0 0 26 
47 compute 9916.34
47 alltoall 2097152 2097152 26 26
47 compute 17151
47 reduce 16 0 0 26 
47 compute 9872.08
47 alltoall 2097152 2097152 26 26
47 compute 17273
47 reduce 16 0 0 26 
47 compute 9900.02
47 alltoall 2097152 2097152 26 26
47 compute 17158
47 reduce 16 0 0 26 
47 compute 9897.07
47 alltoall 2097152 2097152 26 26
47 compute 17158.8
47 reduce 16 0 0 26 
47 compute 9920.95
47 alltoall 2097152 2097152 26 26
47 compute 17185.4
47 reduce 16 0 0 26 
47 compute 10266
47 alltoall 2097152 2097152 26 26
47 compute 17163.4
47 reduce 16 0 0 26 
47 compute 11058.7
47 alltoall 2097152 2097152 26 26
47 compute 17164.3
47 reduce 16 0 0 26 
47 compute 19669.1
47 alltoall 2097152 2097152 26 26
47 compute 17207.4
47 reduce 16 0 0 26 
47 compute 19712.9
47 alltoall 2097152 2097152 26 26
47 compute 17617.3
47 reduce 16 0 0 26 
47 compute 20324.6
47 alltoall 2097152 2097152 26 26
47 compute 23047.9
47 reduce 16 0 0 26 
47 compute 20101.8
47 alltoall 2097152 2097152 26 26
47 compute 24712.4
47 reduce 16 0 0 26 
47 compute 19884.2
47 alltoall 2097152 2097152 26 26
47 compute 24512.1
47 reduce 16 0 0 26 
47 compute 19586.1
47 alltoall 2097152 2097152 26 26
47 compute 24285
47 reduce 16 0 0 26 
47 compute 19423.6
47 alltoall 2097152 2097152 26 26
47 compute 24185.2
47 reduce 16 0 0 26 
47 compute 19202.2
47 alltoall 2097152 2097152 26 26
47 compute 23993.3
47 reduce 16 0 0 26 
47 compute 18994.6
47 alltoall 2097152 2097152 26 26
47 compute 23804.3
47 reduce 16 0 0 26 
47 compute 18904.9
47 alltoall 2097152 2097152 26 26
47 compute 23789.5
47 reduce 16 0 0 26 
47 compute 0.06372
47 compute 0.05012
47 finalize
