4 init
4 compute 0.0975
4 compute 0.12934
4 bcast 1 0 1 
4 compute 0.0313
4 bcast 1 0 1 
4 compute 0.02682
4 bcast 1 0 1 
4 compute 0.02694
4 bcast 1 0 1 
4 compute 0.027
4 bcast 1 0 16 
4 compute 0.0538
4 compute 0.04266
4 compute 30831.6
4 alltoall 2097152 2097152 26 26
4 compute 7969.43
4 compute 0.11818
4 barrier
4 compute 0.07812
4 compute 25928
4 alltoall 2097152 2097152 26 26
4 compute 20305.1
4 alltoall 2097152 2097152 26 26
4 compute 17110.6
4 reduce 16 0 0 26 
4 compute 9859.36
4 alltoall 2097152 2097152 26 26
4 compute 17112.2
4 reduce 16 0 0 26 
4 compute 9880.07
4 alltoall 2097152 2097152 26 26
4 compute 17123.2
4 reduce 16 0 0 26 
4 compute 9932.26
4 alltoall 2097152 2097152 26 26
4 compute 17108.9
4 reduce 16 0 0 26 
4 compute 9872.36
4 alltoall 2097152 2097152 26 26
4 compute 17231.8
4 reduce 16 0 0 26 
4 compute 9839.5
4 alltoall 2097152 2097152 26 26
4 compute 17121.9
4 reduce 16 0 0 26 
4 compute 9879.05
4 alltoall 2097152 2097152 26 26
4 compute 17108
4 reduce 16 0 0 26 
4 compute 9907.89
4 alltoall 2097152 2097152 26 26
4 compute 17222.1
4 reduce 16 0 0 26 
4 compute 9900.93
4 alltoall 2097152 2097152 26 26
4 compute 17108.1
4 reduce 16 0 0 26 
4 compute 9873.3
4 alltoall 2097152 2097152 26 26
4 compute 17220.5
4 reduce 16 0 0 26 
4 compute 9928.08
4 alltoall 2097152 2097152 26 26
4 compute 17112.2
4 reduce 16 0 0 26 
4 compute 9903.09
4 alltoall 2097152 2097152 26 26
4 compute 17201.1
4 reduce 16 0 0 26 
4 compute 9945.99
4 alltoall 2097152 2097152 26 26
4 compute 17103.5
4 reduce 16 0 0 26 
4 compute 9856.85
4 alltoall 2097152 2097152 26 26
4 compute 17107.3
4 reduce 16 0 0 26 
4 compute 10090
4 alltoall 2097152 2097152 26 26
4 compute 17105.8
4 reduce 16 0 0 26 
4 compute 10257.2
4 alltoall 2097152 2097152 26 26
4 compute 17109.4
4 reduce 16 0 0 26 
4 compute 10946.7
4 alltoall 2097152 2097152 26 26
4 compute 17606
4 reduce 16 0 0 26 
4 compute 17729.1
4 alltoall 2097152 2097152 26 26
4 compute 23004.4
4 reduce 16 0 0 26 
4 compute 19266.5
4 alltoall 2097152 2097152 26 26
4 compute 24607.9
4 reduce 16 0 0 26 
4 compute 19026
4 alltoall 2097152 2097152 26 26
4 compute 24490.2
4 reduce 16 0 0 26 
4 compute 18775.6
4 alltoall 2097152 2097152 26 26
4 compute 24167.7
4 reduce 16 0 0 26 
4 compute 18512.2
4 alltoall 2097152 2097152 26 26
4 compute 24009.9
4 reduce 16 0 0 26 
4 compute 18368.5
4 alltoall 2097152 2097152 26 26
4 compute 24000.7
4 reduce 16 0 0 26 
4 compute 18067.5
4 alltoall 2097152 2097152 26 26
4 compute 23752.2
4 reduce 16 0 0 26 
4 compute 17866.5
4 alltoall 2097152 2097152 26 26
4 compute 23648.9
4 reduce 16 0 0 26 
4 compute 0.06444
4 compute 0.04898
4 finalize
