100 init
100 compute 0.10378
100 compute 0.1286
100 bcast 1 0 1 
100 compute 0.02444
100 bcast 1 0 1 
100 compute 0.02676
100 bcast 1 0 1 
100 compute 0.02544
100 bcast 1 0 1 
100 compute 0.02614
100 bcast 1 0 16 
100 compute 0.02698
100 compute 0.02666
100 compute 31011.9
100 alltoall 2097152 2097152 26 26
100 compute 8044.79
100 compute 0.05784
100 barrier
100 compute 0.033
100 compute 26179.3
100 alltoall 2097152 2097152 26 26
100 compute 20517.4
100 alltoall 2097152 2097152 26 26
100 compute 17143.3
100 reduce 16 0 0 26 
100 compute 9918.14
100 alltoall 2097152 2097152 26 26
100 compute 17128.4
100 reduce 16 0 0 26 
100 compute 9896.2
100 alltoall 2097152 2097152 26 26
100 compute 17233.6
100 reduce 16 0 0 26 
100 compute 9877.14
100 alltoall 2097152 2097152 26 26
100 compute 17114.9
100 reduce 16 0 0 26 
100 compute 9957.37
100 alltoall 2097152 2097152 26 26
100 compute 17247.4
100 reduce 16 0 0 26 
100 compute 9915.1
100 alltoall 2097152 2097152 26 26
100 compute 17241.3
100 reduce 16 0 0 26 
100 compute 9868.57
100 alltoall 2097152 2097152 26 26
100 compute 17124.8
100 reduce 16 0 0 26 
100 compute 9880.58
100 alltoall 2097152 2097152 26 26
100 compute 17119.7
100 reduce 16 0 0 26 
100 compute 9865.92
100 alltoall 2097152 2097152 26 26
100 compute 17118.9
100 reduce 16 0 0 26 
100 compute 9945.25
100 alltoall 2097152 2097152 26 26
100 compute 17121.9
100 reduce 16 0 0 26 
100 compute 9924.31
100 alltoall 2097152 2097152 26 26
100 compute 17119.3
100 reduce 16 0 0 26 
100 compute 9899.55
100 alltoall 2097152 2097152 26 26
100 compute 17239
100 reduce 16 0 0 26 
100 compute 9864.36
100 alltoall 2097152 2097152 26 26
100 compute 17120.5
100 reduce 16 0 0 26 
100 compute 9985.75
100 alltoall 2097152 2097152 26 26
100 compute 17124.4
100 reduce 16 0 0 26 
100 compute 10185.9
100 alltoall 2097152 2097152 26 26
100 compute 17124.2
100 reduce 16 0 0 26 
100 compute 10621.4
100 alltoall 2097152 2097152 26 26
100 compute 17237.2
100 reduce 16 0 0 26 
100 compute 15705.1
100 alltoall 2097152 2097152 26 26
100 compute 17496.6
100 reduce 16 0 0 26 
100 compute 19729.6
100 alltoall 2097152 2097152 26 26
100 compute 23134.8
100 reduce 16 0 0 26 
100 compute 19553
100 alltoall 2097152 2097152 26 26
100 compute 24586.2
100 reduce 16 0 0 26 
100 compute 19267.7
100 alltoall 2097152 2097152 26 26
100 compute 24421.5
100 reduce 16 0 0 26 
100 compute 19055.4
100 alltoall 2097152 2097152 26 26
100 compute 24186.8
100 reduce 16 0 0 26 
100 compute 18758.5
100 alltoall 2097152 2097152 26 26
100 compute 24024.6
100 reduce 16 0 0 26 
100 compute 18579.7
100 alltoall 2097152 2097152 26 26
100 compute 24059.7
100 reduce 16 0 0 26 
100 compute 18344.1
100 alltoall 2097152 2097152 26 26
100 compute 23859.6
100 reduce 16 0 0 26 
100 compute 18269.3
100 alltoall 2097152 2097152 26 26
100 compute 23602.6
100 reduce 16 0 0 26 
100 compute 0.08948
100 compute 0.0641
100 finalize
