

 NAS Parallel Benchmarks 3.3 -- IS Benchmark

 Size:  2147483648  (class D)
 Iterations:   10
 Number of processes:     32

   iteration
        1
        2
        3
        4
        5
        6
        7
        8
        9
        10


 IS Benchmark Completed
 Class           =                        D
 Size            =               2147483648
 Iterations      =                       10
 Time in seconds =                    82.67
 Total processes =                       32
 Compiled procs  =                       32
 Mop/s total     =                   259.76
 Mop/s/process   =                     8.12
 Operation type  =              keys ranked
 Verification    =               SUCCESSFUL
 Version         =                    3.3.1
 Compile date    =              30 Nov 2018

 Compile options:
    MPICC        = smpicc
    CLINK        = $(MPICC)
    CMPI_LIB     = -lm -L/nix/store/jr0826hghbq8334iz9a292igr4...
    CMPI_INC     = -I/nix/store/jr0826hghbq8334iz9a292igr4k5y6...
    CFLAGS       = -O2 -g
    CLINKFLAGS   = -O2 -g -L/nix/store/jr0826hghbq8334iz9a292i...


 Please send feedbacks and/or the results of this run to:

 NPB Development Team
 npb@nas.nasa.gov


