# version: 1.0
2 compute 206189122.104
2 compute 1982681149.313
2 init
2 compute 368423.281
2 compute 68826.144
2 compute 66875.403
2 bcast 4 0
2 compute 61515630843.571
2 allreduce 4116 0
2 compute 99654.521
2 alltoall 4 256
2 compute 113476.438
2 alltoall 2097152 2076198.5625
2 compute 6157118332.883
2 allreduce 4116 0
2 compute 64724.586
2 alltoall 4 256
2 compute 22508.55
2 alltoall 2097152 2076198.5625
2 compute 6231611913.024
2 allreduce 4116 0
2 compute 72394.166
2 alltoall 4 256
2 compute 24342.58
2 alltoall 2097152 2076198.5625
2 compute 6146615843.453
2 allreduce 4116 0
2 compute 57788.618
2 alltoall 4 256
2 compute 22225.109
2 alltoall 2097152 2076198.5625
2 compute 6160329085.839
2 allreduce 4116 0
2 compute 59689.34
2 alltoall 4 256
2 compute 21091.345
2 alltoall 2097152 2076198.5625
2 compute 6153406739.68
2 allreduce 4116 0
2 compute 59989.454
2 alltoall 4 256
2 compute 34179.65
2 alltoall 2097152 2076198.5625
2 compute 6182019541.748
2 allreduce 4116 0
2 compute 60189.53
2 alltoall 4 256
2 compute 22725.299
2 alltoall 2097152 2076198.5625
2 compute 6167492973.749
2 allreduce 4116 0
2 compute 54904.189
2 alltoall 4 256
2 compute 22225.109
2 alltoall 2097152 2076198.5625
2 compute 6153112244.481
2 allreduce 4116 0
2 compute 56121.318
2 alltoall 4 256
2 compute 22708.626
2 alltoall 2097152 2076198.5625
2 compute 6134259099.674
2 allreduce 4116 0
2 compute 58338.827
2 alltoall 4 256
2 compute 22341.82
2 alltoall 2097152 2076198.5625
2 compute 6157110746.668
2 allreduce 4116 0
2 compute 58355.5
2 alltoall 4 256
2 compute 20891.269
2 alltoall 2097152 2076198.5625
2 compute 3905044419.872
2 reduce 8 0 0
2 compute 15096827081.804
2 irecv 1 0 4
2 compute 44100.085
2 send 3 0 4
2 compute 41432.405
2 wait 2 1 0
2 compute 270389075.486
2 reduce 4 0 0
2 compute 53953.828
2 finalize
2 compute 378693.849
2 compute 36813.984
