# version: 1.0
52 compute 865451646.702
52 compute 13326059695.799
52 init
52 compute 744499.469
52 compute 107490.831
52 compute 51002.707
52 bcast 4 0
52 compute 112482891012.225
52 allreduce 4116 0
52 compute 203327.235
52 alltoall 4 256
52 compute 148773.179
52 alltoall 2097152 1884479.125
52 compute 8271435851.682
52 allreduce 4116 0
52 compute 95669.674
52 alltoall 4 256
52 compute 20724.539
52 alltoall 2097152 1884479.125
52 compute 8261263787.766
52 allreduce 4116 0
52 compute 95119.465
52 alltoall 4 256
52 compute 17039.806
52 alltoall 2097152 1884479.125
52 compute 8270398941.139
52 allreduce 4116 0
52 compute 75745.439
52 alltoall 4 256
52 compute 19357.353
52 alltoall 2097152 1884479.125
52 compute 8275586861.8
52 allreduce 4116 0
52 compute 88867.09
52 alltoall 4 256
52 compute 154775.459
52 alltoall 2097152 1884479.125
52 compute 8300727061.447
52 allreduce 4116 0
52 compute 91067.926
52 alltoall 4 256
52 compute 17489.977
52 alltoall 2097152 1884479.125
52 compute 8296493620.017
52 allreduce 4116 0
52 compute 88383.573
52 alltoall 4 256
52 compute 17373.266
52 alltoall 2097152 1884479.125
52 compute 8326329970.19
52 allreduce 4116 0
52 compute 78096.332
52 alltoall 4 256
52 compute 19574.102
52 alltoall 2097152 1884479.125
52 compute 8298826406.139
52 allreduce 4116 0
52 compute 80613.955
52 alltoall 4 256
52 compute 21191.383
52 alltoall 2097152 1884479.125
52 compute 8271974122.814
52 allreduce 4116 0
52 compute 83981.901
52 alltoall 4 256
52 compute 16306.194
52 alltoall 2097152 1884479.125
52 compute 8304688532.901
52 allreduce 4116 0
52 compute 93118.705
52 alltoall 4 256
52 compute 20591.155
52 alltoall 2097152 1884479.125
52 compute 3126871376.441
52 reduce 8 0 0
52 compute 29976011890.96
52 irecv 51 0 4
52 compute 56071.299
52 send 53 0 4
52 compute 290076.854
52 wait 52 51 0
52 compute 451594540.74
52 reduce 4 0 0
52 compute 64141.031
52 finalize
52 compute 565414.776
52 compute 25092.865
