# version: 1.0
29 compute 315682830.575
29 compute 1877764196.015
29 init
29 compute 315586.544
29 compute 69676.467
29 compute 35846.95
29 bcast 4 0
29 compute 61562286732.741
29 allreduce 4116 0
29 compute 113243.016
29 alltoall 4 256
29 compute 156792.892
29 alltoall 2097152 2086794.1875
29 compute 3923290100.597
29 allreduce 4116 0
29 compute 67042.133
29 alltoall 4 256
29 compute 24492.637
29 alltoall 2097152 2086794.1875
29 compute 3929637111.545
29 allreduce 4116 0
29 compute 70726.866
29 alltoall 4 256
29 compute 26093.245
29 alltoall 2097152 2086794.1875
29 compute 3917698659.99
29 allreduce 4116 0
29 compute 69159.604
29 alltoall 4 256
29 compute 21591.535
29 alltoall 2097152 2086794.1875
29 compute 3891266136.113
29 allreduce 4116 0
29 compute 56571.489
29 alltoall 4 256
29 compute 23408.892
29 alltoall 2097152 2086794.1875
29 compute 3914794773.599
29 allreduce 4116 0
29 compute 58155.424
29 alltoall 4 256
29 compute 22975.394
29 alltoall 2097152 2086794.1875
29 compute 3910793687.097
29 allreduce 4116 0
29 compute 70776.885
29 alltoall 4 256
29 compute 25509.69
29 alltoall 2097152 2086794.1875
29 compute 3910982208.708
29 allreduce 4116 0
29 compute 55587.782
29 alltoall 4 256
29 compute 21774.938
29 alltoall 2097152 2086794.1875
29 compute 3901857859.439
29 allreduce 4116 0
29 compute 67425.612
29 alltoall 4 256
29 compute 23242.162
29 alltoall 2097152 2086794.1875
29 compute 3912146751.066
29 allreduce 4116 0
29 compute 115777.312
29 alltoall 4 256
29 compute 21624.881
29 alltoall 2097152 2086794.1875
29 compute 3904015262.274
29 allreduce 4116 0
29 compute 56388.086
29 alltoall 4 256
29 compute 24275.888
29 alltoall 2097152 2086794.1875
29 compute 1331105894.768
29 reduce 8 0 0
29 compute 17235776923.997
29 irecv 28 0 4
29 compute 48018.24
29 send 30 0 4
29 compute 37614.288
29 wait 29 28 0
29 compute 278052336.419
29 reduce 4 0 0
29 compute 69109.585
29 finalize
29 compute 336527.832
29 compute 33396.019
