# version: 1.0
27 compute 963793218.971
27 compute 1223527847.305
27 init
27 compute 316370.175
27 compute 73794.698
27 compute 80764.012
27 bcast 4 0
27 compute 61570415787.275
27 allreduce 4116 0
27 compute 107957.675
27 alltoall 4 256
27 compute 148989.928
27 alltoall 2097152 2064210.8125
27 compute 3923510084.159
27 allreduce 4116 0
27 compute 76745.819
27 alltoall 4 256
27 compute 24776.078
27 alltoall 2097152 2064210.8125
27 compute 3929280959.592
27 allreduce 4116 0
27 compute 68709.433
27 alltoall 4 256
27 compute 22992.067
27 alltoall 2097152 2064210.8125
27 compute 3926508689.863
27 allreduce 4116 0
27 compute 56121.318
27 alltoall 4 256
27 compute 22191.763
27 alltoall 2097152 2064210.8125
27 compute 3906242224.865
27 allreduce 4116 0
27 compute 59039.093
27 alltoall 4 256
27 compute 21608.208
27 alltoall 2097152 2064210.8125
27 compute 3930027109.688
27 allreduce 4116 0
27 compute 57055.006
27 alltoall 4 256
27 compute 21741.592
27 alltoall 2097152 2064210.8125
27 compute 3918132641.507
27 allreduce 4116 0
27 compute 52136.471
27 alltoall 4 256
27 compute 25176.23
27 alltoall 2097152 2064210.8125
27 compute 3917755948.418
27 allreduce 4116 0
27 compute 57021.66
27 alltoall 4 256
27 compute 23042.086
27 alltoall 2097152 2064210.8125
27 compute 3918238264.962
27 allreduce 4116 0
27 compute 56288.048
27 alltoall 4 256
27 compute 22858.683
27 alltoall 2097152 2064210.8125
27 compute 3924756124.141
27 allreduce 4116 0
27 compute 60973.161
27 alltoall 4 256
27 compute 21841.63
27 alltoall 2097152 2064210.8125
27 compute 3923074485.361
27 allreduce 4116 0
27 compute 55104.265
27 alltoall 4 256
27 compute 22575.242
27 alltoall 2097152 2064210.8125
27 compute 1338198822.39
27 reduce 8 0 0
27 compute 17050632112.36
27 irecv 26 0 4
27 compute 34679.84
27 send 28 0 4
27 compute 32312.274
27 wait 27 26 0
27 compute 276144811.835
27 reduce 4 0 0
27 compute 74378.253
27 finalize
27 compute 349399.388
27 compute 39098.185
