# version: 1.0
24 compute 964429660.727
24 compute 1218593139.495
24 init
24 compute 333209.905
24 compute 79513.537
24 compute 66641.981
24 bcast 4 0
24 compute 61571950570.271
24 allreduce 4116 0
24 compute 161494.678
24 alltoall 4 256
24 compute 124480.618
24 alltoall 2097152 2008233.5625
24 compute 3905283127.213
24 allreduce 4116 0
24 compute 63190.67
24 alltoall 4 256
24 compute 23592.295
24 alltoall 2097152 2008233.5625
24 compute 3932851899.367
24 allreduce 4116 0
24 compute 67508.977
24 alltoall 4 256
24 compute 25242.922
24 alltoall 2097152 2008233.5625
24 compute 3921701630.541
24 allreduce 4116 0
24 compute 47151.244
24 alltoall 4 256
24 compute 23025.413
24 alltoall 2097152 2008233.5625
24 compute 3870646620.34
24 allreduce 4116 0
24 compute 53803.771
24 alltoall 4 256
24 compute 25159.557
24 alltoall 2097152 2008233.5625
24 compute 3924107327.692
24 allreduce 4116 0
24 compute 58805.671
24 alltoall 4 256
24 compute 24576.002
24 alltoall 2097152 2008233.5625
24 compute 3916138083.863
24 allreduce 4116 0
24 compute 50936.015
24 alltoall 4 256
24 compute 22391.839
24 alltoall 2097152 2008233.5625
24 compute 3916587988.095
24 allreduce 4116 0
24 compute 50669.247
24 alltoall 4 256
24 compute 23492.257
24 alltoall 2097152 2008233.5625
24 compute 3920386114.168
24 allreduce 4116 0
24 compute 58105.405
24 alltoall 4 256
24 compute 24576.002
24 alltoall 2097152 2008233.5625
24 compute 3927034656.321
24 allreduce 4116 0
24 compute 63190.67
24 alltoall 4 256
24 compute 25676.42
24 alltoall 2097152 2008233.5625
24 compute 3927252422.374
24 allreduce 4116 0
24 compute 52836.737
24 alltoall 4 256
24 compute 23925.755
24 alltoall 2097152 2008233.5625
24 compute 1339034406.458
24 reduce 8 0 0
24 compute 16648463212.896
24 irecv 23 0 4
24 compute 40598.755
24 send 25 0 4
24 compute 36613.908
24 wait 24 23 0
24 compute 278663802.021
24 reduce 4 0 0
24 compute 46417.632
24 finalize
24 compute 325156.846
24 compute 40898.869
