# version: 1.0
36 compute 510663428.391
36 compute 7561420214.894
36 init
36 compute 520497.714
36 compute 95552.963
36 compute 46367.613
36 bcast 4 0
36 compute 112498865113.411
36 allreduce 4116 0
36 compute 176917.203
36 alltoall 4 256
36 compute 179001.328
36 alltoall 2097152 2060989.25
36 compute 7143130308.441
36 allreduce 4116 0
36 compute 86666.254
36 alltoall 4 256
36 compute 22475.204
36 alltoall 2097152 2060989.25
36 compute 7150248412.293
36 allreduce 4116 0
36 compute 82698.08
36 alltoall 4 256
36 compute 17089.825
36 alltoall 2097152 2060989.25
36 compute 7145600263.334
36 allreduce 4116 0
36 compute 66158.464
36 alltoall 4 256
36 compute 14455.491
36 alltoall 2097152 2060989.25
36 compute 7130524269.966
36 allreduce 4116 0
36 compute 67208.863
36 alltoall 4 256
36 compute 16472.924
36 alltoall 2097152 2060989.25
36 compute 7136891972.107
36 allreduce 4116 0
36 compute 66942.095
36 alltoall 4 256
36 compute 30294.841
36 alltoall 2097152 2060989.25
36 compute 7139959904.145
36 allreduce 4116 0
36 compute 72144.071
36 alltoall 4 256
36 compute 13455.111
36 alltoall 2097152 2060989.25
36 compute 7122774392.798
36 allreduce 4116 0
36 compute 89000.474
36 alltoall 4 256
36 compute 13688.533
36 alltoall 2097152 2060989.25
36 compute 7132322903.187
36 allreduce 4116 0
36 compute 74128.158
36 alltoall 4 256
36 compute 16106.118
36 alltoall 2097152 2060989.25
36 compute 7140718792.413
36 allreduce 4116 0
36 compute 72794.318
36 alltoall 4 256
36 compute 21441.478
36 alltoall 2097152 2060989.25
36 compute 7131904277.503
36 allreduce 4116 0
36 compute 91201.31
36 alltoall 4 256
36 compute 13838.59
36 alltoall 2097152 2060989.25
36 compute 2427001560.267
36 reduce 8 0 0
36 compute 31014991153.108
36 irecv 35 0 4
36 compute 43883.336
36 send 37 0 4
36 compute 41015.58
36 wait 36 35 0
36 compute 489920899.224
36 reduce 4 0 0
36 compute 74111.485
36 finalize
36 compute 607414.063
36 compute 37114.098
