# version: 1.0
7 compute 1047224177.359
7 compute 1095333885.437
7 init
7 compute 334660.456
7 compute 72410.839
7 compute 35696.893
7 bcast 4 0
7 compute 61536146219.786
7 allreduce 4116 0
7 compute 129332.461
7 alltoall 4 256
7 compute 116194.137
7 alltoall 2097152 2194256.5625
7 compute 5212981730.589
7 allreduce 4116 0
7 compute 69443.045
7 alltoall 4 256
7 compute 26526.743
7 alltoall 2097152 2194256.5625
7 compute 5266524335.717
7 allreduce 4116 0
7 compute 169247.623
7 alltoall 4 256
7 compute 24809.424
7 alltoall 2097152 2194256.5625
7 compute 5268746146.351
7 allreduce 4116 0
7 compute 148739.833
7 alltoall 4 256
7 compute 26443.378
7 alltoall 2097152 2194256.5625
7 compute 5256302853.029
7 allreduce 4116 0
7 compute 152074.433
7 alltoall 4 256
7 compute 26460.051
7 alltoall 2097152 2194256.5625
7 compute 5246214054.075
7 allreduce 4116 0
7 compute 156942.949
7 alltoall 4 256
7 compute 43266.435
7 alltoall 2097152 2194256.5625
7 compute 5275121234.631
7 allreduce 4116 0
7 compute 151524.224
7 alltoall 4 256
7 compute 26343.34
7 alltoall 2097152 2194256.5625
7 compute 5287743062.437
7 allreduce 4116 0
7 compute 167797.072
7 alltoall 4 256
7 compute 26126.591
7 alltoall 2097152 2194256.5625
7 compute 5240689638.928
7 allreduce 4116 0
7 compute 74378.253
7 alltoall 4 256
7 compute 25392.979
7 alltoall 2097152 2194256.5625
7 compute 5219551742.912
7 allreduce 4116 0
7 compute 122846.664
7 alltoall 4 256
7 compute 22508.55
7 alltoall 2097152 2194256.5625
7 compute 5225259727.789
7 allreduce 4116 0
7 compute 68776.125
7 alltoall 4 256
7 compute 25409.652
7 alltoall 2097152 2194256.5625
7 compute 2637214144.039
7 reduce 8 0 0
7 compute 18342649892.62
7 irecv 6 0 4
7 compute 34729.859
7 send 8 0 4
7 compute 36197.083
7 wait 7 6 0
7 compute 297864528.859
7 reduce 4 0 0
7 compute 71943.995
7 finalize
7 compute 359986.743
7 compute 37347.52
