12 init
12 compute 0.19716
12 compute 0.11132
12 bcast 1 0 1 
12 compute 0.02264
12 bcast 1 0 1 
12 compute 0.02246
12 bcast 1 0 1 
12 bcast 1 0 1 
12 compute 0.02246
12 bcast 1 0 16 
12 compute 0.02342
12 compute 0.02054
12 compute 236761
12 alltoall 134217728 134217728 26 26
12 compute 56652.7
12 compute 0.0616
12 barrier
12 compute 0.03988
12 compute 195639
12 alltoall 134217728 134217728 26 26
12 compute 158404
12 alltoall 134217728 134217728 26 26
12 compute 137227
12 reduce 16 0 0 26 
12 compute 81694.8
12 alltoall 134217728 134217728 26 26
12 compute 136772
12 reduce 16 0 0 26 
12 compute 81923.2
12 alltoall 134217728 134217728 26 26
12 compute 137277
12 reduce 16 0 0 26 
12 compute 82072.4
12 alltoall 134217728 134217728 26 26
12 compute 137100
12 reduce 16 0 0 26 
12 compute 82349.4
12 alltoall 134217728 134217728 26 26
12 compute 137040
12 reduce 16 0 0 26 
12 compute 81929.1
12 alltoall 134217728 134217728 26 26
12 compute 136947
12 reduce 16 0 0 26 
12 compute 82037.2
12 alltoall 134217728 134217728 26 26
12 compute 137119
12 reduce 16 0 0 26 
12 compute 82030.4
12 alltoall 134217728 134217728 26 26
12 compute 137338
12 reduce 16 0 0 26 
12 compute 81736.8
12 alltoall 134217728 134217728 26 26
12 compute 137045
12 reduce 16 0 0 26 
12 compute 82230.2
12 alltoall 134217728 134217728 26 26
12 compute 136769
12 reduce 16 0 0 26 
12 compute 81947.1
12 alltoall 134217728 134217728 26 26
12 compute 136786
12 reduce 16 0 0 26 
12 compute 81803.4
12 alltoall 134217728 134217728 26 26
12 compute 137002
12 reduce 16 0 0 26 
12 compute 82046.4
12 alltoall 134217728 134217728 26 26
12 compute 136928
12 reduce 16 0 0 26 
12 compute 82489.2
12 alltoall 134217728 134217728 26 26
12 compute 136790
12 reduce 16 0 0 26 
12 compute 84288.3
12 alltoall 134217728 134217728 26 26
12 compute 136854
12 reduce 16 0 0 26 
12 compute 88357.5
12 alltoall 134217728 134217728 26 26
12 compute 137039
12 reduce 16 0 0 26 
12 compute 131000
12 alltoall 134217728 134217728 26 26
12 compute 139971
12 reduce 16 0 0 26 
12 compute 160691
12 alltoall 134217728 134217728 26 26
12 compute 184501
12 reduce 16 0 0 26 
12 compute 159141
12 alltoall 134217728 134217728 26 26
12 compute 196719
12 reduce 16 0 0 26 
12 compute 156956
12 alltoall 134217728 134217728 26 26
12 compute 195366
12 reduce 16 0 0 26 
12 compute 154999
12 alltoall 134217728 134217728 26 26
12 compute 193605
12 reduce 16 0 0 26 
12 compute 153146
12 alltoall 134217728 134217728 26 26
12 compute 192344
12 reduce 16 0 0 26 
12 compute 151866
12 alltoall 134217728 134217728 26 26
12 compute 191286
12 reduce 16 0 0 26 
12 compute 150040
12 alltoall 134217728 134217728 26 26
12 compute 190323
12 reduce 16 0 0 26 
12 compute 148226
12 alltoall 134217728 134217728 26 26
12 compute 188685
12 reduce 16 0 0 26 
12 compute 0.11378
12 compute 0.0833
12 finalize
