1 init
1 compute 0.20062
1 compute 0.11812
1 bcast 1 0 1 
1 compute 0.02158
1 bcast 1 0 1 
1 compute 0.02104
1 bcast 1 0 1 
1 compute 0.02042
1 bcast 1 0 1 
1 compute 0.02004
1 bcast 1 0 16 
1 compute 0.02128
1 compute 0.02978
1 compute 232803
1 alltoall 134217728 134217728 26 26
1 compute 56588.5
1 compute 0.05228
1 barrier
1 compute 0.06246
1 compute 192041
1 alltoall 134217728 134217728 26 26
1 compute 158609
1 alltoall 134217728 134217728 26 26
1 compute 137882
1 reduce 16 0 0 26 
1 compute 82630.8
1 alltoall 134217728 134217728 26 26
1 compute 138070
1 reduce 16 0 0 26 
1 compute 82456.7
1 alltoall 134217728 134217728 26 26
1 compute 138039
1 reduce 16 0 0 26 
1 compute 82382.6
1 alltoall 134217728 134217728 26 26
1 compute 138271
1 reduce 16 0 0 26 
1 compute 82376.5
1 alltoall 134217728 134217728 26 26
1 compute 138084
1 reduce 16 0 0 26 
1 compute 82089.8
1 alltoall 134217728 134217728 26 26
1 compute 138418
1 reduce 16 0 0 26 
1 compute 82695.5
1 alltoall 134217728 134217728 26 26
1 compute 137757
1 reduce 16 0 0 26 
1 compute 82269.5
1 alltoall 134217728 134217728 26 26
1 compute 138013
1 reduce 16 0 0 26 
1 compute 82199.4
1 alltoall 134217728 134217728 26 26
1 compute 138101
1 reduce 16 0 0 26 
1 compute 82462.5
1 alltoall 134217728 134217728 26 26
1 compute 138108
1 reduce 16 0 0 26 
1 compute 82241.9
1 alltoall 134217728 134217728 26 26
1 compute 138288
1 reduce 16 0 0 26 
1 compute 82737.2
1 alltoall 134217728 134217728 26 26
1 compute 137791
1 reduce 16 0 0 26 
1 compute 82454.9
1 alltoall 134217728 134217728 26 26
1 compute 138042
1 reduce 16 0 0 26 
1 compute 82538.6
1 alltoall 134217728 134217728 26 26
1 compute 137867
1 reduce 16 0 0 26 
1 compute 84153.7
1 alltoall 134217728 134217728 26 26
1 compute 138064
1 reduce 16 0 0 26 
1 compute 85536.5
1 alltoall 134217728 134217728 26 26
1 compute 137552
1 reduce 16 0 0 26 
1 compute 92570.5
1 alltoall 134217728 134217728 26 26
1 compute 140969
1 reduce 16 0 0 26 
1 compute 153579
1 alltoall 134217728 134217728 26 26
1 compute 185186
1 reduce 16 0 0 26 
1 compute 157767
1 alltoall 134217728 134217728 26 26
1 compute 197478
1 reduce 16 0 0 26 
1 compute 155494
1 alltoall 134217728 134217728 26 26
1 compute 196621
1 reduce 16 0 0 26 
1 compute 153737
1 alltoall 134217728 134217728 26 26
1 compute 194805
1 reduce 16 0 0 26 
1 compute 151733
1 alltoall 134217728 134217728 26 26
1 compute 193430
1 reduce 16 0 0 26 
1 compute 149793
1 alltoall 134217728 134217728 26 26
1 compute 192598
1 reduce 16 0 0 26 
1 compute 148486
1 alltoall 134217728 134217728 26 26
1 compute 191294
1 reduce 16 0 0 26 
1 compute 147016
1 alltoall 134217728 134217728 26 26
1 compute 189981
1 reduce 16 0 0 26 
1 compute 0.06596
1 compute 0.03892
1 finalize
