9 init
9 compute 0.23288
9 compute 0.13546
9 bcast 1 0 1 
9 compute 0.02468
9 bcast 1 0 1 
9 bcast 1 0 1 
9 compute 0.02156
9 bcast 1 0 1 
9 compute 0.02034
9 bcast 1 0 16 
9 compute 0.0203
9 compute 0.02016
9 compute 236233
9 alltoall 134217728 134217728 26 26
9 compute 56551.6
9 compute 0.07316
9 barrier
9 compute 0.03924
9 compute 194898
9 alltoall 134217728 134217728 26 26
9 compute 147848
9 alltoall 134217728 134217728 26 26
9 compute 123886
9 reduce 16 0 0 26 
9 compute 77212.4
9 alltoall 134217728 134217728 26 26
9 compute 123873
9 reduce 16 0 0 26 
9 compute 77107.3
9 alltoall 134217728 134217728 26 26
9 compute 123865
9 reduce 16 0 0 26 
9 compute 77278.4
9 alltoall 134217728 134217728 26 26
9 compute 123895
9 reduce 16 0 0 26 
9 compute 77255
9 alltoall 134217728 134217728 26 26
9 compute 123950
9 reduce 16 0 0 26 
9 compute 77115.6
9 alltoall 134217728 134217728 26 26
9 compute 123926
9 reduce 16 0 0 26 
9 compute 77156.8
9 alltoall 134217728 134217728 26 26
9 compute 123934
9 reduce 16 0 0 26 
9 compute 77166.9
9 alltoall 134217728 134217728 26 26
9 compute 123884
9 reduce 16 0 0 26 
9 compute 77155.9
9 alltoall 134217728 134217728 26 26
9 compute 123886
9 reduce 16 0 0 26 
9 compute 77126.2
9 alltoall 134217728 134217728 26 26
9 compute 123884
9 reduce 16 0 0 26 
9 compute 77260
9 alltoall 134217728 134217728 26 26
9 compute 123920
9 reduce 16 0 0 26 
9 compute 77088.7
9 alltoall 134217728 134217728 26 26
9 compute 123927
9 reduce 16 0 0 26 
9 compute 78130.8
9 alltoall 134217728 134217728 26 26
9 compute 123924
9 reduce 16 0 0 26 
9 compute 80919.4
9 alltoall 134217728 134217728 26 26
9 compute 123933
9 reduce 16 0 0 26 
9 compute 106570
9 alltoall 134217728 134217728 26 26
9 compute 123917
9 reduce 16 0 0 26 
9 compute 158853
9 alltoall 134217728 134217728 26 26
9 compute 123871
9 reduce 16 0 0 26 
9 compute 156863
9 alltoall 134217728 134217728 26 26
9 compute 126922
9 reduce 16 0 0 26 
9 compute 162219
9 alltoall 134217728 134217728 26 26
9 compute 171291
9 reduce 16 0 0 26 
9 compute 160233
9 alltoall 134217728 134217728 26 26
9 compute 183486
9 reduce 16 0 0 26 
9 compute 158338
9 alltoall 134217728 134217728 26 26
9 compute 182545
9 reduce 16 0 0 26 
9 compute 156605
9 alltoall 134217728 134217728 26 26
9 compute 180677
9 reduce 16 0 0 26 
9 compute 154953
9 alltoall 134217728 134217728 26 26
9 compute 179360
9 reduce 16 0 0 26 
9 compute 153395
9 alltoall 134217728 134217728 26 26
9 compute 178730
9 reduce 16 0 0 26 
9 compute 151999
9 alltoall 134217728 134217728 26 26
9 compute 177293
9 reduce 16 0 0 26 
9 compute 150856
9 alltoall 134217728 134217728 26 26
9 compute 175794
9 reduce 16 0 0 26 
9 compute 0.12286
9 compute 0.0808
9 finalize
