14 init
14 compute 0.08332
14 compute 0.11012
14 bcast 1 0 1 
14 compute 0.02236
14 bcast 1 0 1 
14 bcast 1 0 1 
14 bcast 1 0 1 
14 bcast 1 0 16 
14 compute 234941
14 alltoall 134217728 134217728 26 26
14 compute 56550.3
14 compute 0.06884
14 barrier
14 compute 0.03548
14 compute 194792
14 alltoall 134217728 134217728 26 26
14 compute 148536
14 alltoall 134217728 134217728 26 26
14 compute 124172
14 reduce 16 0 0 26 
14 compute 77629.3
14 alltoall 134217728 134217728 26 26
14 compute 124157
14 reduce 16 0 0 26 
14 compute 77559.1
14 alltoall 134217728 134217728 26 26
14 compute 124184
14 reduce 16 0 0 26 
14 compute 77630.8
14 alltoall 134217728 134217728 26 26
14 compute 124207
14 reduce 16 0 0 26 
14 compute 77557.3
14 alltoall 134217728 134217728 26 26
14 compute 124165
14 reduce 16 0 0 26 
14 compute 77418.2
14 alltoall 134217728 134217728 26 26
14 compute 124180
14 reduce 16 0 0 26 
14 compute 77587.8
14 alltoall 134217728 134217728 26 26
14 compute 124216
14 reduce 16 0 0 26 
14 compute 77620.8
14 alltoall 134217728 134217728 26 26
14 compute 124176
14 reduce 16 0 0 26 
14 compute 77687.9
14 alltoall 134217728 134217728 26 26
14 compute 124220
14 reduce 16 0 0 26 
14 compute 77571.5
14 alltoall 134217728 134217728 26 26
14 compute 124165
14 reduce 16 0 0 26 
14 compute 77548.8
14 alltoall 134217728 134217728 26 26
14 compute 124215
14 reduce 16 0 0 26 
14 compute 77514.4
14 alltoall 134217728 134217728 26 26
14 compute 124205
14 reduce 16 0 0 26 
14 compute 77553.3
14 alltoall 134217728 134217728 26 26
14 compute 124180
14 reduce 16 0 0 26 
14 compute 77618.7
14 alltoall 134217728 134217728 26 26
14 compute 124231
14 reduce 16 0 0 26 
14 compute 79098.2
14 alltoall 134217728 134217728 26 26
14 compute 124173
14 reduce 16 0 0 26 
14 compute 80838.4
14 alltoall 134217728 134217728 26 26
14 compute 124244
14 reduce 16 0 0 26 
14 compute 87629.1
14 alltoall 134217728 134217728 26 26
14 compute 127236
14 reduce 16 0 0 26 
14 compute 149216
14 alltoall 134217728 134217728 26 26
14 compute 171710
14 reduce 16 0 0 26 
14 compute 153180
14 alltoall 134217728 134217728 26 26
14 compute 183902
14 reduce 16 0 0 26 
14 compute 150932
14 alltoall 134217728 134217728 26 26
14 compute 182851
14 reduce 16 0 0 26 
14 compute 148944
14 alltoall 134217728 134217728 26 26
14 compute 181024
14 reduce 16 0 0 26 
14 compute 147173
14 alltoall 134217728 134217728 26 26
14 compute 179723
14 reduce 16 0 0 26 
14 compute 145339
14 alltoall 134217728 134217728 26 26
14 compute 179050
14 reduce 16 0 0 26 
14 compute 143785
14 alltoall 134217728 134217728 26 26
14 compute 177618
14 reduce 16 0 0 26 
14 compute 142326
14 alltoall 134217728 134217728 26 26
14 compute 176118
14 reduce 16 0 0 26 
14 compute 0.05698
14 compute 0.03882
14 finalize
