2 init
2 compute 0.10398
2 compute 0.12412
2 bcast 1 0 1 
2 bcast 1 0 1 
2 bcast 1 0 1 
2 bcast 1 0 1 
2 bcast 1 0 16 
2 compute 0.02244
2 compute 233223
2 alltoall 134217728 134217728 26 26
2 compute 56520.6
2 compute 0.1337
2 barrier
2 compute 0.036
2 compute 192241
2 alltoall 134217728 134217728 26 26
2 compute 158629
2 alltoall 134217728 134217728 26 26
2 compute 138533
2 reduce 16 0 0 26 
2 compute 81725.7
2 alltoall 134217728 134217728 26 26
2 compute 138350
2 reduce 16 0 0 26 
2 compute 81682.9
2 alltoall 134217728 134217728 26 26
2 compute 138195
2 reduce 16 0 0 26 
2 compute 81480.4
2 alltoall 134217728 134217728 26 26
2 compute 138057
2 reduce 16 0 0 26 
2 compute 81718.8
2 alltoall 134217728 134217728 26 26
2 compute 138135
2 reduce 16 0 0 26 
2 compute 81483.5
2 alltoall 134217728 134217728 26 26
2 compute 138067
2 reduce 16 0 0 26 
2 compute 81738.5
2 alltoall 134217728 134217728 26 26
2 compute 138569
2 reduce 16 0 0 26 
2 compute 81540.6
2 alltoall 134217728 134217728 26 26
2 compute 137692
2 reduce 16 0 0 26 
2 compute 81288.5
2 alltoall 134217728 134217728 26 26
2 compute 138208
2 reduce 16 0 0 26 
2 compute 81659
2 alltoall 134217728 134217728 26 26
2 compute 138394
2 reduce 16 0 0 26 
2 compute 81574.4
2 alltoall 134217728 134217728 26 26
2 compute 137913
2 reduce 16 0 0 26 
2 compute 81425.4
2 alltoall 134217728 134217728 26 26
2 compute 138235
2 reduce 16 0 0 26 
2 compute 81700.7
2 alltoall 134217728 134217728 26 26
2 compute 138167
2 reduce 16 0 0 26 
2 compute 81657.1
2 alltoall 134217728 134217728 26 26
2 compute 138341
2 reduce 16 0 0 26 
2 compute 83289.3
2 alltoall 134217728 134217728 26 26
2 compute 138705
2 reduce 16 0 0 26 
2 compute 85439.4
2 alltoall 134217728 134217728 26 26
2 compute 138046
2 reduce 16 0 0 26 
2 compute 102026
2 alltoall 134217728 134217728 26 26
2 compute 140854
2 reduce 16 0 0 26 
2 compute 158078
2 alltoall 134217728 134217728 26 26
2 compute 185569
2 reduce 16 0 0 26 
2 compute 157882
2 alltoall 134217728 134217728 26 26
2 compute 197502
2 reduce 16 0 0 26 
2 compute 155353
2 alltoall 134217728 134217728 26 26
2 compute 196733
2 reduce 16 0 0 26 
2 compute 153374
2 alltoall 134217728 134217728 26 26
2 compute 194635
2 reduce 16 0 0 26 
2 compute 151613
2 alltoall 134217728 134217728 26 26
2 compute 193368
2 reduce 16 0 0 26 
2 compute 150277
2 alltoall 134217728 134217728 26 26
2 compute 192685
2 reduce 16 0 0 26 
2 compute 148523
2 alltoall 134217728 134217728 26 26
2 compute 191409
2 reduce 16 0 0 26 
2 compute 147310
2 alltoall 134217728 134217728 26 26
2 compute 189855
2 reduce 16 0 0 26 
2 compute 0.05844
2 compute 0.03832
2 finalize
