101 init
101 compute 0.11876
101 compute 0.1957
101 bcast 1 0 1 
101 compute 0.04342
101 bcast 1 0 1 
101 compute 0.0452
101 bcast 1 0 1 
101 compute 0.04328
101 bcast 1 0 1 
101 compute 0.04958
101 bcast 1 0 16 
101 compute 0.0543
101 compute 0.0444
101 compute 1793.92
101 alltoall 131072 131072 26 26
101 compute 618.986
101 compute 0.04154
101 barrier
101 compute 0.02796
101 compute 1568.39
101 alltoall 131072 131072 26 26
101 compute 1349.26
101 alltoall 131072 131072 26 26
101 compute 1018.85
101 reduce 16 0 0 26 
101 compute 660.044
101 alltoall 131072 131072 26 26
101 compute 1011.48
101 reduce 16 0 0 26 
101 compute 646.697
101 alltoall 131072 131072 26 26
101 compute 1009.4
101 reduce 16 0 0 26 
101 compute 753.377
101 alltoall 131072 131072 26 26
101 compute 1007.33
101 reduce 16 0 0 26 
101 compute 644.659
101 alltoall 131072 131072 26 26
101 compute 1013.51
101 reduce 16 0 0 26 
101 compute 659.048
101 alltoall 131072 131072 26 26
101 compute 1009.86
101 reduce 16 0 0 26 
101 compute 648.575
101 alltoall 131072 131072 26 26
101 compute 1014.29
101 reduce 16 0 0 26 
101 compute 696.701
101 alltoall 131072 131072 26 26
101 compute 1037.2
101 reduce 16 0 0 26 
101 compute 680.444
101 alltoall 131072 131072 26 26
101 compute 1014.09
101 reduce 16 0 0 26 
101 compute 650.421
101 alltoall 131072 131072 26 26
101 compute 1015.28
101 reduce 16 0 0 26 
101 compute 648.534
101 alltoall 131072 131072 26 26
101 compute 1029.7
101 reduce 16 0 0 26 
101 compute 655.093
101 alltoall 131072 131072 26 26
101 compute 1005.77
101 reduce 16 0 0 26 
101 compute 648.098
101 alltoall 131072 131072 26 26
101 compute 1005.36
101 reduce 16 0 0 26 
101 compute 662.92
101 alltoall 131072 131072 26 26
101 compute 999.127
101 reduce 16 0 0 26 
101 compute 670.309
101 alltoall 131072 131072 26 26
101 compute 1336.71
101 reduce 16 0 0 26 
101 compute 654.327
101 alltoall 131072 131072 26 26
101 compute 1012.09
101 reduce 16 0 0 26 
101 compute 665.575
101 alltoall 131072 131072 26 26
101 compute 1034.05
101 reduce 16 0 0 26 
101 compute 662.432
101 alltoall 131072 131072 26 26
101 compute 1007.39
101 reduce 16 0 0 26 
101 compute 661.583
101 alltoall 131072 131072 26 26
101 compute 1049.32
101 reduce 16 0 0 26 
101 compute 656.235
101 alltoall 131072 131072 26 26
101 compute 1008.88
101 reduce 16 0 0 26 
101 compute 0.04642
101 compute 0.03636
101 finalize
