102 init
102 compute 0.14262
102 compute 0.16566
102 bcast 1 0 1 
102 compute 0.0427
102 bcast 1 0 1 
102 compute 0.04154
102 bcast 1 0 1 
102 compute 0.04418
102 bcast 1 0 1 
102 compute 0.04552
102 bcast 1 0 16 
102 compute 0.05208
102 compute 0.04272
102 compute 1753.71
102 alltoall 131072 131072 26 26
102 compute 588.823
102 compute 0.0446
102 barrier
102 compute 0.0227
102 compute 1548.51
102 alltoall 131072 131072 26 26
102 compute 1451.94
102 alltoall 131072 131072 26 26
102 compute 971.8
102 reduce 16 0 0 26 
102 compute 647.714
102 alltoall 131072 131072 26 26
102 compute 984.16
102 reduce 16 0 0 26 
102 compute 646.001
102 alltoall 131072 131072 26 26
102 compute 984.939
102 reduce 16 0 0 26 
102 compute 636.237
102 alltoall 131072 131072 26 26
102 compute 983.153
102 reduce 16 0 0 26 
102 compute 644.74
102 alltoall 131072 131072 26 26
102 compute 991.127
102 reduce 16 0 0 26 
102 compute 645.772
102 alltoall 131072 131072 26 26
102 compute 981.4
102 reduce 16 0 0 26 
102 compute 642.646
102 alltoall 131072 131072 26 26
102 compute 1048.12
102 reduce 16 0 0 26 
102 compute 650.603
102 alltoall 131072 131072 26 26
102 compute 1008.63
102 reduce 16 0 0 26 
102 compute 647.403
102 alltoall 131072 131072 26 26
102 compute 992.574
102 reduce 16 0 0 26 
102 compute 675.166
102 alltoall 131072 131072 26 26
102 compute 1002.01
102 reduce 16 0 0 26 
102 compute 644.878
102 alltoall 131072 131072 26 26
102 compute 986.725
102 reduce 16 0 0 26 
102 compute 865.159
102 alltoall 131072 131072 26 26
102 compute 980.019
102 reduce 16 0 0 26 
102 compute 637.091
102 alltoall 131072 131072 26 26
102 compute 984.872
102 reduce 16 0 0 26 
102 compute 645.759
102 alltoall 131072 131072 26 26
102 compute 970.526
102 reduce 16 0 0 26 
102 compute 637.142
102 alltoall 131072 131072 26 26
102 compute 1365.85
102 reduce 16 0 0 26 
102 compute 684.806
102 alltoall 131072 131072 26 26
102 compute 982.748
102 reduce 16 0 0 26 
102 compute 668.023
102 alltoall 131072 131072 26 26
102 compute 995
102 reduce 16 0 0 26 
102 compute 642.924
102 alltoall 131072 131072 26 26
102 compute 1002.45
102 reduce 16 0 0 26 
102 compute 850.924
102 alltoall 131072 131072 26 26
102 compute 1372.66
102 reduce 16 0 0 26 
102 compute 650.196
102 alltoall 131072 131072 26 26
102 compute 981.642
102 reduce 16 0 0 26 
102 compute 0.0641
102 compute 0.0355
102 finalize
