30 init
30 compute 0.11516
30 compute 0.19318
30 bcast 1 0 1 
30 compute 0.04356
30 bcast 1 0 1 
30 compute 0.03552
30 bcast 1 0 1 
30 compute 0.03174
30 bcast 1 0 1 
30 compute 0.0473
30 bcast 1 0 16 
30 compute 0.05484
30 compute 0.04428
30 compute 2206.18
30 alltoall 131072 131072 26 26
30 compute 611.008
30 compute 0.05322
30 barrier
30 compute 0.0269
30 compute 1586.05
30 alltoall 131072 131072 26 26
30 compute 1376.79
30 alltoall 131072 131072 26 26
30 compute 1018.92
30 reduce 16 0 0 26 
30 compute 662.406
30 alltoall 131072 131072 26 26
30 compute 1028.27
30 reduce 16 0 0 26 
30 compute 665.129
30 alltoall 131072 131072 26 26
30 compute 1010.05
30 reduce 16 0 0 26 
30 compute 672.516
30 alltoall 131072 131072 26 26
30 compute 1008.07
30 reduce 16 0 0 26 
30 compute 660.003
30 alltoall 131072 131072 26 26
30 compute 1034.32
30 reduce 16 0 0 26 
30 compute 660.487
30 alltoall 131072 131072 26 26
30 compute 1024.01
30 reduce 16 0 0 26 
30 compute 673.966
30 alltoall 131072 131072 26 26
30 compute 1025.99
30 reduce 16 0 0 26 
30 compute 665.222
30 alltoall 131072 131072 26 26
30 compute 1025.28
30 reduce 16 0 0 26 
30 compute 668.024
30 alltoall 131072 131072 26 26
30 compute 1017.17
30 reduce 16 0 0 26 
30 compute 688.92
30 alltoall 131072 131072 26 26
30 compute 1017.01
30 reduce 16 0 0 26 
30 compute 661.58
30 alltoall 131072 131072 26 26
30 compute 1027.72
30 reduce 16 0 0 26 
30 compute 658.531
30 alltoall 131072 131072 26 26
30 compute 1025.48
30 reduce 16 0 0 26 
30 compute 663.682
30 alltoall 131072 131072 26 26
30 compute 1025.72
30 reduce 16 0 0 26 
30 compute 671.94
30 alltoall 131072 131072 26 26
30 compute 1025.94
30 reduce 16 0 0 26 
30 compute 685.368
30 alltoall 131072 131072 26 26
30 compute 1033.08
30 reduce 16 0 0 26 
30 compute 662.523
30 alltoall 131072 131072 26 26
30 compute 1017.37
30 reduce 16 0 0 26 
30 compute 675.036
30 alltoall 131072 131072 26 26
30 compute 1027.82
30 reduce 16 0 0 26 
30 compute 665.985
30 alltoall 131072 131072 26 26
30 compute 1012.21
30 reduce 16 0 0 26 
30 compute 664.864
30 alltoall 131072 131072 26 26
30 compute 1025.59
30 reduce 16 0 0 26 
30 compute 698.369
30 alltoall 131072 131072 26 26
30 compute 1026.25
30 reduce 16 0 0 26 
30 compute 0.054
30 compute 0.02988
30 finalize
