77 init
77 compute 0.11738
77 compute 0.15914
77 bcast 1 0 1 
77 compute 0.0694
77 bcast 1 0 1 
77 compute 0.05612
77 bcast 1 0 1 
77 compute 0.055
77 bcast 1 0 1 
77 compute 0.07898
77 bcast 1 0 16 
77 compute 0.08366
77 compute 0.05042
77 compute 1743.64
77 alltoall 131072 131072 26 26
77 compute 734.768
77 compute 0.04736
77 barrier
77 compute 0.02602
77 compute 1512.93
77 alltoall 131072 131072 26 26
77 compute 1336.3
77 alltoall 131072 131072 26 26
77 compute 979.101
77 reduce 16 0 0 26 
77 compute 639.278
77 alltoall 131072 131072 26 26
77 compute 984.102
77 reduce 16 0 0 26 
77 compute 644.353
77 alltoall 131072 131072 26 26
77 compute 980.032
77 reduce 16 0 0 26 
77 compute 865.127
77 alltoall 131072 131072 26 26
77 compute 976.003
77 reduce 16 0 0 26 
77 compute 642.507
77 alltoall 131072 131072 26 26
77 compute 975.481
77 reduce 16 0 0 26 
77 compute 642.243
77 alltoall 131072 131072 26 26
77 compute 969.732
77 reduce 16 0 0 26 
77 compute 633.736
77 alltoall 131072 131072 26 26
77 compute 982.914
77 reduce 16 0 0 26 
77 compute 695.627
77 alltoall 131072 131072 26 26
77 compute 992.29
77 reduce 16 0 0 26 
77 compute 647.327
77 alltoall 131072 131072 26 26
77 compute 995.583
77 reduce 16 0 0 26 
77 compute 633.874
77 alltoall 131072 131072 26 26
77 compute 1004.65
77 reduce 16 0 0 26 
77 compute 664.655
77 alltoall 131072 131072 26 26
77 compute 979.774
77 reduce 16 0 0 26 
77 compute 649.682
77 alltoall 131072 131072 26 26
77 compute 992.553
77 reduce 16 0 0 26 
77 compute 648.652
77 alltoall 131072 131072 26 26
77 compute 975.496
77 reduce 16 0 0 26 
77 compute 668.85
77 alltoall 131072 131072 26 26
77 compute 974.63
77 reduce 16 0 0 26 
77 compute 644.07
77 alltoall 131072 131072 26 26
77 compute 1026.35
77 reduce 16 0 0 26 
77 compute 622.324
77 alltoall 131072 131072 26 26
77 compute 987.22
77 reduce 16 0 0 26 
77 compute 643.15
77 alltoall 131072 131072 26 26
77 compute 995.759
77 reduce 16 0 0 26 
77 compute 636.402
77 alltoall 131072 131072 26 26
77 compute 973.464
77 reduce 16 0 0 26 
77 compute 637.027
77 alltoall 131072 131072 26 26
77 compute 979.697
77 reduce 16 0 0 26 
77 compute 648.368
77 alltoall 131072 131072 26 26
77 compute 957.528
77 reduce 16 0 0 26 
77 compute 0.04956
77 compute 0.03058
77 finalize
