115 init
115 compute 0.09294
115 compute 0.19336
115 bcast 1 0 1 
115 compute 0.04706
115 bcast 1 0 1 
115 compute 0.04092
115 bcast 1 0 1 
115 compute 0.04584
115 bcast 1 0 1 
115 compute 0.04006
115 bcast 1 0 16 
115 compute 0.04386
115 compute 0.06226
115 compute 1758.31
115 alltoall 131072 131072 26 26
115 compute 613.223
115 compute 0.03962
115 barrier
115 compute 0.02978
115 compute 1513.52
115 alltoall 131072 131072 26 26
115 compute 1343.94
115 alltoall 131072 131072 26 26
115 compute 982.942
115 reduce 16 0 0 26 
115 compute 647.768
115 alltoall 131072 131072 26 26
115 compute 1235.2
115 reduce 16 0 0 26 
115 compute 631.862
115 alltoall 131072 131072 26 26
115 compute 987.881
115 reduce 16 0 0 26 
115 compute 651.546
115 alltoall 131072 131072 26 26
115 compute 1002.76
115 reduce 16 0 0 26 
115 compute 642.072
115 alltoall 131072 131072 26 26
115 compute 1009.7
115 reduce 16 0 0 26 
115 compute 661.258
115 alltoall 131072 131072 26 26
115 compute 1082.93
115 reduce 16 0 0 26 
115 compute 647.753
115 alltoall 131072 131072 26 26
115 compute 989.679
115 reduce 16 0 0 26 
115 compute 635.356
115 alltoall 131072 131072 26 26
115 compute 988.389
115 reduce 16 0 0 26 
115 compute 651.174
115 alltoall 131072 131072 26 26
115 compute 1000.74
115 reduce 16 0 0 26 
115 compute 645.63
115 alltoall 131072 131072 26 26
115 compute 989.395
115 reduce 16 0 0 26 
115 compute 638.616
115 alltoall 131072 131072 26 26
115 compute 991.306
115 reduce 16 0 0 26 
115 compute 862.243
115 alltoall 131072 131072 26 26
115 compute 1005.74
115 reduce 16 0 0 26 
115 compute 640.962
115 alltoall 131072 131072 26 26
115 compute 983.693
115 reduce 16 0 0 26 
115 compute 661.265
115 alltoall 131072 131072 26 26
115 compute 995.212
115 reduce 16 0 0 26 
115 compute 637.911
115 alltoall 131072 131072 26 26
115 compute 1050.76
115 reduce 16 0 0 26 
115 compute 643.239
115 alltoall 131072 131072 26 26
115 compute 997.344
115 reduce 16 0 0 26 
115 compute 650.645
115 alltoall 131072 131072 26 26
115 compute 1001.11
115 reduce 16 0 0 26 
115 compute 657.145
115 alltoall 131072 131072 26 26
115 compute 991.022
115 reduce 16 0 0 26 
115 compute 640.542
115 alltoall 131072 131072 26 26
115 compute 1006.75
115 reduce 16 0 0 26 
115 compute 636.998
115 alltoall 131072 131072 26 26
115 compute 992.983
115 reduce 16 0 0 26 
115 compute 0.05076
115 compute 0.03262
115 finalize
