69 init
69 compute 0.13002
69 compute 0.34098
69 bcast 1 0 1 
69 compute 0.06988
69 bcast 1 0 1 
69 compute 0.0555
69 bcast 1 0 1 
69 compute 0.05314
69 bcast 1 0 1 
69 compute 0.04418
69 bcast 1 0 16 
69 compute 0.0748
69 compute 0.05204
69 compute 1788.2
69 alltoall 131072 131072 26 26
69 compute 615.967
69 compute 0.05164
69 barrier
69 compute 0.02632
69 compute 1561.43
69 alltoall 131072 131072 26 26
69 compute 1354.68
69 alltoall 131072 131072 26 26
69 compute 1007.74
69 reduce 16 0 0 26 
69 compute 659.811
69 alltoall 131072 131072 26 26
69 compute 987.087
69 reduce 16 0 0 26 
69 compute 662.268
69 alltoall 131072 131072 26 26
69 compute 1010.2
69 reduce 16 0 0 26 
69 compute 884.479
69 alltoall 131072 131072 26 26
69 compute 1007.51
69 reduce 16 0 0 26 
69 compute 649.341
69 alltoall 131072 131072 26 26
69 compute 1022.48
69 reduce 16 0 0 26 
69 compute 651.727
69 alltoall 131072 131072 26 26
69 compute 1012.9
69 reduce 16 0 0 26 
69 compute 654.879
69 alltoall 131072 131072 26 26
69 compute 1020.58
69 reduce 16 0 0 26 
69 compute 653.889
69 alltoall 131072 131072 26 26
69 compute 1023.53
69 reduce 16 0 0 26 
69 compute 647.626
69 alltoall 131072 131072 26 26
69 compute 1001.04
69 reduce 16 0 0 26 
69 compute 663.117
69 alltoall 131072 131072 26 26
69 compute 1043.4
69 reduce 16 0 0 26 
69 compute 656.839
69 alltoall 131072 131072 26 26
69 compute 1021.78
69 reduce 16 0 0 26 
69 compute 653.354
69 alltoall 131072 131072 26 26
69 compute 1011
69 reduce 16 0 0 26 
69 compute 660.593
69 alltoall 131072 131072 26 26
69 compute 1014.66
69 reduce 16 0 0 26 
69 compute 651.084
69 alltoall 131072 131072 26 26
69 compute 1000.08
69 reduce 16 0 0 26 
69 compute 666.238
69 alltoall 131072 131072 26 26
69 compute 1010.9
69 reduce 16 0 0 26 
69 compute 659.433
69 alltoall 131072 131072 26 26
69 compute 1376.06
69 reduce 16 0 0 26 
69 compute 659.599
69 alltoall 131072 131072 26 26
69 compute 1017.26
69 reduce 16 0 0 26 
69 compute 660.913
69 alltoall 131072 131072 26 26
69 compute 1011.19
69 reduce 16 0 0 26 
69 compute 652.297
69 alltoall 131072 131072 26 26
69 compute 1011.06
69 reduce 16 0 0 26 
69 compute 653.569
69 alltoall 131072 131072 26 26
69 compute 1038.37
69 reduce 16 0 0 26 
69 compute 0.06016
69 compute 0.0339
69 finalize
