113 init
113 compute 0.11644
113 compute 0.15548
113 bcast 1 0 1 
113 compute 0.06434
113 bcast 1 0 1 
113 compute 0.03926
113 bcast 1 0 1 
113 compute 0.04174
113 bcast 1 0 1 
113 compute 0.0409
113 bcast 1 0 16 
113 compute 0.03814
113 compute 0.04942
113 compute 1773.64
113 alltoall 131072 131072 26 26
113 compute 607.553
113 compute 0.04442
113 barrier
113 compute 0.02818
113 compute 1531.92
113 alltoall 131072 131072 26 26
113 compute 1439.6
113 alltoall 131072 131072 26 26
113 compute 1010.97
113 reduce 16 0 0 26 
113 compute 647.081
113 alltoall 131072 131072 26 26
113 compute 996.666
113 reduce 16 0 0 26 
113 compute 662.974
113 alltoall 131072 131072 26 26
113 compute 1013.43
113 reduce 16 0 0 26 
113 compute 694.717
113 alltoall 131072 131072 26 26
113 compute 1009.35
113 reduce 16 0 0 26 
113 compute 647.947
113 alltoall 131072 131072 26 26
113 compute 997.867
113 reduce 16 0 0 26 
113 compute 650.231
113 alltoall 131072 131072 26 26
113 compute 1004.84
113 reduce 16 0 0 26 
113 compute 651.618
113 alltoall 131072 131072 26 26
113 compute 1013.91
113 reduce 16 0 0 26 
113 compute 664.313
113 alltoall 131072 131072 26 26
113 compute 1024.27
113 reduce 16 0 0 26 
113 compute 659.724
113 alltoall 131072 131072 26 26
113 compute 1003.14
113 reduce 16 0 0 26 
113 compute 655.101
113 alltoall 131072 131072 26 26
113 compute 1026.11
113 reduce 16 0 0 26 
113 compute 648.911
113 alltoall 131072 131072 26 26
113 compute 1142.45
113 reduce 16 0 0 26 
113 compute 672.686
113 alltoall 131072 131072 26 26
113 compute 1032.87
113 reduce 16 0 0 26 
113 compute 666.833
113 alltoall 131072 131072 26 26
113 compute 1003.41
113 reduce 16 0 0 26 
113 compute 656.58
113 alltoall 131072 131072 26 26
113 compute 998.449
113 reduce 16 0 0 26 
113 compute 665.297
113 alltoall 131072 131072 26 26
113 compute 1001.5
113 reduce 16 0 0 26 
113 compute 657.164
113 alltoall 131072 131072 26 26
113 compute 1010.24
113 reduce 16 0 0 26 
113 compute 646.449
113 alltoall 131072 131072 26 26
113 compute 1009.85
113 reduce 16 0 0 26 
113 compute 665.115
113 alltoall 131072 131072 26 26
113 compute 1020.53
113 reduce 16 0 0 26 
113 compute 880.845
113 alltoall 131072 131072 26 26
113 compute 1007.72
113 reduce 16 0 0 26 
113 compute 653.715
113 alltoall 131072 131072 26 26
113 compute 1329.81
113 reduce 16 0 0 26 
113 compute 0.05554
113 compute 0.03068
113 finalize
