26 init
26 compute 0.1267
26 compute 0.17992
26 bcast 1 0 1 
26 compute 0.05396
26 bcast 1 0 1 
26 compute 0.05052
26 bcast 1 0 1 
26 compute 0.03312
26 bcast 1 0 1 
26 compute 0.05386
26 bcast 1 0 16 
26 compute 0.05476
26 compute 0.04712
26 compute 1904.4
26 alltoall 131072 131072 26 26
26 compute 613.299
26 compute 0.05904
26 barrier
26 compute 0.02692
26 compute 1547.45
26 alltoall 131072 131072 26 26
26 compute 1347.21
26 alltoall 131072 131072 26 26
26 compute 1006.25
26 reduce 16 0 0 26 
26 compute 659.168
26 alltoall 131072 131072 26 26
26 compute 1364.95
26 reduce 16 0 0 26 
26 compute 667.322
26 alltoall 131072 131072 26 26
26 compute 1004.83
26 reduce 16 0 0 26 
26 compute 657.37
26 alltoall 131072 131072 26 26
26 compute 992.76
26 reduce 16 0 0 26 
26 compute 661.098
26 alltoall 131072 131072 26 26
26 compute 996.7
26 reduce 16 0 0 26 
26 compute 661.686
26 alltoall 131072 131072 26 26
26 compute 1000.69
26 reduce 16 0 0 26 
26 compute 656.032
26 alltoall 131072 131072 26 26
26 compute 991.06
26 reduce 16 0 0 26 
26 compute 667.286
26 alltoall 131072 131072 26 26
26 compute 1029.26
26 reduce 16 0 0 26 
26 compute 725.023
26 alltoall 131072 131072 26 26
26 compute 993.542
26 reduce 16 0 0 26 
26 compute 668.635
26 alltoall 131072 131072 26 26
26 compute 1002.93
26 reduce 16 0 0 26 
26 compute 657.778
26 alltoall 131072 131072 26 26
26 compute 1005.62
26 reduce 16 0 0 26 
26 compute 673.451
26 alltoall 131072 131072 26 26
26 compute 996.373
26 reduce 16 0 0 26 
26 compute 661.814
26 alltoall 131072 131072 26 26
26 compute 1004.68
26 reduce 16 0 0 26 
26 compute 661.044
26 alltoall 131072 131072 26 26
26 compute 992.559
26 reduce 16 0 0 26 
26 compute 669.586
26 alltoall 131072 131072 26 26
26 compute 1008.16
26 reduce 16 0 0 26 
26 compute 666.827
26 alltoall 131072 131072 26 26
26 compute 988.779
26 reduce 16 0 0 26 
26 compute 668.856
26 alltoall 131072 131072 26 26
26 compute 993.391
26 reduce 16 0 0 26 
26 compute 663.696
26 alltoall 131072 131072 26 26
26 compute 992.296
26 reduce 16 0 0 26 
26 compute 652.371
26 alltoall 131072 131072 26 26
26 compute 1013.23
26 reduce 16 0 0 26 
26 compute 660.405
26 alltoall 131072 131072 26 26
26 compute 1005.82
26 reduce 16 0 0 26 
26 compute 0.05068
26 compute 0.03324
26 finalize
