53 init
53 compute 0.09712
53 compute 0.1923
53 bcast 1 0 1 
53 compute 0.04286
53 bcast 1 0 1 
53 compute 0.04082
53 bcast 1 0 1 
53 compute 0.0427
53 bcast 1 0 1 
53 compute 0.0475
53 bcast 1 0 16 
53 compute 0.05102
53 compute 0.04862
53 compute 1750.29
53 alltoall 131072 131072 26 26
53 compute 598.857
53 compute 0.04946
53 barrier
53 compute 0.02846
53 compute 1528.71
53 alltoall 131072 131072 26 26
53 compute 1323.25
53 alltoall 131072 131072 26 26
53 compute 994.875
53 reduce 16 0 0 26 
53 compute 651.693
53 alltoall 131072 131072 26 26
53 compute 982.762
53 reduce 16 0 0 26 
53 compute 652.169
53 alltoall 131072 131072 26 26
53 compute 983.007
53 reduce 16 0 0 26 
53 compute 643.369
53 alltoall 131072 131072 26 26
53 compute 972.834
53 reduce 16 0 0 26 
53 compute 642.224
53 alltoall 131072 131072 26 26
53 compute 975.03
53 reduce 16 0 0 26 
53 compute 646.296
53 alltoall 131072 131072 26 26
53 compute 1343.16
53 reduce 16 0 0 26 
53 compute 646.295
53 alltoall 131072 131072 26 26
53 compute 975.105
53 reduce 16 0 0 26 
53 compute 642.223
53 alltoall 131072 131072 26 26
53 compute 958.477
53 reduce 16 0 0 26 
53 compute 649.796
53 alltoall 131072 131072 26 26
53 compute 988.06
53 reduce 16 0 0 26 
53 compute 634.508
53 alltoall 131072 131072 26 26
53 compute 998.263
53 reduce 16 0 0 26 
53 compute 648.753
53 alltoall 131072 131072 26 26
53 compute 992.501
53 reduce 16 0 0 26 
53 compute 659.342
53 alltoall 131072 131072 26 26
53 compute 975.613
53 reduce 16 0 0 26 
53 compute 643.59
53 alltoall 131072 131072 26 26
53 compute 972.241
53 reduce 16 0 0 26 
53 compute 853.221
53 alltoall 131072 131072 26 26
53 compute 978.801
53 reduce 16 0 0 26 
53 compute 646.967
53 alltoall 131072 131072 26 26
53 compute 993.544
53 reduce 16 0 0 26 
53 compute 640.696
53 alltoall 131072 131072 26 26
53 compute 981.971
53 reduce 16 0 0 26 
53 compute 642.595
53 alltoall 131072 131072 26 26
53 compute 970.881
53 reduce 16 0 0 26 
53 compute 641.229
53 alltoall 131072 131072 26 26
53 compute 985.276
53 reduce 16 0 0 26 
53 compute 655.773
53 alltoall 131072 131072 26 26
53 compute 979.975
53 reduce 16 0 0 26 
53 compute 646.431
53 alltoall 131072 131072 26 26
53 compute 980.653
53 reduce 16 0 0 26 
53 compute 0.0518
53 compute 0.03076
53 finalize
