88 init
88 compute 0.42688
88 compute 0.24874
88 bcast 1 0 1 
88 compute 0.0447
88 bcast 1 0 1 
88 compute 0.0478
88 bcast 1 0 1 
88 compute 0.04182
88 bcast 1 0 1 
88 compute 0.0453
88 bcast 1 0 16 
88 compute 0.05246
88 compute 0.04712
88 compute 1788.7
88 alltoall 131072 131072 26 26
88 compute 613.154
88 compute 0.04314
88 barrier
88 compute 0.03068
88 compute 1546.19
88 alltoall 131072 131072 26 26
88 compute 1369.74
88 alltoall 131072 131072 26 26
88 compute 999.908
88 reduce 16 0 0 26 
88 compute 669.632
88 alltoall 131072 131072 26 26
88 compute 1006.05
88 reduce 16 0 0 26 
88 compute 646.949
88 alltoall 131072 131072 26 26
88 compute 1008.39
88 reduce 16 0 0 26 
88 compute 659.017
88 alltoall 131072 131072 26 26
88 compute 1010.06
88 reduce 16 0 0 26 
88 compute 640.812
88 alltoall 131072 131072 26 26
88 compute 1009.68
88 reduce 16 0 0 26 
88 compute 649.622
88 alltoall 131072 131072 26 26
88 compute 1362.7
88 reduce 16 0 0 26 
88 compute 656.176
88 alltoall 131072 131072 26 26
88 compute 1017.82
88 reduce 16 0 0 26 
88 compute 644.83
88 alltoall 131072 131072 26 26
88 compute 1015.75
88 reduce 16 0 0 26 
88 compute 652.284
88 alltoall 131072 131072 26 26
88 compute 1000.3
88 reduce 16 0 0 26 
88 compute 650.734
88 alltoall 131072 131072 26 26
88 compute 1013.78
88 reduce 16 0 0 26 
88 compute 654.459
88 alltoall 131072 131072 26 26
88 compute 1003.91
88 reduce 16 0 0 26 
88 compute 650.898
88 alltoall 131072 131072 26 26
88 compute 1019.67
88 reduce 16 0 0 26 
88 compute 649.346
88 alltoall 131072 131072 26 26
88 compute 1003.04
88 reduce 16 0 0 26 
88 compute 659.761
88 alltoall 131072 131072 26 26
88 compute 1014.43
88 reduce 16 0 0 26 
88 compute 682.627
88 alltoall 131072 131072 26 26
88 compute 1010.89
88 reduce 16 0 0 26 
88 compute 665.103
88 alltoall 131072 131072 26 26
88 compute 1009.76
88 reduce 16 0 0 26 
88 compute 651.106
88 alltoall 131072 131072 26 26
88 compute 1014.78
88 reduce 16 0 0 26 
88 compute 663.8
88 alltoall 131072 131072 26 26
88 compute 1015.37
88 reduce 16 0 0 26 
88 compute 661.22
88 alltoall 131072 131072 26 26
88 compute 1038.51
88 reduce 16 0 0 26 
88 compute 664.697
88 alltoall 131072 131072 26 26
88 compute 1008.22
88 reduce 16 0 0 26 
88 compute 0.05324
88 compute 0.03148
88 finalize
