36 init
36 compute 0.0891
36 compute 0.23794
36 bcast 1 0 1 
36 compute 0.06222
36 bcast 1 0 1 
36 compute 0.0663
36 bcast 1 0 1 
36 compute 0.04036
36 bcast 1 0 1 
36 compute 0.0522
36 bcast 1 0 16 
36 compute 0.0941
36 compute 0.04988
36 compute 2166.6
36 alltoall 131072 131072 26 26
36 compute 614.509
36 compute 0.0449
36 barrier
36 compute 0.02906
36 compute 1543.98
36 alltoall 131072 131072 26 26
36 compute 1597.94
36 alltoall 131072 131072 26 26
36 compute 1012.57
36 reduce 16 0 0 26 
36 compute 662.545
36 alltoall 131072 131072 26 26
36 compute 1018.48
36 reduce 16 0 0 26 
36 compute 665.198
36 alltoall 131072 131072 26 26
36 compute 1019.41
36 reduce 16 0 0 26 
36 compute 673.407
36 alltoall 131072 131072 26 26
36 compute 1360.98
36 reduce 16 0 0 26 
36 compute 665.813
36 alltoall 131072 131072 26 26
36 compute 1027.31
36 reduce 16 0 0 26 
36 compute 653.516
36 alltoall 131072 131072 26 26
36 compute 1088.31
36 reduce 16 0 0 26 
36 compute 660.321
36 alltoall 131072 131072 26 26
36 compute 1019.93
36 reduce 16 0 0 26 
36 compute 657.997
36 alltoall 131072 131072 26 26
36 compute 1020.55
36 reduce 16 0 0 26 
36 compute 662.615
36 alltoall 131072 131072 26 26
36 compute 1013.93
36 reduce 16 0 0 26 
36 compute 678.169
36 alltoall 131072 131072 26 26
36 compute 1008.05
36 reduce 16 0 0 26 
36 compute 660.976
36 alltoall 131072 131072 26 26
36 compute 1027.4
36 reduce 16 0 0 26 
36 compute 659.539
36 alltoall 131072 131072 26 26
36 compute 1023.33
36 reduce 16 0 0 26 
36 compute 662.917
36 alltoall 131072 131072 26 26
36 compute 1011.76
36 reduce 16 0 0 26 
36 compute 670.691
36 alltoall 131072 131072 26 26
36 compute 1014.47
36 reduce 16 0 0 26 
36 compute 673.975
36 alltoall 131072 131072 26 26
36 compute 1020.91
36 reduce 16 0 0 26 
36 compute 656.353
36 alltoall 131072 131072 26 26
36 compute 1033.52
36 reduce 16 0 0 26 
36 compute 659.797
36 alltoall 131072 131072 26 26
36 compute 1013.95
36 reduce 16 0 0 26 
36 compute 669.991
36 alltoall 131072 131072 26 26
36 compute 1015.78
36 reduce 16 0 0 26 
36 compute 662.287
36 alltoall 131072 131072 26 26
36 compute 1019.4
36 reduce 16 0 0 26 
36 compute 654.33
36 alltoall 131072 131072 26 26
36 compute 1027.17
36 reduce 16 0 0 26 
36 compute 0.03986
36 compute 0.039
36 finalize
