111 init
111 compute 0.12324
111 compute 0.15716
111 bcast 1 0 1 
111 compute 0.0675
111 bcast 1 0 1 
111 compute 0.04688
111 bcast 1 0 1 
111 compute 0.05504
111 bcast 1 0 1 
111 compute 0.05012
111 bcast 1 0 16 
111 compute 0.05512
111 compute 0.04632
111 compute 1752.86
111 alltoall 131072 131072 26 26
111 compute 599.586
111 compute 0.04742
111 barrier
111 compute 0.02582
111 compute 2221.72
111 alltoall 131072 131072 26 26
111 compute 1321.92
111 alltoall 131072 131072 26 26
111 compute 1007.03
111 reduce 16 0 0 26 
111 compute 635.75
111 alltoall 131072 131072 26 26
111 compute 996.804
111 reduce 16 0 0 26 
111 compute 643.369
111 alltoall 131072 131072 26 26
111 compute 1029.77
111 reduce 16 0 0 26 
111 compute 643.953
111 alltoall 131072 131072 26 26
111 compute 995.371
111 reduce 16 0 0 26 
111 compute 649.842
111 alltoall 131072 131072 26 26
111 compute 982.582
111 reduce 16 0 0 26 
111 compute 659.135
111 alltoall 131072 131072 26 26
111 compute 984.372
111 reduce 16 0 0 26 
111 compute 648.901
111 alltoall 131072 131072 26 26
111 compute 995.24
111 reduce 16 0 0 26 
111 compute 642.573
111 alltoall 131072 131072 26 26
111 compute 988.077
111 reduce 16 0 0 26 
111 compute 652.271
111 alltoall 131072 131072 26 26
111 compute 993.15
111 reduce 16 0 0 26 
111 compute 650.808
111 alltoall 131072 131072 26 26
111 compute 987.887
111 reduce 16 0 0 26 
111 compute 641.093
111 alltoall 131072 131072 26 26
111 compute 1017.73
111 reduce 16 0 0 26 
111 compute 655.594
111 alltoall 131072 131072 26 26
111 compute 982.265
111 reduce 16 0 0 26 
111 compute 652.208
111 alltoall 131072 131072 26 26
111 compute 984.134
111 reduce 16 0 0 26 
111 compute 643.085
111 alltoall 131072 131072 26 26
111 compute 1368.52
111 reduce 16 0 0 26 
111 compute 647.509
111 alltoall 131072 131072 26 26
111 compute 1021.68
111 reduce 16 0 0 26 
111 compute 643.731
111 alltoall 131072 131072 26 26
111 compute 1015.92
111 reduce 16 0 0 26 
111 compute 638.779
111 alltoall 131072 131072 26 26
111 compute 1022.31
111 reduce 16 0 0 26 
111 compute 638.793
111 alltoall 131072 131072 26 26
111 compute 1289.62
111 reduce 16 0 0 26 
111 compute 652.683
111 alltoall 131072 131072 26 26
111 compute 998.554
111 reduce 16 0 0 26 
111 compute 655.406
111 alltoall 131072 131072 26 26
111 compute 998.508
111 reduce 16 0 0 26 
111 compute 0.06826
111 compute 0.03632
111 finalize
