73 init
73 compute 0.18448
73 compute 0.18006
73 bcast 1 0 1 
73 compute 0.04406
73 bcast 1 0 1 
73 compute 0.028
73 bcast 1 0 1 
73 compute 0.0429
73 bcast 1 0 1 
73 compute 0.02704
73 bcast 1 0 16 
73 compute 0.05216
73 compute 0.0449
73 compute 1770.7
73 alltoall 131072 131072 26 26
73 compute 612.565
73 compute 0.04628
73 barrier
73 compute 0.02384
73 compute 1539.36
73 alltoall 131072 131072 26 26
73 compute 1341.01
73 alltoall 131072 131072 26 26
73 compute 1003.23
73 reduce 16 0 0 26 
73 compute 645.958
73 alltoall 131072 131072 26 26
73 compute 1055.15
73 reduce 16 0 0 26 
73 compute 686.94
73 alltoall 131072 131072 26 26
73 compute 998.875
73 reduce 16 0 0 26 
73 compute 665.979
73 alltoall 131072 131072 26 26
73 compute 974.906
73 reduce 16 0 0 26 
73 compute 644.777
73 alltoall 131072 131072 26 26
73 compute 997.536
73 reduce 16 0 0 26 
73 compute 643.923
73 alltoall 131072 131072 26 26
73 compute 1032.18
73 reduce 16 0 0 26 
73 compute 681.558
73 alltoall 131072 131072 26 26
73 compute 999.387
73 reduce 16 0 0 26 
73 compute 861.144
73 alltoall 131072 131072 26 26
73 compute 1011.03
73 reduce 16 0 0 26 
73 compute 710.704
73 alltoall 131072 131072 26 26
73 compute 996.83
73 reduce 16 0 0 26 
73 compute 646.986
73 alltoall 131072 131072 26 26
73 compute 1000.88
73 reduce 16 0 0 26 
73 compute 660.773
73 alltoall 131072 131072 26 26
73 compute 1012.99
73 reduce 16 0 0 26 
73 compute 649.387
73 alltoall 131072 131072 26 26
73 compute 1370.29
73 reduce 16 0 0 26 
73 compute 651.393
73 alltoall 131072 131072 26 26
73 compute 998.816
73 reduce 16 0 0 26 
73 compute 651.518
73 alltoall 131072 131072 26 26
73 compute 1008.97
73 reduce 16 0 0 26 
73 compute 651.692
73 alltoall 131072 131072 26 26
73 compute 994.99
73 reduce 16 0 0 26 
73 compute 723.841
73 alltoall 131072 131072 26 26
73 compute 1002.78
73 reduce 16 0 0 26 
73 compute 656.238
73 alltoall 131072 131072 26 26
73 compute 1003.63
73 reduce 16 0 0 26 
73 compute 649.989
73 alltoall 131072 131072 26 26
73 compute 1004.16
73 reduce 16 0 0 26 
73 compute 687.397
73 alltoall 131072 131072 26 26
73 compute 986.27
73 reduce 16 0 0 26 
73 compute 643.078
73 alltoall 131072 131072 26 26
73 compute 988.977
73 reduce 16 0 0 26 
73 compute 0.05694
73 compute 0.03232
73 finalize
