42 init
42 compute 0.11242
42 compute 0.16916
42 bcast 1 0 1 
42 compute 0.0435
42 bcast 1 0 1 
42 compute 0.05398
42 bcast 1 0 1 
42 compute 0.0332
42 bcast 1 0 1 
42 compute 0.04922
42 bcast 1 0 16 
42 compute 0.05922
42 compute 0.0463
42 compute 1760.83
42 alltoall 131072 131072 26 26
42 compute 609.603
42 compute 0.06138
42 barrier
42 compute 0.02976
42 compute 1527.01
42 alltoall 131072 131072 26 26
42 compute 1385.11
42 alltoall 131072 131072 26 26
42 compute 994.059
42 reduce 16 0 0 26 
42 compute 659.615
42 alltoall 131072 131072 26 26
42 compute 1313.03
42 reduce 16 0 0 26 
42 compute 653.134
42 alltoall 131072 131072 26 26
42 compute 991.918
42 reduce 16 0 0 26 
42 compute 683.081
42 alltoall 131072 131072 26 26
42 compute 973.994
42 reduce 16 0 0 26 
42 compute 637.713
42 alltoall 131072 131072 26 26
42 compute 995.618
42 reduce 16 0 0 26 
42 compute 660.087
42 alltoall 131072 131072 26 26
42 compute 986.246
42 reduce 16 0 0 26 
42 compute 640.849
42 alltoall 131072 131072 26 26
42 compute 973.109
42 reduce 16 0 0 26 
42 compute 657.969
42 alltoall 131072 131072 26 26
42 compute 981.316
42 reduce 16 0 0 26 
42 compute 646.918
42 alltoall 131072 131072 26 26
42 compute 994.064
42 reduce 16 0 0 26 
42 compute 657.245
42 alltoall 131072 131072 26 26
42 compute 1035.28
42 reduce 16 0 0 26 
42 compute 637.822
42 alltoall 131072 131072 26 26
42 compute 1038.87
42 reduce 16 0 0 26 
42 compute 647.294
42 alltoall 131072 131072 26 26
42 compute 982.683
42 reduce 16 0 0 26 
42 compute 666.835
42 alltoall 131072 131072 26 26
42 compute 988.582
42 reduce 16 0 0 26 
42 compute 646.767
42 alltoall 131072 131072 26 26
42 compute 992.928
42 reduce 16 0 0 26 
42 compute 675.01
42 alltoall 131072 131072 26 26
42 compute 999.706
42 reduce 16 0 0 26 
42 compute 697.089
42 alltoall 131072 131072 26 26
42 compute 979.752
42 reduce 16 0 0 26 
42 compute 643.826
42 alltoall 131072 131072 26 26
42 compute 982.199
42 reduce 16 0 0 26 
42 compute 655.233
42 alltoall 131072 131072 26 26
42 compute 992.556
42 reduce 16 0 0 26 
42 compute 655.365
42 alltoall 131072 131072 26 26
42 compute 1007.97
42 reduce 16 0 0 26 
42 compute 649.458
42 alltoall 131072 131072 26 26
42 compute 992.632
42 reduce 16 0 0 26 
42 compute 0.05364
42 compute 0.03378
42 finalize
