78 init
78 compute 0.0952
78 compute 0.17332
78 bcast 1 0 1 
78 compute 0.05716
78 bcast 1 0 1 
78 compute 0.05246
78 bcast 1 0 1 
78 compute 0.04986
78 bcast 1 0 1 
78 compute 0.05688
78 bcast 1 0 16 
78 compute 0.05276
78 compute 0.04656
78 compute 1770
78 alltoall 131072 131072 26 26
78 compute 639.119
78 compute 0.0499
78 barrier
78 compute 0.02674
78 compute 1569.57
78 alltoall 131072 131072 26 26
78 compute 1380.06
78 alltoall 131072 131072 26 26
78 compute 1023.72
78 reduce 16 0 0 26 
78 compute 657.126
78 alltoall 131072 131072 26 26
78 compute 1044.55
78 reduce 16 0 0 26 
78 compute 671.795
78 alltoall 131072 131072 26 26
78 compute 1030.67
78 reduce 16 0 0 26 
78 compute 720.537
78 alltoall 131072 131072 26 26
78 compute 1044.18
78 reduce 16 0 0 26 
78 compute 661.477
78 alltoall 131072 131072 26 26
78 compute 1028.33
78 reduce 16 0 0 26 
78 compute 670.244
78 alltoall 131072 131072 26 26
78 compute 1037.42
78 reduce 16 0 0 26 
78 compute 669.929
78 alltoall 131072 131072 26 26
78 compute 1035.87
78 reduce 16 0 0 26 
78 compute 678.137
78 alltoall 131072 131072 26 26
78 compute 1045.69
78 reduce 16 0 0 26 
78 compute 669.414
78 alltoall 131072 131072 26 26
78 compute 1026.84
78 reduce 16 0 0 26 
78 compute 669.391
78 alltoall 131072 131072 26 26
78 compute 1031.09
78 reduce 16 0 0 26 
78 compute 671.317
78 alltoall 131072 131072 26 26
78 compute 1039.81
78 reduce 16 0 0 26 
78 compute 667.728
78 alltoall 131072 131072 26 26
78 compute 1044.67
78 reduce 16 0 0 26 
78 compute 668.91
78 alltoall 131072 131072 26 26
78 compute 1045.26
78 reduce 16 0 0 26 
78 compute 678.1
78 alltoall 131072 131072 26 26
78 compute 1047.91
78 reduce 16 0 0 26 
78 compute 693.572
78 alltoall 131072 131072 26 26
78 compute 1049.56
78 reduce 16 0 0 26 
78 compute 672.937
78 alltoall 131072 131072 26 26
78 compute 1095.99
78 reduce 16 0 0 26 
78 compute 667.762
78 alltoall 131072 131072 26 26
78 compute 1042.69
78 reduce 16 0 0 26 
78 compute 672.794
78 alltoall 131072 131072 26 26
78 compute 1025.13
78 reduce 16 0 0 26 
78 compute 879.164
78 alltoall 131072 131072 26 26
78 compute 1039.85
78 reduce 16 0 0 26 
78 compute 665.321
78 alltoall 131072 131072 26 26
78 compute 1012.08
78 reduce 16 0 0 26 
78 compute 0.05936
78 compute 0.02976
78 finalize
