112 init
112 compute 0.19954
112 compute 0.1682
112 bcast 1 0 1 
112 compute 0.04412
112 bcast 1 0 1 
112 compute 0.04936
112 bcast 1 0 1 
112 compute 0.04068
112 bcast 1 0 1 
112 compute 0.04696
112 bcast 1 0 16 
112 compute 0.05168
112 compute 0.04172
112 compute 1737.82
112 alltoall 131072 131072 26 26
112 compute 605.102
112 compute 0.04544
112 barrier
112 compute 0.02818
112 compute 1511.95
112 alltoall 131072 131072 26 26
112 compute 1328.42
112 alltoall 131072 131072 26 26
112 compute 980.039
112 reduce 16 0 0 26 
112 compute 637.764
112 alltoall 131072 131072 26 26
112 compute 977.497
112 reduce 16 0 0 26 
112 compute 651.683
112 alltoall 131072 131072 26 26
112 compute 1066.46
112 reduce 16 0 0 26 
112 compute 645.095
112 alltoall 131072 131072 26 26
112 compute 979.547
112 reduce 16 0 0 26 
112 compute 644.54
112 alltoall 131072 131072 26 26
112 compute 989.678
112 reduce 16 0 0 26 
112 compute 640.027
112 alltoall 131072 131072 26 26
112 compute 979.634
112 reduce 16 0 0 26 
112 compute 634.155
112 alltoall 131072 131072 26 26
112 compute 981.475
112 reduce 16 0 0 26 
112 compute 647.681
112 alltoall 131072 131072 26 26
112 compute 982.508
112 reduce 16 0 0 26 
112 compute 646.219
112 alltoall 131072 131072 26 26
112 compute 983.702
112 reduce 16 0 0 26 
112 compute 650.577
112 alltoall 131072 131072 26 26
112 compute 980.323
112 reduce 16 0 0 26 
112 compute 639.66
112 alltoall 131072 131072 26 26
112 compute 976.688
112 reduce 16 0 0 26 
112 compute 645.23
112 alltoall 131072 131072 26 26
112 compute 986.369
112 reduce 16 0 0 26 
112 compute 650.145
112 alltoall 131072 131072 26 26
112 compute 976.015
112 reduce 16 0 0 26 
112 compute 650.379
112 alltoall 131072 131072 26 26
112 compute 1350.28
112 reduce 16 0 0 26 
112 compute 634.913
112 alltoall 131072 131072 26 26
112 compute 971.822
112 reduce 16 0 0 26 
112 compute 647.635
112 alltoall 131072 131072 26 26
112 compute 999.435
112 reduce 16 0 0 26 
112 compute 637.305
112 alltoall 131072 131072 26 26
112 compute 977.616
112 reduce 16 0 0 26 
112 compute 644.997
112 alltoall 131072 131072 26 26
112 compute 984.331
112 reduce 16 0 0 26 
112 compute 646.484
112 alltoall 131072 131072 26 26
112 compute 979.986
112 reduce 16 0 0 26 
112 compute 647.299
112 alltoall 131072 131072 26 26
112 compute 992.726
112 reduce 16 0 0 26 
112 compute 0.04848
112 compute 0.03456
112 finalize
