90 init
90 compute 0.15152
90 compute 0.14552
90 bcast 1 0 1 
90 compute 0.04722
90 bcast 1 0 1 
90 compute 0.04424
90 bcast 1 0 1 
90 compute 0.02872
90 bcast 1 0 1 
90 compute 0.0476
90 bcast 1 0 16 
90 compute 0.03646
90 compute 0.04806
90 compute 1742.15
90 alltoall 131072 131072 26 26
90 compute 792.745
90 compute 0.04224
90 barrier
90 compute 0.02662
90 compute 1591.7
90 alltoall 131072 131072 26 26
90 compute 1340.98
90 alltoall 131072 131072 26 26
90 compute 987.363
90 reduce 16 0 0 26 
90 compute 647.277
90 alltoall 131072 131072 26 26
90 compute 985.244
90 reduce 16 0 0 26 
90 compute 638.443
90 alltoall 131072 131072 26 26
90 compute 994.434
90 reduce 16 0 0 26 
90 compute 677.105
90 alltoall 131072 131072 26 26
90 compute 1255.66
90 reduce 16 0 0 26 
90 compute 642.909
90 alltoall 131072 131072 26 26
90 compute 1003.16
90 reduce 16 0 0 26 
90 compute 653.244
90 alltoall 131072 131072 26 26
90 compute 991.132
90 reduce 16 0 0 26 
90 compute 644.194
90 alltoall 131072 131072 26 26
90 compute 1015.53
90 reduce 16 0 0 26 
90 compute 647.661
90 alltoall 131072 131072 26 26
90 compute 1099.5
90 reduce 16 0 0 26 
90 compute 671.983
90 alltoall 131072 131072 26 26
90 compute 987.907
90 reduce 16 0 0 26 
90 compute 658.249
90 alltoall 131072 131072 26 26
90 compute 999.371
90 reduce 16 0 0 26 
90 compute 645.844
90 alltoall 131072 131072 26 26
90 compute 1093.95
90 reduce 16 0 0 26 
90 compute 641.492
90 alltoall 131072 131072 26 26
90 compute 1008.17
90 reduce 16 0 0 26 
90 compute 651.929
90 alltoall 131072 131072 26 26
90 compute 998.982
90 reduce 16 0 0 26 
90 compute 645.305
90 alltoall 131072 131072 26 26
90 compute 1017.96
90 reduce 16 0 0 26 
90 compute 647.088
90 alltoall 131072 131072 26 26
90 compute 995.852
90 reduce 16 0 0 26 
90 compute 650.019
90 alltoall 131072 131072 26 26
90 compute 987.809
90 reduce 16 0 0 26 
90 compute 642.473
90 alltoall 131072 131072 26 26
90 compute 1004.37
90 reduce 16 0 0 26 
90 compute 644.523
90 alltoall 131072 131072 26 26
90 compute 1000.25
90 reduce 16 0 0 26 
90 compute 656.735
90 alltoall 131072 131072 26 26
90 compute 996.709
90 reduce 16 0 0 26 
90 compute 655.033
90 alltoall 131072 131072 26 26
90 compute 976.871
90 reduce 16 0 0 26 
90 compute 0.05622
90 compute 0.03124
90 finalize
