125 init
125 compute 0.12388
125 compute 0.18362
125 bcast 1 0 1 
125 compute 0.03868
125 bcast 1 0 1 
125 compute 0.04302
125 bcast 1 0 1 
125 compute 0.06026
125 bcast 1 0 1 
125 compute 0.06202
125 bcast 1 0 16 
125 compute 0.0591
125 compute 0.04674
125 compute 1745.27
125 alltoall 131072 131072 26 26
125 compute 584.171
125 compute 0.09884
125 barrier
125 compute 0.02606
125 compute 1534.1
125 alltoall 131072 131072 26 26
125 compute 1317.49
125 alltoall 131072 131072 26 26
125 compute 967.133
125 reduce 16 0 0 26 
125 compute 642.481
125 alltoall 131072 131072 26 26
125 compute 990.322
125 reduce 16 0 0 26 
125 compute 647.818
125 alltoall 131072 131072 26 26
125 compute 981.924
125 reduce 16 0 0 26 
125 compute 650.427
125 alltoall 131072 131072 26 26
125 compute 977.769
125 reduce 16 0 0 26 
125 compute 634.252
125 alltoall 131072 131072 26 26
125 compute 988.645
125 reduce 16 0 0 26 
125 compute 635.581
125 alltoall 131072 131072 26 26
125 compute 985.9
125 reduce 16 0 0 26 
125 compute 651.711
125 alltoall 131072 131072 26 26
125 compute 995.265
125 reduce 16 0 0 26 
125 compute 860.826
125 alltoall 131072 131072 26 26
125 compute 997.712
125 reduce 16 0 0 26 
125 compute 641.649
125 alltoall 131072 131072 26 26
125 compute 974.52
125 reduce 16 0 0 26 
125 compute 627.257
125 alltoall 131072 131072 26 26
125 compute 976.701
125 reduce 16 0 0 26 
125 compute 653.21
125 alltoall 131072 131072 26 26
125 compute 984.44
125 reduce 16 0 0 26 
125 compute 857.809
125 alltoall 131072 131072 26 26
125 compute 1364.95
125 reduce 16 0 0 26 
125 compute 634.512
125 alltoall 131072 131072 26 26
125 compute 986.031
125 reduce 16 0 0 26 
125 compute 639.298
125 alltoall 131072 131072 26 26
125 compute 976.361
125 reduce 16 0 0 26 
125 compute 643.736
125 alltoall 131072 131072 26 26
125 compute 996.249
125 reduce 16 0 0 26 
125 compute 638.576
125 alltoall 131072 131072 26 26
125 compute 1087.97
125 reduce 16 0 0 26 
125 compute 645.622
125 alltoall 131072 131072 26 26
125 compute 976.355
125 reduce 16 0 0 26 
125 compute 654.152
125 alltoall 131072 131072 26 26
125 compute 981.591
125 reduce 16 0 0 26 
125 compute 643.923
125 alltoall 131072 131072 26 26
125 compute 987.365
125 reduce 16 0 0 26 
125 compute 648.676
125 alltoall 131072 131072 26 26
125 compute 977.063
125 reduce 16 0 0 26 
125 compute 0.06328
125 compute 0.0323
125 finalize
