103 init
103 compute 0.13844
103 compute 0.11734
103 bcast 1 0 1 
103 compute 0.05496
103 bcast 1 0 1 
103 compute 0.04324
103 bcast 1 0 1 
103 compute 0.04982
103 bcast 1 0 1 
103 compute 0.04618
103 bcast 1 0 16 
103 compute 0.05354
103 compute 0.04994
103 compute 1751.31
103 alltoall 131072 131072 26 26
103 compute 596.509
103 compute 0.04726
103 barrier
103 compute 0.02958
103 compute 1522.56
103 alltoall 131072 131072 26 26
103 compute 1345.2
103 alltoall 131072 131072 26 26
103 compute 998.906
103 reduce 16 0 0 26 
103 compute 651.791
103 alltoall 131072 131072 26 26
103 compute 981.105
103 reduce 16 0 0 26 
103 compute 650.451
103 alltoall 131072 131072 26 26
103 compute 989.733
103 reduce 16 0 0 26 
103 compute 640.818
103 alltoall 131072 131072 26 26
103 compute 995.754
103 reduce 16 0 0 26 
103 compute 646.545
103 alltoall 131072 131072 26 26
103 compute 993.189
103 reduce 16 0 0 26 
103 compute 646.375
103 alltoall 131072 131072 26 26
103 compute 995.602
103 reduce 16 0 0 26 
103 compute 655.859
103 alltoall 131072 131072 26 26
103 compute 995.899
103 reduce 16 0 0 26 
103 compute 642.531
103 alltoall 131072 131072 26 26
103 compute 1101.79
103 reduce 16 0 0 26 
103 compute 643.088
103 alltoall 131072 131072 26 26
103 compute 1007.59
103 reduce 16 0 0 26 
103 compute 666.659
103 alltoall 131072 131072 26 26
103 compute 1390.25
103 reduce 16 0 0 26 
103 compute 840.326
103 alltoall 131072 131072 26 26
103 compute 1011.24
103 reduce 16 0 0 26 
103 compute 647.77
103 alltoall 131072 131072 26 26
103 compute 1016.6
103 reduce 16 0 0 26 
103 compute 643.683
103 alltoall 131072 131072 26 26
103 compute 990.157
103 reduce 16 0 0 26 
103 compute 652.236
103 alltoall 131072 131072 26 26
103 compute 1057.84
103 reduce 16 0 0 26 
103 compute 864.478
103 alltoall 131072 131072 26 26
103 compute 979.457
103 reduce 16 0 0 26 
103 compute 850.378
103 alltoall 131072 131072 26 26
103 compute 1010.8
103 reduce 16 0 0 26 
103 compute 642.448
103 alltoall 131072 131072 26 26
103 compute 991.341
103 reduce 16 0 0 26 
103 compute 644.895
103 alltoall 131072 131072 26 26
103 compute 988.181
103 reduce 16 0 0 26 
103 compute 643.356
103 alltoall 131072 131072 26 26
103 compute 994.093
103 reduce 16 0 0 26 
103 compute 863.529
103 alltoall 131072 131072 26 26
103 compute 978.295
103 reduce 16 0 0 26 
103 compute 0.09592
103 compute 0.03216
103 finalize
