# version: 1.0
21 compute 492872953.912
21 compute 3894234396.957
21 init
21 compute 584805.475
21 compute 72460.858
21 compute 65908.369
21 bcast 4 0
21 compute 20891.269
21 bcast 4 0
21 compute 4918.535
21 bcast 4 0
21 compute 3217.889
21 bcast 4 0
21 compute 4151.577
21 bcast 4 0
21 compute 9787.051
21 compute 10053.819
21 compute 106890648117.138
21 alltoall 33554432 1073741824
21 compute 34256239776.393
21 barrier
21 compute 93421689256.95
21 alltoall 33554432 1073741824
21 compute 82189131172.91
21 alltoall 33554432 1073741824
21 compute 65294052881.882
21 reduce 16 0 0
21 compute 44330838419.658
21 alltoall 33554432 1073741824
21 compute 65935372207.321
21 reduce 16 0 0
21 compute 43655961830.636
21 alltoall 33554432 1073741824
21 compute 65794052026.051
21 reduce 16 0 0
21 compute 43632349561.382
21 alltoall 33554432 1073741824
21 compute 65779352909.175
21 reduce 16 0 0
21 compute 44743765138.874
21 alltoall 33554432 1073741824
21 compute 65764851617.444
21 reduce 16 0 0
21 compute 44690766740.466
21 alltoall 33554432 1073741824
21 compute 65672605794.013
21 reduce 16 0 0
21 compute 44224527386.811
21 alltoall 33554432 1073741824
21 compute 65477898399.975
21 reduce 16 0 0
21 compute 44068536249.362
21 alltoall 33554432 1073741824
21 compute 66297235996.661
21 reduce 16 0 0
21 compute 43121777834.491
21 alltoall 33554432 1073741824
21 compute 66649493653.724
21 reduce 16 0 0
21 compute 44531365474.327
21 alltoall 33554432 1073741824
21 compute 65911970317.981
21 reduce 16 0 0
21 compute 44530497411.255
21 alltoall 33554432 1073741824
21 compute 65527992578.532
21 reduce 16 0 0
21 compute 44742527151.951
21 alltoall 33554432 1073741824
21 compute 65480665417.709
21 reduce 16 0 0
21 compute 44895886239.601
21 alltoall 33554432 1073741824
21 compute 65547218881.752
21 reduce 16 0 0
21 compute 44543064634.986
21 alltoall 33554432 1073741824
21 compute 66389393903.363
21 reduce 16 0 0
21 compute 43627885315.613
21 alltoall 33554432 1073741824
21 compute 65583979845.612
21 reduce 16 0 0
21 compute 55436571695.244
21 alltoall 33554432 1073741824
21 compute 66415560409.525
21 reduce 16 0 0
21 compute 67641935938.538
21 alltoall 33554432 1073741824
21 compute 66456432985.204
21 reduce 16 0 0
21 compute 70477002854.738
21 alltoall 33554432 1073741824
21 compute 82012649935.514
21 reduce 16 0 0
21 compute 70343247046.838
21 alltoall 33554432 1073741824
21 compute 85221536866.027
21 reduce 16 0 0
21 compute 69396167543.333
21 alltoall 33554432 1073741824
21 compute 85824399633.525
21 reduce 16 0 0
21 compute 68969422175.025
21 alltoall 33554432 1073741824
21 compute 84573108040.004
21 reduce 16 0 0
21 compute 68463267626.024
21 alltoall 33554432 1073741824
21 compute 83985883479.434
21 reduce 16 0 0
21 compute 67867903356.873
21 alltoall 33554432 1073741824
21 compute 84528310590.106
21 reduce 16 0 0
21 compute 67358811492.116
21 alltoall 33554432 1073741824
21 compute 82921047945.635
21 reduce 16 0 0
21 compute 66816682044.513
21 alltoall 33554432 1073741824
21 compute 83094912405.7
21 reduce 16 0 0
21 compute 139019.474
21 finalize
21 compute 460274.838
21 compute 53170.197
