# version: 1.0
5 compute 677878429.288
5 compute 1145600479.487
5 init
5 compute 728626.773
5 compute 118828.471
5 compute 90517.717
5 bcast 4 0
5 compute 43699.933
5 bcast 4 0
5 compute 21291.421
5 bcast 4 0
5 compute 20157.657
5 bcast 4 0
5 compute 18907.182
5 bcast 4 0
5 compute 26410.032
5 compute 38648.014
5 compute 110813500067.968
5 alltoall 33554432 1073741824
5 compute 34339792664.43
5 barrier
5 compute 97280795893.762
5 alltoall 33554432 1073741824
5 compute 87354266245.342
5 alltoall 33554432 1073741824
5 compute 68990874523.821
5 reduce 16 0 0
5 compute 45054668037.098
5 alltoall 33554432 1073741824
5 compute 69250144125.512
5 reduce 16 0 0
5 compute 45918608259.677
5 alltoall 33554432 1073741824
5 compute 69682848840.845
5 reduce 16 0 0
5 compute 46883268374.61
5 alltoall 33554432 1073741824
5 compute 69025302168.023
5 reduce 16 0 0
5 compute 46657401361.081
5 alltoall 33554432 1073741824
5 compute 69511569762.852
5 reduce 16 0 0
5 compute 45450928608.917
5 alltoall 33554432 1073741824
5 compute 69627746626.624
5 reduce 16 0 0
5 compute 46133696278.744
5 alltoall 33554432 1073741824
5 compute 69796057910.617
5 reduce 16 0 0
5 compute 45621402147.588
5 alltoall 33554432 1073741824
5 compute 70181970401.659
5 reduce 16 0 0
5 compute 47519058199.637
5 alltoall 33554432 1073741824
5 compute 69741606660.335
5 reduce 16 0 0
5 compute 45631259175.169
5 alltoall 33554432 1073741824
5 compute 70452883242.767
5 reduce 16 0 0
5 compute 46376668906.604
5 alltoall 33554432 1073741824
5 compute 70209982442.191
5 reduce 16 0 0
5 compute 47099796674.109
5 alltoall 33554432 1073741824
5 compute 69405311066.552
5 reduce 16 0 0
5 compute 46216496180.755
5 alltoall 33554432 1073741824
5 compute 70147380645.878
5 reduce 16 0 0
5 compute 46121889360.486
5 alltoall 33554432 1073741824
5 compute 69914933266.093
5 reduce 16 0 0
5 compute 44073834778.705
5 alltoall 33554432 1073741824
5 compute 70301344946.755
5 reduce 16 0 0
5 compute 43306791546.329
5 alltoall 33554432 1073741824
5 compute 69895314697.202
5 reduce 16 0 0
5 compute 50403834281.478
5 alltoall 33554432 1073741824
5 compute 71039117077.004
5 reduce 16 0 0
5 compute 71025700063.809
5 alltoall 33554432 1073741824
5 compute 85760208933.658
5 reduce 16 0 0
5 compute 70479515375.8
5 alltoall 33554432 1073741824
5 compute 90705533276.408
5 reduce 16 0 0
5 compute 69575734352.801
5 alltoall 33554432 1073741824
5 compute 90509552698.744
5 reduce 16 0 0
5 compute 69306919742.051
5 alltoall 33554432 1073741824
5 compute 89447087648.72
5 reduce 16 0 0
5 compute 68253806944.533
5 alltoall 33554432 1073741824
5 compute 89318047548.775
5 reduce 16 0 0
5 compute 67759937028.586
5 alltoall 33554432 1073741824
5 compute 89309322534.529
5 reduce 16 0 0
5 compute 67580774856.155
5 alltoall 33554432 1073741824
5 compute 88147520334.06
5 reduce 16 0 0
5 compute 67035157567.009
5 alltoall 33554432 1073741824
5 compute 88578484888.383
5 reduce 16 0 0
5 compute 180351.841
5 finalize
5 compute 569332.931
5 compute 81080.799
