# version: 1.0
23 compute 476873092.941
23 compute 5417250039.728
23 init
23 compute 399901.905
23 compute 98954.255
23 compute 39031.493
23 bcast 4 0
23 compute 199021795971.305
23 allreduce 4116 0
23 compute 169330.988
23 alltoall 4 128
23 compute 233938.863
23 alltoall 8388608 8669356.75
23 compute 12421423264.535
23 allreduce 4116 0
23 compute 64324.434
23 alltoall 4 128
23 compute 12938.248
23 alltoall 8388608 8669356.75
23 compute 12425083788.339
23 allreduce 4116 0
23 compute 71277.075
23 alltoall 4 128
23 compute 11070.872
23 alltoall 8388608 8669356.75
23 compute 12436867147.648
23 allreduce 4116 0
23 compute 67192.19
23 alltoall 4 128
23 compute 13555.149
23 alltoall 8388608 8669356.75
23 compute 12426849325.655
23 allreduce 4116 0
23 compute 77212.663
23 alltoall 4 128
23 compute 13888.609
23 alltoall 8388608 8669356.75
23 compute 12425815532.963
23 allreduce 4116 0
23 compute 72961.048
23 alltoall 4 128
23 compute 19974.254
23 alltoall 8388608 8669356.625
23 compute 12405715531.197
23 allreduce 4116 0
23 compute 67008.787
23 alltoall 4 128
23 compute 12404.712
23 alltoall 8388608 8669356.625
23 compute 12415627829.773
23 allreduce 4116 0
23 compute 64274.415
23 alltoall 4 128
23 compute 12237.982
23 alltoall 8388608 8669356.625
23 compute 12409463654.943
23 allreduce 4116 0
23 compute 69793.178
23 alltoall 4 128
23 compute 20724.539
23 alltoall 8388608 8669356.625
23 compute 12418743446.591
23 allreduce 4116 0
23 compute 67942.475
23 alltoall 4 128
23 compute 16639.654
23 alltoall 8388608 8669356.625
23 compute 12429841862.387
23 allreduce 4116 0
23 compute 64057.666
23 alltoall 4 128
23 compute 12804.864
23 alltoall 8388608 8669356.625
23 compute 4042244119.287
23 reduce 8 0 0
23 compute 53010756002.102
23 irecv 22 0 4
23 compute 44400.199
23 send 24 0 4
23 compute 35029.973
23 wait 23 22 0
23 compute 920779213.191
23 reduce 4 0 0
23 compute 75078.519
23 finalize
23 compute 491736.789
23 compute 25309.614
