# version: 1.0
18 compute 259891988.108
18 compute 4491136150.13
18 init
18 compute 533502.654
18 compute 103089.159
18 compute 43249.762
18 bcast 4 0
18 compute 199052341941.031
18 allreduce 4116 0
18 compute 164295.742
18 alltoall 4 128
18 compute 141503.751
18 alltoall 8388608 8213924.75
18 compute 11978022702.991
18 allreduce 4116 0
18 compute 91101.272
18 alltoall 4 128
18 compute 20307.714
18 alltoall 8388608 8213924.75
18 compute 11968931399.608
18 allreduce 4116 0
18 compute 68826.144
18 alltoall 4 128
18 compute 14989.027
18 alltoall 8388608 8213924.75
18 compute 11934289590.721
18 allreduce 4116 0
18 compute 76062.226
18 alltoall 4 128
18 compute 19173.95
18 alltoall 8388608 8213924.75
18 compute 11955732052.428
18 allreduce 4116 0
18 compute 57055.006
18 alltoall 4 128
18 compute 101271.802
18 alltoall 8388608 8213924.75
18 compute 11974891913.743
18 allreduce 4116 0
18 compute 66541.943
18 alltoall 4 128
18 compute 28610.868
18 alltoall 8388608 8213924.75
18 compute 11941042655.911
18 allreduce 4116 0
18 compute 66558.616
18 alltoall 4 128
18 compute 18156.897
18 alltoall 8388608 8213924.75
18 compute 11949870109.069
18 allreduce 4116 0
18 compute 61506.697
18 alltoall 4 128
18 compute 15089.065
18 alltoall 8388608 8213924.75
18 compute 11974459082.663
18 allreduce 4116 0
18 compute 60889.796
18 alltoall 4 128
18 compute 13221.689
18 alltoall 8388608 8213924.75
18 compute 11966121348.861
18 allreduce 4116 0
18 compute 68592.722
18 alltoall 4 128
18 compute 13271.708
18 alltoall 8388608 8213924.75
18 compute 11945441676.904
18 allreduce 4116 0
18 compute 61590.062
18 alltoall 4 128
18 compute 12521.423
18 alltoall 8388608 8213924.75
18 compute 3493899994.337
18 reduce 8 0 0
18 compute 51120543227.424
18 irecv 17 0 4
18 compute 53053.486
18 send 19 0 4
18 compute 206611.816
18 wait 18 17 0
18 compute 865999688.212
18 reduce 4 0 0
18 compute 74078.139
18 finalize
18 compute 542372.69
18 compute 28994.347
