# version: 1.0
12 compute 603541992.172
12 compute 1256324705.377
12 init
12 compute 544740.256
12 compute 95969.788
12 compute 47534.723
12 bcast 4 0
12 compute 162794613287.77
12 allreduce 4116 0
12 compute 156042.607
12 alltoall 4 128
12 compute 196524.651
12 alltoall 8388608 8074559.875
12 compute 9824299632.437
12 allreduce 4116 0
12 compute 98487.411
12 alltoall 4 128
12 compute 30294.841
12 alltoall 8388608 8074559.875
12 compute 9795680744.724
12 allreduce 4116 0
12 compute 89534.01
12 alltoall 4 128
12 compute 29111.058
12 alltoall 8388608 8074559.875
12 compute 9802419671.21
12 allreduce 4116 0
12 compute 113609.822
12 alltoall 4 128
12 compute 29061.039
12 alltoall 8388608 8074559.875
12 compute 9796097869.838
12 allreduce 4116 0
12 compute 101972.068
12 alltoall 4 128
12 compute 28627.541
12 alltoall 8388608 8074559.875
12 compute 9870223610.253
12 allreduce 4116 0
12 compute 117527.977
12 alltoall 4 128
12 compute 31195.183
12 alltoall 8388608 8074559.875
12 compute 9815168663.987
12 allreduce 4116 0
12 compute 123880.39
12 alltoall 4 128
12 compute 26726.819
12 alltoall 8388608 8074559.875
12 compute 9855351961.173
12 allreduce 4116 0
12 compute 111642.408
12 alltoall 4 128
12 compute 27643.834
12 alltoall 8388608 8074559.875
12 compute 9816754916.534
12 allreduce 4116 0
12 compute 183903.19
12 alltoall 4 128
12 compute 29027.693
12 alltoall 8388608 8074559.875
12 compute 9796219132.567
12 allreduce 4116 0
12 compute 183119.559
12 alltoall 4 128
12 compute 27727.199
12 alltoall 8388608 8074559.875
12 compute 9810415791.915
12 allreduce 4116 0
12 compute 154658.748
12 alltoall 4 128
12 compute 28977.674
12 alltoall 8388608 8074559.875
12 compute 2880641077.803
12 reduce 8 0 0
12 compute 41656419159.712
12 irecv 11 0 4
12 compute 68209.243
12 send 13 0 4
12 compute 67692.38
12 wait 12 11 0
12 compute 714506275.916
12 reduce 4 0 0
12 compute 87416.539
12 finalize
12 compute 427795.834
12 compute 44917.062
