0 init
0 compute 1.94072
0 bcast 1 0 1 
0 compute 194201
0 allreduce 1029 0 1 
0 compute 0.18342
0 alltoall 1 1 1 1
0 compute 0.05348
0 alltoallv 268435456 8495064 8439580 8263384 8704076 8191408 8289228 8596324 8191532 8696148 8550468 8265660 8532824 8067200 8224732 8324292 8382632 9077004 8321612 8211640 8053052 8513480 8244976 8521980 8670124 8155344 8560528 8243964 8127664 8629796 8191952 8341404 8356384 271817640 8495064 8493156 8496748 8494732 8499184 8491332 8493352 8498132 8496948 8499376 8488144 8503188 8499684 8495968 8501012 8502624 8491088 8498216 8489296 8508304 8495596 8494784 8494236 8482940 8492496 8488220 8485012 8487176 8485904 8494624 8494520 8486584 1 1
0 compute 9747.11
0 compute 7587.57
0 allreduce 1029 0 1 
0 compute 0.08102
0 alltoall 1 1 1 1
0 compute 0.02694
0 alltoallv 268435456 8495064 8439580 8263384 8704076 8191408 8289228 8596324 8191532 8696148 8550468 8265660 8532824 8067200 8224732 8324292 8382632 9077004 8321612 8211640 8053052 8513480 8244976 8521980 8670124 8155344 8560528 8243964 8127664 8629796 8191952 8341404 8356384 271817640 8495064 8493156 8496748 8494732 8499184 8491332 8493352 8498132 8496948 8499376 8488144 8503188 8499684 8495968 8501012 8502624 8491088 8498216 8489296 8508304 8495596 8494784 8494236 8482940 8492496 8488220 8485012 8487176 8485904 8494624 8494520 8486584 1 1
0 compute 17336.9
0 allreduce 1029 0 1 
0 compute 0.08508
0 alltoall 1 1 1 1
0 compute 0.03168
0 alltoallv 268435456 8495068 8439580 8263384 8704076 8191404 8289228 8596324 8191532 8696148 8550468 8265660 8532824 8067200 8224732 8324292 8382632 9077004 8321608 8211640 8053052 8513480 8244976 8521980 8670124 8155344 8560528 8243964 8127664 8629796 8191952 8341404 8356388 271817644 8495068 8493156 8496748 8494732 8499184 8491332 8493352 8498132 8496948 8499376 8488144 8503188 8499684 8495968 8501012 8502624 8491088 8498216 8489296 8508304 8495596 8494784 8494236 8482940 8492496 8488220 8485012 8487176 8485904 8494624 8494520 8486584 1 1
0 compute 17335.6
0 allreduce 1029 0 1 
0 compute 0.07204
0 alltoall 1 1 1 1
0 compute 0.02812
0 alltoallv 268435456 8495072 8439580 8263380 8704076 8191404 8289228 8596324 8191532 8696148 8550468 8265660 8532824 8067200 8224732 8324292 8382632 9077004 8321608 8211640 8053052 8513480 8244976 8521980 8670124 8155344 8560528 8243964 8127660 8629796 8191952 8341404 8356392 271817648 8495072 8493156 8496748 8494732 8499184 8491332 8493352 8498132 8496948 8499376 8488144 8503188 8499684 8495968 8501012 8502624 8491088 8498216 8489296 8508304 8495596 8494784 8494236 8482940 8492496 8488220 8485012 8487176 8485904 8494624 8494520 8486584 1 1
0 compute 17354.9
0 allreduce 1029 0 1 
0 compute 0.07322
0 alltoall 1 1 1 1
0 compute 0.02982
0 alltoallv 268435456 8495076 8439580 8263380 8704076 8191404 8289228 8596324 8191532 8696148 8550468 8265660 8532824 8067200 8224728 8324292 8382632 9077004 8321608 8211640 8053052 8513476 8244976 8521980 8670124 8155344 8560528 8243964 8127660 8629796 8191952 8341404 8356396 271817652 8495076 8493156 8496748 8494732 8499184 8491332 8493352 8498132 8496948 8499376 8488144 8503188 8499684 8495968 8501012 8502624 8491088 8498216 8489296 8508304 8495596 8494784 8494236 8482940 8492496 8488220 8485012 8487176 8485904 8494624 8494520 8486584 1 1
0 compute 17349.5
0 allreduce 1029 0 1 
0 compute 0.07636
0 alltoall 1 1 1 1
0 compute 0.02926
0 alltoallv 268435456 8495076 8439580 8263380 8704076 8191404 8289228 8596324 8191532 8696148 8550468 8265660 8532824 8067200 8224728 8324292 8382632 9077004 8321608 8211640 8053052 8513476 8244976 8521980 8670120 8155344 8560528 8243964 8127660 8629796 8191952 8341404 8356400 271817652 8495076 8493156 8496748 8494732 8499184 8491332 8493352 8498132 8496948 8499376 8488144 8503188 8499684 8495968 8501012 8502624 8491088 8498216 8489296 8508304 8495596 8494784 8494236 8482940 8492496 8488220 8485012 8487176 8485904 8494624 8494520 8486584 1 1
0 compute 17340.8
0 allreduce 1029 0 1 
0 compute 0.07704
0 alltoall 1 1 1 1
0 compute 0.03
0 alltoallv 268435456 8495080 8439580 8263380 8704076 8191404 8289228 8596320 8191532 8696148 8550468 8265656 8532824 8067200 8224728 8324292 8382632 9077004 8321608 8211640 8053052 8513476 8244976 8521980 8670120 8155344 8560528 8243964 8127660 8629796 8191952 8341404 8356404 271817656 8495080 8493156 8496748 8494732 8499184 8491332 8493352 8498132 8496948 8499376 8488144 8503188 8499684 8495968 8501012 8502624 8491088 8498216 8489296 8508304 8495596 8494784 8494236 8482940 8492496 8488220 8485012 8487176 8485904 8494624 8494520 8486584 1 1
0 compute 17338.5
0 allreduce 1029 0 1 
0 compute 0.0746
0 alltoall 1 1 1 1
0 compute 0.02876
0 alltoallv 268435456 8495084 8439580 8263380 8704076 8191404 8289228 8596320 8191532 8696140 8550468 8265656 8532824 8067200 8224728 8324292 8382632 9077004 8321608 8211640 8053052 8513476 8244976 8521980 8670120 8155344 8560528 8243964 8127660 8629796 8191952 8341404 8356408 271817660 8495084 8493156 8496748 8494732 8499184 8491332 8493352 8498132 8496948 8499376 8488144 8503188 8499684 8495968 8501012 8502624 8491088 8498216 8489296 8508304 8495596 8494784 8494236 8482940 8492496 8488220 8485012 8487176 8485904 8494624 8494520 8486584 1 1
0 compute 17337.7
0 allreduce 1029 0 1 
0 compute 0.08728
0 alltoall 1 1 1 1
0 compute 0.02598
0 alltoallv 268435456 8495088 8439580 8263380 8704076 8191404 8289228 8596320 8191532 8696140 8550468 8265656 8532820 8067200 8224728 8324292 8382632 9077004 8321608 8211640 8053048 8513476 8244976 8521980 8670120 8155344 8560528 8243964 8127660 8629796 8191952 8341404 8356412 271817664 8495088 8493156 8496748 8494732 8499184 8491332 8493352 8498132 8496948 8499376 8488144 8503188 8499684 8495968 8501012 8502624 8491088 8498216 8489296 8508304 8495596 8494784 8494236 8482940 8492496 8488220 8485012 8487176 8485904 8494624 8494520 8486584 1 1
0 compute 17345.8
0 allreduce 1029 0 1 
0 compute 0.0772
0 alltoall 1 1 1 1
0 compute 0.02614
0 alltoallv 268435456 8495092 8439580 8263380 8704076 8191404 8289228 8596316 8191532 8696140 8550468 8265656 8532820 8067200 8224728 8324292 8382632 9077004 8321608 8211640 8053048 8513476 8244976 8521976 8670120 8155344 8560528 8243964 8127660 8629796 8191952 8341404 8356416 271817668 8495092 8493156 8496748 8494732 8499184 8491332 8493352 8498132 8496948 8499376 8488144 8503188 8499684 8495968 8501012 8502624 8491088 8498216 8489296 8508304 8495596 8494784 8494236 8482940 8492496 8488220 8485012 8487176 8485904 8494624 8494520 8486584 1 1
0 compute 17322.6
0 allreduce 1029 0 1 
0 compute 0.0804
0 alltoall 1 1 1 1
0 compute 0.02826
0 alltoallv 268435456 8495096 8439580 8263380 8704076 8191404 8289228 8596316 8191532 8696140 8550468 8265648 8532820 8067200 8224728 8324292 8382632 9077004 8321608 8211640 8053048 8513476 8244976 8521976 8670120 8155344 8560528 8243964 8127660 8629796 8191952 8341404 8356420 271817672 8495096 8493156 8496748 8494732 8499184 8491332 8493352 8498132 8496948 8499376 8488144 8503188 8499684 8495968 8501012 8502624 8491088 8498216 8489296 8508304 8495596 8494784 8494236 8482940 8492496 8488220 8485012 8487176 8485904 8494624 8494520 8486584 1 1
0 compute 9772.4
0 compute 0.06158
0 reduce 1 0 0 0 
0 compute 37683.7
0 send 1 1000 1 1
0 compute 1296.54
0 reduce 1 0 0 1 
0 compute 0.45776
0 finalize
