15 init
15 compute 0.20454
15 bcast 1 0 1 
15 compute 194032
15 allreduce 1029 0 1 
15 compute 0.14284
15 alltoall 1 1 1 1
15 compute 0.02422
15 alltoallv 268435456 8502624 8433560 8261672 8694976 8180420 8288400 8602476 8171828 8695552 8548676 8269240 8525648 8072480 8233048 8330536 8387884 9073000 8328596 8214128 8061904 8513912 8242712 8520240 8686524 8156188 8557480 8235828 8128032 8628840 8186760 8344116 8358176 268165112 8382632 8385584 8381372 8383464 8370112 8386412 8396548 8369112 8371760 8390188 8384192 8380960 8385332 8378212 8383020 8387884 8370932 8373912 8386816 8380576 8378224 8380052 8378188 8383388 8375176 8385868 8380300 8373444 8380864 8372684 8377852 8370052 1 1
15 compute 2222.72
15 compute 7707.7
15 allreduce 1029 0 1 
15 compute 0.06908
15 alltoall 1 1 1 1
15 alltoallv 268435456 8502624 8433560 8261672 8694976 8180420 8288400 8602476 8171828 8695552 8548676 8269240 8525648 8072480 8233048 8330536 8387884 9073000 8328596 8214128 8061904 8513912 8242712 8520240 8686524 8156188 8557480 8235828 8128032 8628840 8186760 8344116 8358176 268165112 8382632 8385584 8381372 8383464 8370112 8386412 8396548 8369112 8371760 8390188 8384192 8380960 8385332 8378212 8383020 8387884 8370932 8373912 8386816 8380576 8378224 8380052 8378188 8383388 8375176 8385868 8380300 8373444 8380864 8372684 8377852 8370052 1 1
15 compute 10014.5
15 allreduce 1029 0 1 
15 compute 0.07408
15 alltoall 1 1 1 1
15 alltoallv 268435456 8502624 8433560 8261672 8694976 8180420 8288400 8602476 8171828 8695552 8548676 8269240 8525648 8072480 8233048 8330536 8387884 9073000 8328596 8214128 8061904 8513912 8242712 8520240 8686524 8156188 8557480 8235828 8128032 8628840 8186760 8344116 8358176 268165112 8382632 8385584 8381372 8383464 8370112 8386412 8396548 8369112 8371760 8390188 8384192 8380960 8385332 8378212 8383020 8387884 8370932 8373912 8386816 8380576 8378224 8380052 8378188 8383388 8375176 8385868 8380300 8373444 8380864 8372684 8377852 8370052 1 1
15 compute 9920
15 allreduce 1029 0 1 
15 compute 0.08412
15 alltoall 1 1 1 1
15 alltoallv 268435456 8502624 8433560 8261672 8694976 8180420 8288400 8602476 8171828 8695552 8548676 8269240 8525648 8072480 8233048 8330536 8387884 9073000 8328596 8214128 8061904 8513912 8242712 8520240 8686524 8156188 8557480 8235828 8128032 8628840 8186760 8344116 8358176 268165112 8382632 8385584 8381372 8383464 8370112 8386412 8396548 8369112 8371760 8390188 8384192 8380960 8385332 8378212 8383020 8387884 8370932 8373912 8386816 8380576 8378224 8380052 8378188 8383388 8375176 8385868 8380300 8373444 8380864 8372684 8377852 8370052 1 1
15 compute 10053.8
15 allreduce 1029 0 1 
15 compute 0.06698
15 alltoall 1 1 1 1
15 alltoallv 268435456 8502624 8433560 8261672 8694976 8180420 8288400 8602476 8171828 8695552 8548676 8269240 8525648 8072480 8233048 8330536 8387884 9073000 8328596 8214128 8061904 8513912 8242712 8520240 8686524 8156188 8557480 8235828 8128032 8628840 8186760 8344116 8358176 268165112 8382632 8385584 8381372 8383464 8370112 8386412 8396548 8369112 8371760 8390188 8384192 8380960 8385332 8378212 8383020 8387884 8370932 8373912 8386816 8380576 8378224 8380052 8378188 8383388 8375176 8385868 8380300 8373444 8380864 8372684 8377852 8370052 1 1
15 compute 9944.39
15 allreduce 1029 0 1 
15 compute 0.07948
15 alltoall 1 1 1 1
15 compute 0.02058
15 alltoallv 268435456 8502624 8433560 8261672 8694976 8180420 8288400 8602476 8171828 8695552 8548676 8269240 8525648 8072480 8233048 8330536 8387884 9073000 8328596 8214128 8061904 8513912 8242712 8520240 8686524 8156188 8557480 8235828 8128032 8628840 8186760 8344116 8358176 268165112 8382632 8385584 8381372 8383464 8370112 8386412 8396548 8369112 8371760 8390188 8384192 8380960 8385332 8378212 8383020 8387884 8370932 8373912 8386816 8380576 8378224 8380052 8378188 8383388 8375176 8385868 8380300 8373444 8380864 8372684 8377852 8370052 1 1
15 compute 9856.31
15 allreduce 1029 0 1 
15 compute 0.07046
15 alltoall 1 1 1 1
15 compute 0.0405
15 alltoallv 268435456 8502624 8433560 8261672 8694976 8180420 8288400 8602476 8171828 8695552 8548676 8269240 8525648 8072480 8233048 8330536 8387884 9073000 8328596 8214128 8061904 8513912 8242712 8520240 8686524 8156188 8557480 8235828 8128032 8628840 8186760 8344116 8358176 268165112 8382632 8385584 8381372 8383464 8370112 8386412 8396548 8369112 8371760 8390188 8384192 8380960 8385332 8378212 8383020 8387884 8370932 8373912 8386816 8380576 8378224 8380052 8378188 8383388 8375176 8385868 8380300 8373444 8380864 8372684 8377852 8370052 1 1
15 compute 9955.71
15 allreduce 1029 0 1 
15 compute 0.06866
15 alltoall 1 1 1 1
15 compute 0.02046
15 alltoallv 268435456 8502624 8433560 8261672 8694976 8180420 8288400 8602476 8171828 8695552 8548676 8269240 8525648 8072480 8233048 8330536 8387884 9073000 8328596 8214128 8061904 8513912 8242712 8520240 8686524 8156188 8557480 8235828 8128032 8628840 8186760 8344116 8358176 268165112 8382632 8385584 8381372 8383464 8370112 8386412 8396548 8369112 8371760 8390188 8384192 8380960 8385332 8378212 8383020 8387884 8370932 8373912 8386816 8380576 8378224 8380052 8378188 8383388 8375176 8385868 8380300 8373444 8380864 8372684 8377852 8370052 1 1
15 compute 9995.89
15 allreduce 1029 0 1 
15 compute 0.06688
15 alltoall 1 1 1 1
15 compute 0.02294
15 alltoallv 268435456 8502624 8433560 8261672 8694976 8180420 8288400 8602476 8171828 8695552 8548676 8269240 8525648 8072480 8233048 8330536 8387884 9073000 8328596 8214128 8061904 8513912 8242712 8520240 8686524 8156188 8557480 8235828 8128032 8628840 8186760 8344116 8358176 268165112 8382632 8385584 8381372 8383464 8370112 8386412 8396548 8369112 8371760 8390188 8384192 8380960 8385332 8378212 8383020 8387884 8370932 8373912 8386816 8380576 8378224 8380052 8378188 8383388 8375176 8385868 8380300 8373444 8380864 8372684 8377852 8370052 1 1
15 compute 9989.82
15 allreduce 1029 0 1 
15 compute 0.07042
15 alltoall 1 1 1 1
15 alltoallv 268435456 8502624 8433560 8261672 8694976 8180420 8288400 8602476 8171828 8695552 8548676 8269240 8525648 8072480 8233048 8330536 8387884 9073000 8328596 8214128 8061904 8513912 8242712 8520240 8686524 8156188 8557480 8235828 8128032 8628840 8186760 8344116 8358176 268165112 8382632 8385584 8381372 8383464 8370112 8386412 8396548 8369112 8371760 8390188 8384192 8380960 8385332 8378212 8383020 8387884 8370932 8373912 8386816 8380576 8378224 8380052 8378188 8383388 8375176 8385868 8380300 8373444 8380864 8372684 8377852 8370052 1 1
15 compute 9898.2
15 allreduce 1029 0 1 
15 compute 0.06606
15 alltoall 1 1 1 1
15 alltoallv 268435456 8502624 8433560 8261672 8694976 8180420 8288400 8602476 8171828 8695552 8548676 8269240 8525648 8072480 8233048 8330536 8387884 9073000 8328596 8214128 8061904 8513912 8242712 8520240 8686524 8156188 8557480 8235828 8128032 8628840 8186760 8344116 8358176 268165112 8382632 8385584 8381372 8383464 8370112 8386412 8396548 8369112 8371760 8390188 8384192 8380960 8385332 8378212 8383020 8387884 8370932 8373912 8386816 8380576 8378224 8380052 8378188 8383388 8375176 8385868 8380300 8373444 8380864 8372684 8377852 8370052 1 1
15 compute 2320.16
15 compute 0.06124
15 reduce 1 0 0 0 
15 compute 36787
15 irecv 14 1000 1 1
15 compute 0.05338
15 send 16 1000 1 1
15 compute 0.0374
15 wait 15 16 1000
15 compute 1281.89
15 reduce 1 0 0 1 
15 compute 0.04482
15 finalize
