5 init
5 compute 0.09234
5 compute 0.11814
5 bcast 1 0 1 
5 compute 0.0214
5 bcast 1 0 1 
5 compute 0.02056
5 bcast 1 0 1 
5 compute 0.02114
5 bcast 1 0 1 
5 compute 0.02012
5 bcast 1 0 16 
5 compute 0.0209
5 compute 475514
5 alltoall 536870912 536870912 26 26
5 compute 112682
5 compute 0.04534
5 barrier
5 compute 0.03968
5 compute 390410
5 alltoall 536870912 536870912 26 26
5 compute 296878
5 alltoall 536870912 536870912 26 26
5 compute 251577
5 reduce 16 0 0 26 
5 compute 155492
5 alltoall 536870912 536870912 26 26
5 compute 251649
5 reduce 16 0 0 26 
5 compute 155731
5 alltoall 536870912 536870912 26 26
5 compute 251632
5 reduce 16 0 0 26 
5 compute 155639
5 alltoall 536870912 536870912 26 26
5 compute 251547
5 reduce 16 0 0 26 
5 compute 155647
5 alltoall 536870912 536870912 26 26
5 compute 251517
5 reduce 16 0 0 26 
5 compute 155503
5 alltoall 536870912 536870912 26 26
5 compute 251523
5 reduce 16 0 0 26 
5 compute 155522
5 alltoall 536870912 536870912 26 26
5 compute 251542
5 reduce 16 0 0 26 
5 compute 155625
5 alltoall 536870912 536870912 26 26
5 compute 251531
5 reduce 16 0 0 26 
5 compute 155603
5 alltoall 536870912 536870912 26 26
5 compute 251552
5 reduce 16 0 0 26 
5 compute 155732
5 alltoall 536870912 536870912 26 26
5 compute 251532
5 reduce 16 0 0 26 
5 compute 155518
5 alltoall 536870912 536870912 26 26
5 compute 251538
5 reduce 16 0 0 26 
5 compute 155501
5 alltoall 536870912 536870912 26 26
5 compute 251549
5 reduce 16 0 0 26 
5 compute 155890
5 alltoall 536870912 536870912 26 26
5 compute 251547
5 reduce 16 0 0 26 
5 compute 158984
5 alltoall 536870912 536870912 26 26
5 compute 251648
5 reduce 16 0 0 26 
5 compute 165497
5 alltoall 536870912 536870912 26 26
5 compute 251587
5 reduce 16 0 0 26 
5 compute 228492
5 alltoall 536870912 536870912 26 26
5 compute 251573
5 reduce 16 0 0 26 
5 compute 307768
5 alltoall 536870912 536870912 26 26
5 compute 257671
5 reduce 16 0 0 26 
5 compute 319239
5 alltoall 536870912 536870912 26 26
5 compute 345764
5 reduce 16 0 0 26 
5 compute 314617
5 alltoall 536870912 536870912 26 26
5 compute 370185
5 reduce 16 0 0 26 
5 compute 310502
5 alltoall 536870912 536870912 26 26
5 compute 368204
5 reduce 16 0 0 26 
5 compute 306560
5 alltoall 536870912 536870912 26 26
5 compute 364535
5 reduce 16 0 0 26 
5 compute 303159
5 alltoall 536870912 536870912 26 26
5 compute 361997
5 reduce 16 0 0 26 
5 compute 299840
5 alltoall 536870912 536870912 26 26
5 compute 360568
5 reduce 16 0 0 26 
5 compute 296941
5 alltoall 536870912 536870912 26 26
5 compute 357720
5 reduce 16 0 0 26 
5 compute 294179
5 alltoall 536870912 536870912 26 26
5 compute 355358
5 reduce 16 0 0 26 
5 compute 0.10288
5 compute 0.07494
5 finalize
