7 init
7 compute 0.1991
7 compute 0.10826
7 bcast 1 0 1 
7 compute 0.02428
7 bcast 1 0 1 
7 compute 0.02022
7 bcast 1 0 1 
7 compute 0.02072
7 bcast 1 0 1 
7 bcast 1 0 16 
7 compute 0.0205
7 compute 474960
7 alltoall 536870912 536870912 26 26
7 compute 112413
7 compute 0.0348
7 barrier
7 compute 0.03214
7 compute 390143
7 alltoall 536870912 536870912 26 26
7 compute 316042
7 alltoall 536870912 536870912 26 26
7 compute 278533
7 reduce 16 0 0 26 
7 compute 161734
7 alltoall 536870912 536870912 26 26
7 compute 278582
7 reduce 16 0 0 26 
7 compute 161611
7 alltoall 536870912 536870912 26 26
7 compute 279204
7 reduce 16 0 0 26 
7 compute 161645
7 alltoall 536870912 536870912 26 26
7 compute 278478
7 reduce 16 0 0 26 
7 compute 161514
7 alltoall 536870912 536870912 26 26
7 compute 278786
7 reduce 16 0 0 26 
7 compute 161917
7 alltoall 536870912 536870912 26 26
7 compute 278813
7 reduce 16 0 0 26 
7 compute 161872
7 alltoall 536870912 536870912 26 26
7 compute 278521
7 reduce 16 0 0 26 
7 compute 161740
7 alltoall 536870912 536870912 26 26
7 compute 278588
7 reduce 16 0 0 26 
7 compute 162417
7 alltoall 536870912 536870912 26 26
7 compute 278895
7 reduce 16 0 0 26 
7 compute 162194
7 alltoall 536870912 536870912 26 26
7 compute 279490
7 reduce 16 0 0 26 
7 compute 161817
7 alltoall 536870912 536870912 26 26
7 compute 279572
7 reduce 16 0 0 26 
7 compute 161782
7 alltoall 536870912 536870912 26 26
7 compute 278869
7 reduce 16 0 0 26 
7 compute 161398
7 alltoall 536870912 536870912 26 26
7 compute 279018
7 reduce 16 0 0 26 
7 compute 161888
7 alltoall 536870912 536870912 26 26
7 compute 279163
7 reduce 16 0 0 26 
7 compute 165134
7 alltoall 536870912 536870912 26 26
7 compute 278348
7 reduce 16 0 0 26 
7 compute 168537
7 alltoall 536870912 536870912 26 26
7 compute 278787
7 reduce 16 0 0 26 
7 compute 180745
7 alltoall 536870912 536870912 26 26
7 compute 284746
7 reduce 16 0 0 26 
7 compute 296650
7 alltoall 536870912 536870912 26 26
7 compute 373281
7 reduce 16 0 0 26 
7 compute 312288
7 alltoall 536870912 536870912 26 26
7 compute 397311
7 reduce 16 0 0 26 
7 compute 308181
7 alltoall 536870912 536870912 26 26
7 compute 396148
7 reduce 16 0 0 26 
7 compute 304632
7 alltoall 536870912 536870912 26 26
7 compute 392066
7 reduce 16 0 0 26 
7 compute 300763
7 alltoall 536870912 536870912 26 26
7 compute 390121
7 reduce 16 0 0 26 
7 compute 296856
7 alltoall 536870912 536870912 26 26
7 compute 388015
7 reduce 16 0 0 26 
7 compute 293063
7 alltoall 536870912 536870912 26 26
7 compute 385329
7 reduce 16 0 0 26 
7 compute 291027
7 alltoall 536870912 536870912 26 26
7 compute 383354
7 reduce 16 0 0 26 
7 compute 0.07368
7 compute 0.04344
7 finalize
