B 0 "400000-415000 0 /nix/store/nf55qlxbya44af8jsf6xdbpba33mhy23-NPB-3.1/bin/lu.C.16"
B 0 "7fe10ff90000-7fe1100ad000 0 /nix/store/j3r8qbyr9pindh4fdn5mw3zp0qxks3nx-papi-5.6.0/lib/libpfm.so.4.8.0"
B 0 "7fe110374000-7fe11038a000 0 /nix/store/r43dk927l97n78rff7hnvsq49f3szkg6-zlib-1.2.11/lib/libz.so.1.2.11"
B 0 "7fe11058b000-7fe11058d000 0 /nix/store/2kcrj1ksd2a14bm5sky182fv2xwfhfap-glibc-2.26-131/lib/libutil-2.26.so"
B 0 "7fe11078e000-7fe1107f9000 0 /nix/store/c5xfsp7mvyaasv8f638vrbhv9vjnjj4j-libnl-3.3.0/lib/libnl-route-3.so.200.25.0"
B 0 "7fe110a02000-7fe110a21000 0 /nix/store/c5xfsp7mvyaasv8f638vrbhv9vjnjj4j-libnl-3.3.0/lib/libnl-3.so.200.25.0"
B 0 "7fe110c23000-7fe110c37000 0 /nix/store/jfz41csbqcwqh2pdanaqwbjlg4ia8mmp-rdma-core-17/lib/libibverbs.so.1.1.17.0"
B 0 "7fe110e39000-7fe110e4e000 0 /nix/store/jfz41csbqcwqh2pdanaqwbjlg4ia8mmp-rdma-core-17/lib/librdmacm.so.1.1.17.0"
B 0 "7fe11104f000-7fe111256000 0 /nix/store/zllrk0d9l55dzn6kvl6apr3yd7bflg9v-openmpi-3.0.0/lib/libopen-pal.so.40.0.0"
B 0 "7fe111474000-7fe11159e000 0 /nix/store/zllrk0d9l55dzn6kvl6apr3yd7bflg9v-openmpi-3.0.0/lib/libopen-rte.so.40.0.0"
B 0 "7fe1117ae000-7fe1117b5000 0 /nix/store/2kcrj1ksd2a14bm5sky182fv2xwfhfap-glibc-2.26-131/lib/librt-2.26.so"
B 0 "7fe1119b6000-7fe1119b9000 0 /nix/store/2kcrj1ksd2a14bm5sky182fv2xwfhfap-glibc-2.26-131/lib/libdl-2.26.so"
B 0 "7fe111bba000-7fe111d13000 0 /nix/store/pxy47wnmlfr4hjcvldv7ggk34skpgaw6-libxml2-2.9.7/lib/libxml2.so.2.9.7"
B 0 "7fe111f1e000-7fe111f69000 0 /nix/store/j3r8qbyr9pindh4fdn5mw3zp0qxks3nx-papi-5.6.0/lib/libpapi.so.5.6.0.0"
B 0 "7fe112178000-7fe112321000 0 /nix/store/2kcrj1ksd2a14bm5sky182fv2xwfhfap-glibc-2.26-131/lib/libc-2.26.so"
B 0 "7fe11252a000-7fe112543000 0 /nix/store/2kcrj1ksd2a14bm5sky182fv2xwfhfap-glibc-2.26-131/lib/libpthread-2.26.so"
B 0 "7fe112748000-7fe112786000 0 /nix/store/irh4sy0gay53xk046lwncrrr3dvj71wv-gfortran-7.3.0-lib/lib/libquadmath.so.0.0.0"
B 0 "7fe112987000-7fe11299d000 0 /nix/store/2kcrj1ksd2a14bm5sky182fv2xwfhfap-glibc-2.26-131/lib/libgcc_s.so.1"
B 0 "7fe112b9d000-7fe112ce8000 0 /nix/store/2kcrj1ksd2a14bm5sky182fv2xwfhfap-glibc-2.26-131/lib/libm-2.26.so"
B 0 "7fe112ee9000-7fe1130b8000 0 /nix/store/irh4sy0gay53xk046lwncrrr3dvj71wv-gfortran-7.3.0-lib/lib/libgfortran.so.4.0.0"
B 0 "7fe1132ba000-7fe11330f000 0 /nix/store/zllrk0d9l55dzn6kvl6apr3yd7bflg9v-openmpi-3.0.0/lib/libmpi_mpifh.so.40.0.0"
B 0 "7fe113511000-7fe113516000 0 /nix/store/zllrk0d9l55dzn6kvl6apr3yd7bflg9v-openmpi-3.0.0/lib/libmpi_usempi_ignore_tkr.so.40.0.0"
B 0 "7fe113717000-7fe113746000 0 /nix/store/zllrk0d9l55dzn6kvl6apr3yd7bflg9v-openmpi-3.0.0/lib/libmpi_usempif08.so.40.0.0"
B 0 "7fe113948000-7fe113b66000 0 /nix/store/zllrk0d9l55dzn6kvl6apr3yd7bflg9v-openmpi-3.0.0/lib/libmpi.so.40.0.0"
B 0 "7fe113d98000-7fe113e82000 0 /nix/store/7y06dglddhr03nsp1niw3xlx70ga0r2d-extrae-3.6.1/lib/libmpitracef-3.6.1.so"
B 0 "7fe115a3b000-7fe115a60000 0 /nix/store/2kcrj1ksd2a14bm5sky182fv2xwfhfap-glibc-2.26-131/lib/ld-2.26.so"
