1 init
1 compute 0.08122
1 compute 0.10626
1 bcast 1 0 1 
1 compute 0.02168
1 bcast 1 0 1 
1 bcast 1 0 1 
1 compute 0.02144
1 bcast 1 0 1 
1 bcast 1 0 16 
1 compute 0.02758
1 compute 470916
1 alltoall 536870912 536870912 26 26
1 compute 112197
1 compute 0.11476
1 barrier
1 compute 0.06664
1 compute 387742
1 alltoall 536870912 536870912 26 26
1 compute 299973
1 alltoall 536870912 536870912 26 26
1 compute 253955
1 reduce 16 0 0 26 
1 compute 155893
1 alltoall 536870912 536870912 26 26
1 compute 254207
1 reduce 16 0 0 26 
1 compute 155866
1 alltoall 536870912 536870912 26 26
1 compute 253905
1 reduce 16 0 0 26 
1 compute 155973
1 alltoall 536870912 536870912 26 26
1 compute 253947
1 reduce 16 0 0 26 
1 compute 155852
1 alltoall 536870912 536870912 26 26
1 compute 253897
1 reduce 16 0 0 26 
1 compute 155862
1 alltoall 536870912 536870912 26 26
1 compute 253860
1 reduce 16 0 0 26 
1 compute 155995
1 alltoall 536870912 536870912 26 26
1 compute 254095
1 reduce 16 0 0 26 
1 compute 155860
1 alltoall 536870912 536870912 26 26
1 compute 253962
1 reduce 16 0 0 26 
1 compute 155988
1 alltoall 536870912 536870912 26 26
1 compute 253864
1 reduce 16 0 0 26 
1 compute 155767
1 alltoall 536870912 536870912 26 26
1 compute 253857
1 reduce 16 0 0 26 
1 compute 155708
1 alltoall 536870912 536870912 26 26
1 compute 253887
1 reduce 16 0 0 26 
1 compute 155728
1 alltoall 536870912 536870912 26 26
1 compute 253866
1 reduce 16 0 0 26 
1 compute 155950
1 alltoall 536870912 536870912 26 26
1 compute 254127
1 reduce 16 0 0 26 
1 compute 156545
1 alltoall 536870912 536870912 26 26
1 compute 254160
1 reduce 16 0 0 26 
1 compute 160105
1 alltoall 536870912 536870912 26 26
1 compute 253970
1 reduce 16 0 0 26 
1 compute 166008
1 alltoall 536870912 536870912 26 26
1 compute 253904
1 reduce 16 0 0 26 
1 compute 224322
1 alltoall 536870912 536870912 26 26
1 compute 260124
1 reduce 16 0 0 26 
1 compute 311254
1 alltoall 536870912 536870912 26 26
1 compute 348244
1 reduce 16 0 0 26 
1 compute 309234
1 alltoall 536870912 536870912 26 26
1 compute 372742
1 reduce 16 0 0 26 
1 compute 304725
1 alltoall 536870912 536870912 26 26
1 compute 370811
1 reduce 16 0 0 26 
1 compute 300565
1 alltoall 536870912 536870912 26 26
1 compute 367050
1 reduce 16 0 0 26 
1 compute 296947
1 alltoall 536870912 536870912 26 26
1 compute 364333
1 reduce 16 0 0 26 
1 compute 293552
1 alltoall 536870912 536870912 26 26
1 compute 362892
1 reduce 16 0 0 26 
1 compute 290346
1 alltoall 536870912 536870912 26 26
1 compute 360104
1 reduce 16 0 0 26 
1 compute 287493
1 alltoall 536870912 536870912 26 26
1 compute 357890
1 reduce 16 0 0 26 
1 compute 0.04892
1 compute 0.033
1 finalize
