# version: 1.0
1 compute 259726358.526
1 compute 1788577367.894
1 init
1 compute 1009033.287
1 compute 112976.248
1 compute 161711.427
1 bcast 4 0
1 compute 86182.737
1 bcast 4 0
1 compute 39064.839
1 bcast 4 0
1 compute 36313.794
1 bcast 4 0
1 compute 35780.258
1 bcast 4 0
1 compute 57605.215
1 compute 57521.85
1 compute 619626887143.646
1 alltoall 536870912 0
1 compute 150517772960.548
1 barrier
1 compute 520701129318.459
1 alltoall 536870912 0
1 compute 399492344942.963
1 alltoall 536870912 0
1 compute 346406901036.905
1 reduce 16 0 0
1 compute 210464437123.253
1 alltoall 536870912 0
1 compute 345577299424.708
1 reduce 16 0 0
1 compute 210142592635.471
1 alltoall 536870912 0
1 compute 346321874622.474
1 reduce 16 0 0
1 compute 210581241925.551
1 alltoall 536870912 0
1 compute 346355042104.663
1 reduce 16 0 0
1 compute 210596121677.709
1 alltoall 536870912 0
1 compute 344355639036.768
1 reduce 16 0 0
1 compute 210382079872.719
1 alltoall 536870912 0
1 compute 345411583026.397
1 reduce 16 0 0
1 compute 210442079063.751
1 alltoall 536870912 0
1 compute 344041162847.876
1 reduce 16 0 0
1 compute 210178376461.493
1 alltoall 536870912 0
1 compute 346567496223.228
1 reduce 16 0 0
1 compute 210674414934.512
1 alltoall 536870912 0
1 compute 347184967156.387
1 reduce 16 0 0
1 compute 210777073396.576
1 alltoall 536870912 0
1 compute 344981090968.221
1 reduce 16 0 0
1 compute 210439722085.106
1 alltoall 536870912 0
1 compute 345589315255.656
1 reduce 16 0 0
1 compute 210475898643.643
1 alltoall 536870912 0
1 compute 346630767190.396
1 reduce 16 0 0
1 compute 210347364135.75
1 alltoall 536870912 0
1 compute 345317993775.991
1 reduce 16 0 0
1 compute 210229989216.89
1 alltoall 536870912 0
1 compute 346705072215.58
1 reduce 16 0 0
1 compute 214816477020.218
1 alltoall 536870912 0
1 compute 348292191074.987
1 reduce 16 0 0
1 compute 221563569524.793
1 alltoall 536870912 0
1 compute 346027275584.03
1 reduce 16 0 0
1 compute 288272398800.822
1 alltoall 536870912 0
1 compute 348219704540.567
1 reduce 16 0 0
1 compute 385445368886.341
1 alltoall 536870912 0
1 compute 443089590486.552
1 reduce 16 0 0
1 compute 381193145438.552
1 alltoall 536870912 0
1 compute 471535320674.687
1 reduce 16 0 0
1 compute 376445592020.206
1 alltoall 536870912 0
1 compute 472400219077.903
1 reduce 16 0 0
1 compute 373306467939.506
1 alltoall 536870912 0
1 compute 464484488843.011
1 reduce 16 0 0
1 compute 367195732675.494
1 alltoall 536870912 0
1 compute 461745102371.569
1 reduce 16 0 0
1 compute 363568062100.979
1 alltoall 536870912 0
1 compute 459921598019.796
1 reduce 16 0 0
1 compute 360168696566.091
1 alltoall 536870912 0
1 compute 456099570767.798
1 reduce 16 0 0
1 compute 356868331687.162
1 alltoall 536870912 0
1 compute 455065833480.177
1 reduce 16 0 0
1 compute 158760.306
1 finalize
1 compute 982206.43
1 compute 173115.759
