27 init
27 compute 0.09228
27 compute 0.12262
27 bcast 1 0 1 
27 compute 0.02454
27 bcast 1 0 1 
27 bcast 1 0 1 
27 bcast 1 0 1 
27 bcast 1 0 16 
27 compute 0.02434
27 compute 0.02416
27 compute 116403
27 alltoall 33554432 33554432 26 26
27 compute 28912.9
27 compute 0.05636
27 barrier
27 compute 0.0403
27 compute 95046.2
27 alltoall 33554432 33554432 26 26
27 compute 78864.6
27 alltoall 33554432 33554432 26 26
27 compute 69128.2
27 reduce 16 0 0 26 
27 compute 40074.3
27 alltoall 33554432 33554432 26 26
27 compute 69042.4
27 reduce 16 0 0 26 
27 compute 40051.8
27 alltoall 33554432 33554432 26 26
27 compute 69200.4
27 reduce 16 0 0 26 
27 compute 40115.4
27 alltoall 33554432 33554432 26 26
27 compute 69144.6
27 reduce 16 0 0 26 
27 compute 40379.1
27 alltoall 33554432 33554432 26 26
27 compute 69075.4
27 reduce 16 0 0 26 
27 compute 40168.9
27 alltoall 33554432 33554432 26 26
27 compute 69018.3
27 reduce 16 0 0 26 
27 compute 40155.3
27 alltoall 33554432 33554432 26 26
27 compute 69158.6
27 reduce 16 0 0 26 
27 compute 40218.7
27 alltoall 33554432 33554432 26 26
27 compute 69274.4
27 reduce 16 0 0 26 
27 compute 40295.4
27 alltoall 33554432 33554432 26 26
27 compute 69244.4
27 reduce 16 0 0 26 
27 compute 40124.1
27 alltoall 33554432 33554432 26 26
27 compute 69388.1
27 reduce 16 0 0 26 
27 compute 40224
27 alltoall 33554432 33554432 26 26
27 compute 69300.4
27 reduce 16 0 0 26 
27 compute 40322
27 alltoall 33554432 33554432 26 26
27 compute 69159.3
27 reduce 16 0 0 26 
27 compute 40194.8
27 alltoall 33554432 33554432 26 26
27 compute 69386.4
27 reduce 16 0 0 26 
27 compute 40258.6
27 alltoall 33554432 33554432 26 26
27 compute 69029.1
27 reduce 16 0 0 26 
27 compute 41118.2
27 alltoall 33554432 33554432 26 26
27 compute 69452.2
27 reduce 16 0 0 26 
27 compute 41929.8
27 alltoall 33554432 33554432 26 26
27 compute 69340.7
27 reduce 16 0 0 26 
27 compute 47603.9
27 alltoall 33554432 33554432 26 26
27 compute 70451
27 reduce 16 0 0 26 
27 compute 78493.6
27 alltoall 33554432 33554432 26 26
27 compute 92702.3
27 reduce 16 0 0 26 
27 compute 78188.1
27 alltoall 33554432 33554432 26 26
27 compute 99054.5
27 reduce 16 0 0 26 
27 compute 76926.9
27 alltoall 33554432 33554432 26 26
27 compute 98646
27 reduce 16 0 0 26 
27 compute 75880.2
27 alltoall 33554432 33554432 26 26
27 compute 97597.2
27 reduce 16 0 0 26 
27 compute 75305.9
27 alltoall 33554432 33554432 26 26
27 compute 96922.4
27 reduce 16 0 0 26 
27 compute 74371.7
27 alltoall 33554432 33554432 26 26
27 compute 96474.4
27 reduce 16 0 0 26 
27 compute 73598.9
27 alltoall 33554432 33554432 26 26
27 compute 95757.7
27 reduce 16 0 0 26 
27 compute 72626.4
27 alltoall 33554432 33554432 26 26
27 compute 95295.4
27 reduce 16 0 0 26 
27 compute 0.06274
27 compute 0.04778
27 finalize
