29 init
29 compute 0.0871
29 compute 0.17594
29 bcast 1 0 1 
29 compute 0.02458
29 bcast 1 0 1 
29 compute 0.02238
29 bcast 1 0 1 
29 compute 0.02286
29 bcast 1 0 1 
29 compute 0.02544
29 bcast 1 0 16 
29 compute 0.02338
29 compute 0.0209
29 compute 116366
29 alltoall 33554432 33554432 26 26
29 compute 28833.7
29 compute 0.14098
29 barrier
29 compute 0.03486
29 compute 95120.7
29 alltoall 33554432 33554432 26 26
29 compute 79095.9
29 alltoall 33554432 33554432 26 26
29 compute 69410.2
29 reduce 16 0 0 26 
29 compute 39796.1
29 alltoall 33554432 33554432 26 26
29 compute 69357.6
29 reduce 16 0 0 26 
29 compute 39834.6
29 alltoall 33554432 33554432 26 26
29 compute 69561.1
29 reduce 16 0 0 26 
29 compute 39775.2
29 alltoall 33554432 33554432 26 26
29 compute 69232.4
29 reduce 16 0 0 26 
29 compute 39792.9
29 alltoall 33554432 33554432 26 26
29 compute 69414.6
29 reduce 16 0 0 26 
29 compute 39995.7
29 alltoall 33554432 33554432 26 26
29 compute 69440.8
29 reduce 16 0 0 26 
29 compute 39806.8
29 alltoall 33554432 33554432 26 26
29 compute 69616.8
29 reduce 16 0 0 26 
29 compute 40035.7
29 alltoall 33554432 33554432 26 26
29 compute 69170.7
29 reduce 16 0 0 26 
29 compute 39747.1
29 alltoall 33554432 33554432 26 26
29 compute 69346.2
29 reduce 16 0 0 26 
29 compute 39979.3
29 alltoall 33554432 33554432 26 26
29 compute 69620.2
29 reduce 16 0 0 26 
29 compute 40007
29 alltoall 33554432 33554432 26 26
29 compute 69538.8
29 reduce 16 0 0 26 
29 compute 40047.5
29 alltoall 33554432 33554432 26 26
29 compute 69107.6
29 reduce 16 0 0 26 
29 compute 39760.7
29 alltoall 33554432 33554432 26 26
29 compute 69578.9
29 reduce 16 0 0 26 
29 compute 39842.1
29 alltoall 33554432 33554432 26 26
29 compute 69276.2
29 reduce 16 0 0 26 
29 compute 40552.8
29 alltoall 33554432 33554432 26 26
29 compute 69350.9
29 reduce 16 0 0 26 
29 compute 41547
29 alltoall 33554432 33554432 26 26
29 compute 69139.7
29 reduce 16 0 0 26 
29 compute 44609.2
29 alltoall 33554432 33554432 26 26
29 compute 71006
29 reduce 16 0 0 26 
29 compute 74375.8
29 alltoall 33554432 33554432 26 26
29 compute 92895.8
29 reduce 16 0 0 26 
29 compute 77438
29 alltoall 33554432 33554432 26 26
29 compute 98912
29 reduce 16 0 0 26 
29 compute 76332.8
29 alltoall 33554432 33554432 26 26
29 compute 98282.6
29 reduce 16 0 0 26 
29 compute 75570.9
29 alltoall 33554432 33554432 26 26
29 compute 97587.4
29 reduce 16 0 0 26 
29 compute 74380.6
29 alltoall 33554432 33554432 26 26
29 compute 97197
29 reduce 16 0 0 26 
29 compute 73751.6
29 alltoall 33554432 33554432 26 26
29 compute 96678.7
29 reduce 16 0 0 26 
29 compute 72677.9
29 alltoall 33554432 33554432 26 26
29 compute 95872.8
29 reduce 16 0 0 26 
29 compute 72063.6
29 alltoall 33554432 33554432 26 26
29 compute 95138
29 reduce 16 0 0 26 
29 compute 0.07628
29 compute 0.04032
29 finalize
