4 init
4 compute 0.09114
4 compute 0.1211
4 bcast 1 0 1 
4 compute 0.02722
4 bcast 1 0 1 
4 compute 0.02308
4 bcast 1 0 1 
4 compute 0.02182
4 bcast 1 0 1 
4 compute 0.0231
4 bcast 1 0 16 
4 compute 0.03308
4 compute 0.03092
4 compute 115933
4 alltoall 33554432 33554432 26 26
4 compute 28847
4 compute 0.08872
4 barrier
4 compute 0.0721
4 compute 94380.8
4 alltoall 33554432 33554432 26 26
4 compute 78484.3
4 alltoall 33554432 33554432 26 26
4 compute 69345.2
4 reduce 16 0 0 26 
4 compute 40257.4
4 alltoall 33554432 33554432 26 26
4 compute 69829.7
4 reduce 16 0 0 26 
4 compute 40236.6
4 alltoall 33554432 33554432 26 26
4 compute 69752.6
4 reduce 16 0 0 26 
4 compute 40267.4
4 alltoall 33554432 33554432 26 26
4 compute 69630.1
4 reduce 16 0 0 26 
4 compute 39962.3
4 alltoall 33554432 33554432 26 26
4 compute 69767.8
4 reduce 16 0 0 26 
4 compute 40210.4
4 alltoall 33554432 33554432 26 26
4 compute 69882.2
4 reduce 16 0 0 26 
4 compute 39985.9
4 alltoall 33554432 33554432 26 26
4 compute 69325.5
4 reduce 16 0 0 26 
4 compute 39984.3
4 alltoall 33554432 33554432 26 26
4 compute 69813.8
4 reduce 16 0 0 26 
4 compute 40105.8
4 alltoall 33554432 33554432 26 26
4 compute 69390.3
4 reduce 16 0 0 26 
4 compute 40097.2
4 alltoall 33554432 33554432 26 26
4 compute 69792.9
4 reduce 16 0 0 26 
4 compute 39998.9
4 alltoall 33554432 33554432 26 26
4 compute 69388
4 reduce 16 0 0 26 
4 compute 40237.3
4 alltoall 33554432 33554432 26 26
4 compute 69763.6
4 reduce 16 0 0 26 
4 compute 40041.5
4 alltoall 33554432 33554432 26 26
4 compute 69735.4
4 reduce 16 0 0 26 
4 compute 40257.6
4 alltoall 33554432 33554432 26 26
4 compute 69624.8
4 reduce 16 0 0 26 
4 compute 40845.7
4 alltoall 33554432 33554432 26 26
4 compute 69651.9
4 reduce 16 0 0 26 
4 compute 41906.1
4 alltoall 33554432 33554432 26 26
4 compute 69697.1
4 reduce 16 0 0 26 
4 compute 47425.2
4 alltoall 33554432 33554432 26 26
4 compute 71206.9
4 reduce 16 0 0 26 
4 compute 78354.9
4 alltoall 33554432 33554432 26 26
4 compute 93210.9
4 reduce 16 0 0 26 
4 compute 78107.4
4 alltoall 33554432 33554432 26 26
4 compute 99098.1
4 reduce 16 0 0 26 
4 compute 76837.6
4 alltoall 33554432 33554432 26 26
4 compute 98573
4 reduce 16 0 0 26 
4 compute 75932.5
4 alltoall 33554432 33554432 26 26
4 compute 97667.3
4 reduce 16 0 0 26 
4 compute 75086.4
4 alltoall 33554432 33554432 26 26
4 compute 97358.4
4 reduce 16 0 0 26 
4 compute 74253.3
4 alltoall 33554432 33554432 26 26
4 compute 96841.9
4 reduce 16 0 0 26 
4 compute 73457
4 alltoall 33554432 33554432 26 26
4 compute 96227.8
4 reduce 16 0 0 26 
4 compute 72658.3
4 alltoall 33554432 33554432 26 26
4 compute 95318.5
4 reduce 16 0 0 26 
4 compute 0.0823
4 compute 0.03842
4 finalize
