5 init
5 compute 0.08552
5 compute 0.11516
5 bcast 1 0 1 
5 compute 0.02152
5 bcast 1 0 1 
5 compute 0.0224
5 bcast 1 0 1 
5 bcast 1 0 1 
5 bcast 1 0 16 
5 compute 0.02448
5 compute 0.02176
5 compute 116177
5 alltoall 33554432 33554432 26 26
5 compute 28831.2
5 compute 0.06402
5 barrier
5 compute 0.03366
5 compute 94778.5
5 alltoall 33554432 33554432 26 26
5 compute 79751.1
5 alltoall 33554432 33554432 26 26
5 compute 69249.5
5 reduce 16 0 0 26 
5 compute 40046.3
5 alltoall 33554432 33554432 26 26
5 compute 69327.2
5 reduce 16 0 0 26 
5 compute 39793.2
5 alltoall 33554432 33554432 26 26
5 compute 69301.1
5 reduce 16 0 0 26 
5 compute 39957.7
5 alltoall 33554432 33554432 26 26
5 compute 69111.2
5 reduce 16 0 0 26 
5 compute 39791.8
5 alltoall 33554432 33554432 26 26
5 compute 69620.2
5 reduce 16 0 0 26 
5 compute 40034
5 alltoall 33554432 33554432 26 26
5 compute 69303.3
5 reduce 16 0 0 26 
5 compute 39795.4
5 alltoall 33554432 33554432 26 26
5 compute 69335.7
5 reduce 16 0 0 26 
5 compute 39852.8
5 alltoall 33554432 33554432 26 26
5 compute 69326.3
5 reduce 16 0 0 26 
5 compute 39934.6
5 alltoall 33554432 33554432 26 26
5 compute 69653.8
5 reduce 16 0 0 26 
5 compute 39812
5 alltoall 33554432 33554432 26 26
5 compute 69220.5
5 reduce 16 0 0 26 
5 compute 39809.1
5 alltoall 33554432 33554432 26 26
5 compute 69113
5 reduce 16 0 0 26 
5 compute 40043.3
5 alltoall 33554432 33554432 26 26
5 compute 69608.8
5 reduce 16 0 0 26 
5 compute 39821.2
5 alltoall 33554432 33554432 26 26
5 compute 69706.1
5 reduce 16 0 0 26 
5 compute 39830.6
5 alltoall 33554432 33554432 26 26
5 compute 69136
5 reduce 16 0 0 26 
5 compute 40874.6
5 alltoall 33554432 33554432 26 26
5 compute 69332.2
5 reduce 16 0 0 26 
5 compute 41858.8
5 alltoall 33554432 33554432 26 26
5 compute 69414
5 reduce 16 0 0 26 
5 compute 52972.9
5 alltoall 33554432 33554432 26 26
5 compute 70696.7
5 reduce 16 0 0 26 
5 compute 78461.5
5 alltoall 33554432 33554432 26 26
5 compute 92983.1
5 reduce 16 0 0 26 
5 compute 78181.9
5 alltoall 33554432 33554432 26 26
5 compute 98997.2
5 reduce 16 0 0 26 
5 compute 76854.9
5 alltoall 33554432 33554432 26 26
5 compute 98605.1
5 reduce 16 0 0 26 
5 compute 75851
5 alltoall 33554432 33554432 26 26
5 compute 97664.8
5 reduce 16 0 0 26 
5 compute 74985.3
5 alltoall 33554432 33554432 26 26
5 compute 97062.8
5 reduce 16 0 0 26 
5 compute 73989
5 alltoall 33554432 33554432 26 26
5 compute 96727
5 reduce 16 0 0 26 
5 compute 73309.8
5 alltoall 33554432 33554432 26 26
5 compute 95974.6
5 reduce 16 0 0 26 
5 compute 72599.5
5 alltoall 33554432 33554432 26 26
5 compute 95535.7
5 reduce 16 0 0 26 
5 compute 0.06284
5 compute 0.04082
5 finalize
