18 init
18 compute 0.08536
18 compute 0.1144
18 bcast 1 0 1 
18 compute 0.02438
18 bcast 1 0 1 
18 compute 0.02176
18 bcast 1 0 1 
18 bcast 1 0 1 
18 compute 0.02022
18 bcast 1 0 16 
18 compute 0.02124
18 compute 0.02104
18 compute 117221
18 alltoall 33554432 33554432 26 26
18 compute 28842
18 compute 0.0723
18 barrier
18 compute 0.03428
18 compute 95961.4
18 alltoall 33554432 33554432 26 26
18 compute 74385.5
18 alltoall 33554432 33554432 26 26
18 compute 62082.3
18 reduce 16 0 0 26 
18 compute 38419
18 alltoall 33554432 33554432 26 26
18 compute 62106.7
18 reduce 16 0 0 26 
18 compute 38467.4
18 alltoall 33554432 33554432 26 26
18 compute 62066.8
18 reduce 16 0 0 26 
18 compute 38335.1
18 alltoall 33554432 33554432 26 26
18 compute 62111.4
18 reduce 16 0 0 26 
18 compute 38445.9
18 alltoall 33554432 33554432 26 26
18 compute 62079.5
18 reduce 16 0 0 26 
18 compute 38462
18 alltoall 33554432 33554432 26 26
18 compute 62118.2
18 reduce 16 0 0 26 
18 compute 38440.7
18 alltoall 33554432 33554432 26 26
18 compute 62085.7
18 reduce 16 0 0 26 
18 compute 38407.9
18 alltoall 33554432 33554432 26 26
18 compute 62078.6
18 reduce 16 0 0 26 
18 compute 38551
18 alltoall 33554432 33554432 26 26
18 compute 62108.7
18 reduce 16 0 0 26 
18 compute 38373.1
18 alltoall 33554432 33554432 26 26
18 compute 62083.1
18 reduce 16 0 0 26 
18 compute 38477.8
18 alltoall 33554432 33554432 26 26
18 compute 62080.3
18 reduce 16 0 0 26 
18 compute 38449.7
18 alltoall 33554432 33554432 26 26
18 compute 62090.9
18 reduce 16 0 0 26 
18 compute 39055.6
18 alltoall 33554432 33554432 26 26
18 compute 62098.8
18 reduce 16 0 0 26 
18 compute 40701.7
18 alltoall 33554432 33554432 26 26
18 compute 62062
18 reduce 16 0 0 26 
18 compute 60031.4
18 alltoall 33554432 33554432 26 26
18 compute 62084.2
18 reduce 16 0 0 26 
18 compute 79565.4
18 alltoall 33554432 33554432 26 26
18 compute 62084.8
18 reduce 16 0 0 26 
18 compute 78694.2
18 alltoall 33554432 33554432 26 26
18 compute 63587.4
18 reduce 16 0 0 26 
18 compute 81295.3
18 alltoall 33554432 33554432 26 26
18 compute 85648.1
18 reduce 16 0 0 26 
18 compute 80201.6
18 alltoall 33554432 33554432 26 26
18 compute 91720.2
18 reduce 16 0 0 26 
18 compute 79297.7
18 alltoall 33554432 33554432 26 26
18 compute 91284.3
18 reduce 16 0 0 26 
18 compute 78408.9
18 alltoall 33554432 33554432 26 26
18 compute 90290.8
18 reduce 16 0 0 26 
18 compute 77575.1
18 alltoall 33554432 33554432 26 26
18 compute 89694.7
18 reduce 16 0 0 26 
18 compute 76848.7
18 alltoall 33554432 33554432 26 26
18 compute 89357.3
18 reduce 16 0 0 26 
18 compute 76177.9
18 alltoall 33554432 33554432 26 26
18 compute 88663.6
18 reduce 16 0 0 26 
18 compute 75724.7
18 alltoall 33554432 33554432 26 26
18 compute 88060.6
18 reduce 16 0 0 26 
18 compute 0.0651
18 compute 0.03928
18 finalize
