# version: 1.0
65 compute 312428244.302
65 compute 6931983919.958
65 init
65 compute 908311.694
65 compute 40148.584
65 compute 27193.663
65 bcast 4 0
65 compute 20407.752
65 bcast 4 0
65 compute 3968.174
65 bcast 4 0
65 compute 3367.946
65 bcast 4 0
65 compute 3818.117
65 bcast 4 0
65 compute 9220.169
65 compute 13571.822
65 compute 309960113335.162
65 alltoall 16777216 2147483648
65 compute 66414540805.556
65 barrier
65 compute 283078883631.383
65 alltoall 16777216 2147483648
65 compute 168754407265.881
65 alltoall 16777216 2147483648
65 compute 163632964940.386
65 reduce 16 0 0
65 compute 88828725477.019
65 alltoall 16777216 2147483648
65 compute 170991702915.285
65 reduce 16 0 0
65 compute 84959573991.281
65 alltoall 16777216 2147483648
65 compute 172580646517.831
65 reduce 16 0 0
65 compute 134833561090.644
65 alltoall 16777216 2147483648
65 compute 163128801997.908
65 reduce 16 0 0
65 compute 132003577221.935
65 alltoall 16777216 2147483648
65 compute 200721544497.061
65 reduce 16 0 0
65 compute 130333593035.665
65 alltoall 16777216 2147483648
65 compute 196930297053.614
65 reduce 16 0 0
65 compute 128034923823.166
65 alltoall 16777216 2147483648
65 compute 194824886951.681
65 reduce 16 0 0
65 compute 126772248222.032
65 alltoall 16777216 2147483648
65 compute 191583685462.967
65 reduce 16 0 0
65 compute 126798074132.15
65 alltoall 16777216 2147483648
65 compute 188313233763.395
65 reduce 16 0 0
65 compute 126032111210.136
65 alltoall 16777216 2147483648
65 compute 187391762604.031
65 reduce 16 0 0
65 compute 126324607916.664
65 alltoall 16777216 2147483648
65 compute 187779259146.784
65 reduce 16 0 0
65 compute 127989273082.474
65 alltoall 16777216 2147483648
65 compute 185447533744.371
65 reduce 16 0 0
65 compute 127872035615.826
65 alltoall 16777216 2147483648
65 compute 184561079002.858
65 reduce 16 0 0
65 compute 130675782818.389
65 alltoall 16777216 2147483648
65 compute 184748159749.871
65 reduce 16 0 0
65 compute 136118238716.038
65 alltoall 16777216 2147483648
65 compute 184446543579.263
65 reduce 16 0 0
65 compute 142700374210.76
65 alltoall 16777216 2147483648
65 compute 183491793228.61
65 reduce 16 0 0
65 compute 159104316424.305
65 alltoall 16777216 2147483648
65 compute 181707477162.729
65 reduce 16 0 0
65 compute 209096310482.612
65 alltoall 16777216 2147483648
65 compute 181554736159.862
65 reduce 16 0 0
65 compute 122562056523.574
65 alltoall 16777216 2147483648
65 compute 181699404963.125
65 reduce 16 0 0
65 compute 75132065306.534
65 alltoall 16777216 2147483648
65 compute 180085178556.763
65 reduce 16 0 0
65 compute 75212135755.08
65 alltoall 16777216 2147483648
65 compute 179851224371.276
65 reduce 16 0 0
65 compute 76085954063.239
65 alltoall 16777216 2147483648
65 compute 179731838255.118
65 reduce 16 0 0
65 compute 77100011508.694
65 alltoall 16777216 2147483648
65 compute 179323215437.43
65 reduce 16 0 0
65 compute 77801777845.272
65 alltoall 16777216 2147483648
65 compute 179705219060.333
65 reduce 16 0 0
65 compute 79689318321.529
65 alltoall 16777216 2147483648
65 compute 180492987515.302
65 reduce 16 0 0
65 compute 67775.745
65 finalize
65 compute 449554.099
65 compute 71127.018
