# version: 1.0
40 compute 5543649553.298
40 compute 2891958210.013
40 init
40 compute 2273430.242
40 compute 102905.756
40 compute 73461.238
40 bcast 4 0
40 compute 69659.794
40 bcast 4 0
40 compute 30311.514
40 bcast 4 0
40 compute 28194.043
40 bcast 4 0
40 compute 28527.503
40 bcast 4 0
40 compute 40582.082
40 compute 58288.808
40 compute 538619837324.356
40 alltoall 16777216 2147483648
40 compute 123668195279.969
40 barrier
40 compute 497326085309.143
40 alltoall 16777216 2147483648
40 compute 308284003038.521
40 alltoall 16777216 2147483648
40 compute 291449274455.004
40 reduce 16 0 0
40 compute 156110836083.87
40 alltoall 16777216 2147483648
40 compute 298962175156.153
40 reduce 16 0 0
40 compute 138061088085.024
40 alltoall 16777216 2147483648
40 compute 301476153571.737
40 reduce 16 0 0
40 compute 165854579249.811
40 alltoall 16777216 2147483648
40 compute 295519443498.398
40 reduce 16 0 0
40 compute 223506636409.737
40 alltoall 16777216 2147483648
40 compute 356355969280.071
40 reduce 16 0 0
40 compute 224940994642.156
40 alltoall 16777216 2147483648
40 compute 350132547044.609
40 reduce 16 0 0
40 compute 217672537310.87
40 alltoall 16777216 2147483648
40 compute 344338943494.872
40 reduce 16 0 0
40 compute 214670487298.53
40 alltoall 16777216 2147483648
40 compute 340257171444.01
40 reduce 16 0 0
40 compute 212219154045.732
40 alltoall 16777216 2147483648
40 compute 337584492478.458
40 reduce 16 0 0
40 compute 209613961515.284
40 alltoall 16777216 2147483648
40 compute 333233850245.737
40 reduce 16 0 0
40 compute 204165906907.6
40 alltoall 16777216 2147483648
40 compute 333391641150.171
40 reduce 16 0 0
40 compute 206080302101.44
40 alltoall 16777216 2147483648
40 compute 330016708729.673
40 reduce 16 0 0
40 compute 205253042128.728
40 alltoall 16777216 2147483648
40 compute 326773910867.901
40 reduce 16 0 0
40 compute 202466968589.606
40 alltoall 16777216 2147483648
40 compute 328824055593.635
40 reduce 16 0 0
40 compute 201924062096.838
40 alltoall 16777216 2147483648
40 compute 327225121429.451
40 reduce 16 0 0
40 compute 199580980764.144
40 alltoall 16777216 2147483648
40 compute 325528218701.354
40 reduce 16 0 0
40 compute 200645855045.995
40 alltoall 16777216 2147483648
40 compute 323629001422.931
40 reduce 16 0 0
40 compute 200504679519.673
40 alltoall 16777216 2147483648
40 compute 322641229745.607
40 reduce 16 0 0
40 compute 200068206606.302
40 alltoall 16777216 2147483648
40 compute 320108591508.651
40 reduce 16 0 0
40 compute 199348842435.087
40 alltoall 16777216 2147483648
40 compute 320495612520.771
40 reduce 16 0 0
40 compute 198761357108.797
40 alltoall 16777216 2147483648
40 compute 319908882247.959
40 reduce 16 0 0
40 compute 199037690408.897
40 alltoall 16777216 2147483648
40 compute 319409485399.242
40 reduce 16 0 0
40 compute 196411234001.245
40 alltoall 16777216 2147483648
40 compute 316123707711.34
40 reduce 16 0 0
40 compute 197979243601.892
40 alltoall 16777216 2147483648
40 compute 317194794753.143
40 reduce 16 0 0
40 compute 196311526026.607
40 alltoall 16777216 2147483648
40 compute 315510048609.46
40 reduce 16 0 0
40 compute 225502.325
40 finalize
40 compute 686794.216
40 compute 105923.569
