# version: 1.0
11 compute 3478635796.145
11 compute 1867088190.674
11 init
11 compute 664052.244
11 compute 57238.409
11 compute 40632.101
11 bcast 4 0
11 compute 30194.803
11 bcast 4 0
11 compute 16873.076
11 bcast 4 0
11 compute 16989.787
11 bcast 4 0
11 compute 16089.445
11 bcast 4 0
11 compute 21141.364
11 compute 31461.951
11 compute 313643518514.115
11 alltoall 16777216 2147483648
11 compute 74598322094.49
11 barrier
11 compute 290236137388.029
11 alltoall 16777216 2147483648
11 compute 177334038620.701
11 alltoall 16777216 2147483648
11 compute 170785801835.929
11 reduce 16 0 0
11 compute 90950272842.116
11 alltoall 16777216 2147483648
11 compute 177386513803.696
11 reduce 16 0 0
11 compute 89289373056.607
11 alltoall 16777216 2147483648
11 compute 170785257695.901
11 reduce 16 0 0
11 compute 90864350437.338
11 alltoall 16777216 2147483648
11 compute 171426373393.991
11 reduce 16 0 0
11 compute 130922199604.532
11 alltoall 16777216 2147483648
11 compute 209259229951.827
11 reduce 16 0 0
11 compute 127258113447.352
11 alltoall 16777216 2147483648
11 compute 205500053890.876
11 reduce 16 0 0
11 compute 123700901203.499
11 alltoall 16777216 2147483648
11 compute 201186933811.157
11 reduce 16 0 0
11 compute 121687688940.103
11 alltoall 16777216 2147483648
11 compute 198335088921.749
11 reduce 16 0 0
11 compute 120365143880.55
11 alltoall 16777216 2147483648
11 compute 197128308869.522
11 reduce 16 0 0
11 compute 118035369519.251
11 alltoall 16777216 2147483648
11 compute 195057392320.16
11 reduce 16 0 0
11 compute 117347539343.069
11 alltoall 16777216 2147483648
11 compute 192644946705.718
11 reduce 16 0 0
11 compute 115129560581.294
11 alltoall 16777216 2147483648
11 compute 193162322217.065
11 reduce 16 0 0
11 compute 114603402133.699
11 alltoall 16777216 2147483648
11 compute 192350090686.325
11 reduce 16 0 0
11 compute 114366004023.351
11 alltoall 16777216 2147483648
11 compute 190625967351.66
11 reduce 16 0 0
11 compute 114027409506.309
11 alltoall 16777216 2147483648
11 compute 189519169878.381
11 reduce 16 0 0
11 compute 112091384779.702
11 alltoall 16777216 2147483648
11 compute 190366605498.26
11 reduce 16 0 0
11 compute 112332321851.011
11 alltoall 16777216 2147483648
11 compute 189674379935.799
11 reduce 16 0 0
11 compute 112830305662.978
11 alltoall 16777216 2147483648
11 compute 187313032981.472
11 reduce 16 0 0
11 compute 112406167935.197
11 alltoall 16777216 2147483648
11 compute 187553661635.627
11 reduce 16 0 0
11 compute 111962390197.047
11 alltoall 16777216 2147483648
11 compute 187248529946.296
11 reduce 16 0 0
11 compute 111185288844.037
11 alltoall 16777216 2147483648
11 compute 186812894300.966
11 reduce 16 0 0
11 compute 110282595884.345
11 alltoall 16777216 2147483648
11 compute 186687965095.901
11 reduce 16 0 0
11 compute 110327733113.31
11 alltoall 16777216 2147483648
11 compute 185694494537.158
11 reduce 16 0 0
11 compute 108850449475.433
11 alltoall 16777216 2147483648
11 compute 184868722346.255
11 reduce 16 0 0
11 compute 108764641497.454
11 alltoall 16777216 2147483648
11 compute 185527004965.297
11 reduce 16 0 0
11 compute 114026.647
11 finalize
11 compute 473196.413
11 compute 62823.864
