# version: 1.0
32 compute 3031131492.438
32 compute 2179798125.311
32 init
32 compute 1031908.643
32 compute 55754.512
32 compute 72861.01
32 bcast 4 0
32 compute 35063.319
32 bcast 4 0
32 compute 18273.608
32 bcast 4 0
32 compute 17690.053
32 bcast 4 0
32 compute 16406.232
32 bcast 4 0
32 compute 22958.721
32 compute 36413.832
32 compute 309099509963.438
32 alltoall 16777216 2147483648
32 compute 71252522006.74
32 barrier
32 compute 286934241460.856
32 alltoall 16777216 2147483648
32 compute 178259295918.251
32 alltoall 16777216 2147483648
32 compute 169760671534.387
32 reduce 16 0 0
32 compute 77030793732.597
32 alltoall 16777216 2147483648
32 compute 178961058320.001
32 reduce 16 0 0
32 compute 78778385598.583
32 alltoall 16777216 2147483648
32 compute 180161056045.923
32 reduce 16 0 0
32 compute 78058698871.51
32 alltoall 16777216 2147483648
32 compute 171957719945.65
32 reduce 16 0 0
32 compute 126702593413.259
32 alltoall 16777216 2147483648
32 compute 205735472549.318
32 reduce 16 0 0
32 compute 127898087661.843
32 alltoall 16777216 2147483648
32 compute 200660772195.692
32 reduce 16 0 0
32 compute 121846849414.776
32 alltoall 16777216 2147483648
32 compute 199657306456.89
32 reduce 16 0 0
32 compute 121919615105.235
32 alltoall 16777216 2147483648
32 compute 197481841227.454
32 reduce 16 0 0
32 compute 120274397976.872
32 alltoall 16777216 2147483648
32 compute 195289914745.118
32 reduce 16 0 0
32 compute 118443957256.947
32 alltoall 16777216 2147483648
32 compute 189290764650.697
32 reduce 16 0 0
32 compute 114281646129.528
32 alltoall 16777216 2147483648
32 compute 192482826156.644
32 reduce 16 0 0
32 compute 115737916151.931
32 alltoall 16777216 2147483648
32 compute 190024305190.219
32 reduce 16 0 0
32 compute 114305918482.852
32 alltoall 16777216 2147483648
32 compute 188168132429.166
32 reduce 16 0 0
32 compute 112671150290.243
32 alltoall 16777216 2147483648
32 compute 188074766713.671
32 reduce 16 0 0
32 compute 112569024530.529
32 alltoall 16777216 2147483648
32 compute 188798052674.6
32 reduce 16 0 0
32 compute 111450259728.059
32 alltoall 16777216 2147483648
32 compute 188547390075.661
32 reduce 16 0 0
32 compute 111773885909.294
32 alltoall 16777216 2147483648
32 compute 185299461648.348
32 reduce 16 0 0
32 compute 111069273875.095
32 alltoall 16777216 2147483648
32 compute 185373522080.622
32 reduce 16 0 0
32 compute 111890621835.429
32 alltoall 16777216 2147483648
32 compute 184938644256.488
32 reduce 16 0 0
32 compute 110629084233.237
32 alltoall 16777216 2147483648
32 compute 184138069353.584
32 reduce 16 0 0
32 compute 110365791570.03
32 alltoall 16777216 2147483648
32 compute 184768503744.319
32 reduce 16 0 0
32 compute 109146024084.453
32 alltoall 16777216 2147483648
32 compute 183166537878.526
32 reduce 16 0 0
32 compute 106851613222.846
32 alltoall 16777216 2147483648
32 compute 183371183781.096
32 reduce 16 0 0
32 compute 108179777516.897
32 alltoall 16777216 2147483648
32 compute 183807750596.803
32 reduce 16 0 0
32 compute 106567563741.711
32 alltoall 16777216 2147483648
32 compute 182212862669.605
32 reduce 16 0 0
32 compute 116811.038
32 finalize
32 compute 492503.747
32 compute 82848.137
