# version: 1.0
118 compute 768186466.64
118 compute 14974967159.29
118 init
118 compute 951361.38
118 compute 41915.922
118 compute 29794.651
118 bcast 4 0
118 compute 16539.616
118 bcast 4 0
118 compute 4001.52
118 bcast 4 0
118 compute 3017.813
118 bcast 4 0
118 compute 3234.562
118 bcast 4 0
118 compute 8553.249
118 compute 12504.75
118 compute 314634443806.024
118 alltoall 16777216 2147483648
118 compute 69388197265.778
118 barrier
118 compute 286351719619.974
118 alltoall 16777216 2147483648
118 compute 170799359052.381
118 alltoall 16777216 2147483648
118 compute 169368362363.53
118 reduce 16 0 0
118 compute 87156452988.191
118 alltoall 16777216 2147483648
118 compute 172259728431.948
118 reduce 16 0 0
118 compute 82874248785.376
118 alltoall 16777216 2147483648
118 compute 167902526890.97
118 reduce 16 0 0
118 compute 90535200491.203
118 alltoall 16777216 2147483648
118 compute 170149017366.414
118 reduce 16 0 0
118 compute 125446374114.588
118 alltoall 16777216 2147483648
118 compute 204439899735.325
118 reduce 16 0 0
118 compute 126506875401.999
118 alltoall 16777216 2147483648
118 compute 199601718791.601
118 reduce 16 0 0
118 compute 122467989825.14
118 alltoall 16777216 2147483648
118 compute 198362843881.294
118 reduce 16 0 0
118 compute 121214695154.072
118 alltoall 16777216 2147483648
118 compute 194908202066.065
118 reduce 16 0 0
118 compute 119327599480.109
118 alltoall 16777216 2147483648
118 compute 192555598232.862
118 reduce 16 0 0
118 compute 117017132769.597
118 alltoall 16777216 2147483648
118 compute 190983998368.433
118 reduce 16 0 0
118 compute 115649944385.358
118 alltoall 16777216 2147483648
118 compute 188721291199.653
118 reduce 16 0 0
118 compute 114253602110.182
118 alltoall 16777216 2147483648
118 compute 188644394473.33
118 reduce 16 0 0
118 compute 114231070601.461
118 alltoall 16777216 2147483648
118 compute 187799893001.337
118 reduce 16 0 0
118 compute 112354062109.171
118 alltoall 16777216 2147483648
118 compute 186175869256.734
118 reduce 16 0 0
118 compute 112820192921.596
118 alltoall 16777216 2147483648
118 compute 184790525342.681
118 reduce 16 0 0
118 compute 111463258765.817
118 alltoall 16777216 2147483648
118 compute 185924220516.537
118 reduce 16 0 0
118 compute 110922203142.779
118 alltoall 16777216 2147483648
118 compute 184916890459.852
118 reduce 16 0 0
118 compute 111319090085.862
118 alltoall 16777216 2147483648
118 compute 183871286114.462
118 reduce 16 0 0
118 compute 110724987345.91
118 alltoall 16777216 2147483648
118 compute 183710894822.256
118 reduce 16 0 0
118 compute 110570256737.28
118 alltoall 16777216 2147483648
118 compute 182761409554.908
118 reduce 16 0 0
118 compute 109355843835.672
118 alltoall 16777216 2147483648
118 compute 182697973174.907
118 reduce 16 0 0
118 compute 109226794498.885
118 alltoall 16777216 2147483648
118 compute 181941077330.407
118 reduce 16 0 0
118 compute 107890191332.614
118 alltoall 16777216 2147483648
118 compute 181361521682.917
118 reduce 16 0 0
118 compute 108225928914.433
118 alltoall 16777216 2147483648
118 compute 180201222386.668
118 reduce 16 0 0
118 compute 107407246716.704
118 alltoall 16777216 2147483648
118 compute 181380813410.989
118 reduce 16 0 0
118 compute 83781.825
118 finalize
118 compute 385446.414
118 compute 45884.096
