# version: 1.0
46 compute 5492319521.962
46 compute 2507285923.403
46 init
46 compute 2023268.55
46 compute 98804.198
46 compute 71093.672
46 bcast 4 0
46 compute 56704.873
46 bcast 4 0
46 compute 28760.925
46 bcast 4 0
46 compute 26676.8
46 bcast 4 0
46 compute 26093.245
46 bcast 4 0
46 compute 37214.136
46 compute 67008.787
46 compute 541093420145.445
46 alltoall 16777216 2147483648
46 compute 125126077714.856
46 barrier
46 compute 500968502585.276
46 alltoall 16777216 2147483648
46 compute 312651754503.614
46 alltoall 16777216 2147483648
46 compute 292944639211.096
46 reduce 16 0 0
46 compute 158317034704.225
46 alltoall 16777216 2147483648
46 compute 310833002857.183
46 reduce 16 0 0
46 compute 146940781703.525
46 alltoall 16777216 2147483648
46 compute 309499656661.424
46 reduce 16 0 0
46 compute 217953259361.395
46 alltoall 16777216 2147483648
46 compute 299985908510.39
46 reduce 16 0 0
46 compute 229561875326.481
46 alltoall 16777216 2147483648
46 compute 358959203399.939
46 reduce 16 0 0
46 compute 228541119953.447
46 alltoall 16777216 2147483648
46 compute 351055816153.601
46 reduce 16 0 0
46 compute 221076428681.589
46 alltoall 16777216 2147483648
46 compute 347818111960.021
46 reduce 16 0 0
46 compute 219245236259.459
46 alltoall 16777216 2147483648
46 compute 343691310821.272
46 reduce 16 0 0
46 compute 216350170852.493
46 alltoall 16777216 2147483648
46 compute 340975727991.778
46 reduce 16 0 0
46 compute 215001840198.136
46 alltoall 16777216 2147483648
46 compute 335104667502.918
46 reduce 16 0 0
46 compute 209213942332.402
46 alltoall 16777216 2147483648
46 compute 335414890192.761
46 reduce 16 0 0
46 compute 212169935499.789
46 alltoall 16777216 2147483648
46 compute 331294140652.746
46 reduce 16 0 0
46 compute 210467394329.898
46 alltoall 16777216 2147483648
46 compute 328654548038.565
46 reduce 16 0 0
46 compute 208187660526.788
46 alltoall 16777216 2147483648
46 compute 329434004819.631
46 reduce 16 0 0
46 compute 207590268003.86
46 alltoall 16777216 2147483648
46 compute 328591256947.086
46 reduce 16 0 0
46 compute 206742157544.306
46 alltoall 16777216 2147483648
46 compute 326430922165.036
46 reduce 16 0 0
46 compute 208409844374.579
46 alltoall 16777216 2147483648
46 compute 323275213084.43
46 reduce 16 0 0
46 compute 208392561859.718
46 alltoall 16777216 2147483648
46 compute 320246372195.424
46 reduce 16 0 0
46 compute 209846716145.113
46 alltoall 16777216 2147483648
46 compute 322272915422.662
46 reduce 16 0 0
46 compute 209323166121.676
46 alltoall 16777216 2147483648
46 compute 322909519723.739
46 reduce 16 0 0
46 compute 210173306919.132
46 alltoall 16777216 2147483648
46 compute 321238075799.646
46 reduce 16 0 0
46 compute 211645339278.948
46 alltoall 16777216 2147483648
46 compute 323068392755.892
46 reduce 16 0 0
46 compute 209578082886.584
46 alltoall 16777216 2147483648
46 compute 320538129037.577
46 reduce 16 0 0
46 compute 213289041765.299
46 alltoall 16777216 2147483648
46 compute 321391595164.845
46 reduce 16 0 0
46 compute 212302289958.712
46 alltoall 16777216 2147483648
46 compute 320223943192.307
46 reduce 16 0 0
46 compute 174582.983
46 finalize
46 compute 870630.714
46 compute 108941.382
