# version: 1.0
75 compute 468765713.307
75 compute 8219194674.242
75 init
75 compute 522215.033
75 compute 42082.652
75 compute 28977.674
75 bcast 4 0
75 compute 16756.365
75 bcast 4 0
75 compute 3634.714
75 bcast 4 0
75 compute 3201.216
75 bcast 4 0
75 compute 3417.965
75 bcast 4 0
75 compute 8536.576
75 compute 13605.168
75 compute 309634540847.945
75 alltoall 16777216 2147483648
75 compute 65944136603.193
75 barrier
75 compute 282883395123.968
75 alltoall 16777216 2147483648
75 compute 167261814429.385
75 alltoall 16777216 2147483648
75 compute 166534791232.179
75 reduce 16 0 0
75 compute 86592179379.003
75 alltoall 16777216 2147483648
75 compute 170661616596.797
75 reduce 16 0 0
75 compute 85746333312.925
75 alltoall 16777216 2147483648
75 compute 171116869110.372
75 reduce 16 0 0
75 compute 133220291914.558
75 alltoall 16777216 2147483648
75 compute 162757002917.925
75 reduce 16 0 0
75 compute 128720112696.034
75 alltoall 16777216 2147483648
75 compute 200611414280.142
75 reduce 16 0 0
75 compute 126995115946.264
75 alltoall 16777216 2147483648
75 compute 196430755599.968
75 reduce 16 0 0
75 compute 123908652185.551
75 alltoall 16777216 2147483648
75 compute 194977617117.098
75 reduce 16 0 0
75 compute 121915992479.16
75 alltoall 16777216 2147483648
75 compute 191521548843.354
75 reduce 16 0 0
75 compute 121495311814.564
75 alltoall 16777216 2147483648
75 compute 189594556531.094
75 reduce 16 0 0
75 compute 119293519434.611
75 alltoall 16777216 2147483648
75 compute 186746905851.547
75 reduce 16 0 0
75 compute 118748801820.545
75 alltoall 16777216 2147483648
75 compute 188028279205.128
75 reduce 16 0 0
75 compute 119088821545.627
75 alltoall 16777216 2147483648
75 compute 184865173231.437
75 reduce 16 0 0
75 compute 117462229775.545
75 alltoall 16777216 2147483648
75 compute 184014028302.556
75 reduce 16 0 0
75 compute 116590682463.37
75 alltoall 16777216 2147483648
75 compute 184079634923.602
75 reduce 16 0 0
75 compute 116276396863.541
75 alltoall 16777216 2147483648
75 compute 183945031727.15
75 reduce 16 0 0
75 compute 115818215587.459
75 alltoall 16777216 2147483648
75 compute 181782235143.304
75 reduce 16 0 0
75 compute 116741160756.734
75 alltoall 16777216 2147483648
75 compute 181279967820.888
75 reduce 16 0 0
75 compute 119005064279.956
75 alltoall 16777216 2147483648
75 compute 181621131680.576
75 reduce 16 0 0
75 compute 121453406279.843
75 alltoall 16777216 2147483648
75 compute 180528105771.837
75 reduce 16 0 0
75 compute 123526979288.276
75 alltoall 16777216 2147483648
75 compute 180057709772.59
75 reduce 16 0 0
75 compute 125545591036.03
75 alltoall 16777216 2147483648
75 compute 179865300101.355
75 reduce 16 0 0
75 compute 129052578284.968
75 alltoall 16777216 2147483648
75 compute 179268490983.37
75 reduce 16 0 0
75 compute 135058026655.158
75 alltoall 16777216 2147483648
75 compute 179450121893.565
75 reduce 16 0 0
75 compute 145945781763.838
75 alltoall 16777216 2147483648
75 compute 178675443577.626
75 reduce 16 0 0
75 compute 165075079819.211
75 alltoall 16777216 2147483648
75 compute 177914014677.886
75 reduce 16 0 0
75 compute 122013.014
75 finalize
75 compute 382862.099
75 compute 44700.313
