# version: 1.0
17 compute 3230638342.91
17 compute 2155783836.681
17 init
17 compute 1361300.431
17 compute 56554.816
17 compute 76128.918
17 bcast 4 0
17 compute 34129.631
17 bcast 4 0
17 compute 17273.228
17 bcast 4 0
17 compute 16589.635
17 bcast 4 0
17 compute 16673
17 bcast 4 0
17 compute 22475.204
17 compute 40865.523
17 compute 309621309605.316
17 alltoall 16777216 2147483648
17 compute 70899273106.481
17 barrier
17 compute 288018703083.069
17 alltoall 16777216 2147483648
17 compute 173948952393.222
17 alltoall 16777216 2147483648
17 compute 167980703036.621
17 reduce 16 0 0
17 compute 87679400349.37
17 alltoall 16777216 2147483648
17 compute 168530886993.775
17 reduce 16 0 0
17 compute 89076542661.778
17 alltoall 16777216 2147483648
17 compute 167900535451.177
17 reduce 16 0 0
17 compute 90075007867.766
17 alltoall 16777216 2147483648
17 compute 168247643552.152
17 reduce 16 0 0
17 compute 128600898311.776
17 alltoall 16777216 2147483648
17 compute 203252978993.436
17 reduce 16 0 0
17 compute 123693205546.927
17 alltoall 16777216 2147483648
17 compute 195748680576.58
17 reduce 16 0 0
17 compute 119318204861.51
17 alltoall 16777216 2147483648
17 compute 197739967611.554
17 reduce 16 0 0
17 compute 120114408720.715
17 alltoall 16777216 2147483648
17 compute 195514429578.347
17 reduce 16 0 0
17 compute 117047878081.711
17 alltoall 16777216 2147483648
17 compute 194886562929.65
17 reduce 16 0 0
17 compute 116495135769.418
17 alltoall 16777216 2147483648
17 compute 193661001326.478
17 reduce 16 0 0
17 compute 115859647859.075
17 alltoall 16777216 2147483648
17 compute 191633288905.115
17 reduce 16 0 0
17 compute 114969400110.1
17 alltoall 16777216 2147483648
17 compute 190627721584.682
17 reduce 16 0 0
17 compute 114742031476.172
17 alltoall 16777216 2147483648
17 compute 188398956809.112
17 reduce 16 0 0
17 compute 111178501565.851
17 alltoall 16777216 2147483648
17 compute 188409286299.494
17 reduce 16 0 0
17 compute 110874780295.609
17 alltoall 16777216 2147483648
17 compute 187034966406.311
17 reduce 16 0 0
17 compute 110019503413.849
17 alltoall 16777216 2147483648
17 compute 187153866754.614
17 reduce 16 0 0
17 compute 110604806011.017
17 alltoall 16777216 2147483648
17 compute 184079634790.218
17 reduce 16 0 0
17 compute 110750068889.943
17 alltoall 16777216 2147483648
17 compute 183945989040.791
17 reduce 16 0 0
17 compute 110002299828.97
17 alltoall 16777216 2147483648
17 compute 184318832684.224
17 reduce 16 0 0
17 compute 109946712580.506
17 alltoall 16777216 2147483648
17 compute 183480224967.674
17 reduce 16 0 0
17 compute 109142808062.829
17 alltoall 16777216 2147483648
17 compute 183196753139.297
17 reduce 16 0 0
17 compute 108430095118.12
17 alltoall 16777216 2147483648
17 compute 182923768361.152
17 reduce 16 0 0
17 compute 107760352829.391
17 alltoall 16777216 2147483648
17 compute 182147858260.646
17 reduce 16 0 0
17 compute 107318479814.761
17 alltoall 16777216 2147483648
17 compute 182340639573.051
17 reduce 16 0 0
17 compute 107412812214.123
17 alltoall 16777216 2147483648
17 compute 181619218870.651
17 reduce 16 0 0
17 compute 104539.71
17 finalize
17 compute 488952.398
17 compute 76379.013
