# version: 1.0
45 compute 5260773968.074
45 compute 2642471507.745
45 init
45 compute 1613562.921
45 compute 99737.886
45 compute 133884.19
45 bcast 4 0
45 compute 56254.702
45 bcast 4 0
45 compute 30444.898
45 bcast 4 0
45 compute 27593.815
45 bcast 4 0
45 compute 27360.393
45 bcast 4 0
45 compute 38364.573
45 compute 59989.454
45 compute 540196688316.789
45 alltoall 16777216 2147483648
45 compute 125168094041.662
45 barrier
45 compute 500077872874.544
45 alltoall 16777216 2147483648
45 compute 311507008665.434
45 alltoall 16777216 2147483648
45 compute 291420345933.008
45 reduce 16 0 0
45 compute 156354577637.144
45 alltoall 16777216 2147483648
45 compute 301690372310.603
45 reduce 16 0 0
45 compute 146089227469.167
45 alltoall 16777216 2147483648
45 compute 302865495987.977
45 reduce 16 0 0
45 compute 210492263393.219
45 alltoall 16777216 2147483648
45 compute 296287174191.91
45 reduce 16 0 0
45 compute 226863114486.915
45 alltoall 16777216 2147483648
45 compute 354035465990.441
45 reduce 16 0 0
45 compute 224323474156.841
45 alltoall 16777216 2147483648
45 compute 350572911702.948
45 reduce 16 0 0
45 compute 220795977000.432
45 alltoall 16777216 2147483648
45 compute 344124909426.154
45 reduce 16 0 0
45 compute 216869304314.941
45 alltoall 16777216 2147483648
45 compute 342779756245.445
45 reduce 16 0 0
45 compute 215344161364.1
45 alltoall 16777216 2147483648
45 compute 340206101828.261
45 reduce 16 0 0
45 compute 213954453092.221
45 alltoall 16777216 2147483648
45 compute 334412674528.807
45 reduce 16 0 0
45 compute 208261436000.819
45 alltoall 16777216 2147483648
45 compute 332247788284.525
45 reduce 16 0 0
45 compute 210995280767.213
45 alltoall 16777216 2147483648
45 compute 330417045199.745
45 reduce 16 0 0
45 compute 209250034792.327
45 alltoall 16777216 2147483648
45 compute 327664030101.392
45 reduce 16 0 0
45 compute 207178059907.617
45 alltoall 16777216 2147483648
45 compute 328365357254.477
45 reduce 16 0 0
45 compute 206440892340.348
45 alltoall 16777216 2147483648
45 compute 327698577741.175
45 reduce 16 0 0
45 compute 205715609804.342
45 alltoall 16777216 2147483648
45 compute 325800679713.877
45 reduce 16 0 0
45 compute 207095557935.443
45 alltoall 16777216 2147483648
45 compute 322258350173.303
45 reduce 16 0 0
45 compute 206665149142.229
45 alltoall 16777216 2147483648
45 compute 321079676747.537
45 reduce 16 0 0
45 compute 207824562285.201
45 alltoall 16777216 2147483648
45 compute 319186088423.971
45 reduce 16 0 0
45 compute 207257619262.021
45 alltoall 16777216 2147483648
45 compute 320942341830.092
45 reduce 16 0 0
45 compute 206981382098.439
45 alltoall 16777216 2147483648
45 compute 318873845933.562
45 reduce 16 0 0
45 compute 208037703264.674
45 alltoall 16777216 2147483648
45 compute 318949966981.906
45 reduce 16 0 0
45 compute 206681925031.312
45 alltoall 16777216 2147483648
45 compute 315363422662.765
45 reduce 16 0 0
45 compute 209609228500.755
45 alltoall 16777216 2147483648
45 compute 317831217401.885
45 reduce 16 0 0
45 compute 208601731213.88
45 alltoall 16777216 2147483648
45 compute 317430292825.084
45 reduce 16 0 0
45 compute 248861.198
45 finalize
45 compute 774460.85
45 compute 118294.935
