# version: 1.0
29 compute 3420899014.502
29 compute 1847806866.554
29 init
29 compute 1193069.861
29 compute 57455.158
29 compute 42332.747
29 bcast 4 0
29 compute 30478.244
29 bcast 4 0
29 compute 16889.749
29 bcast 4 0
29 compute 15722.639
29 bcast 4 0
29 compute 15455.871
29 bcast 4 0
29 compute 21591.535
29 compute 31962.141
29 compute 308963062599.802
29 alltoall 16777216 2147483648
29 compute 70851537523.85
29 barrier
29 compute 287566242279.941
29 alltoall 16777216 2147483648
29 compute 173139168525.574
29 alltoall 16777216 2147483648
29 compute 167608157256.333
29 reduce 16 0 0
29 compute 88200026045.318
29 alltoall 16777216 2147483648
29 compute 169576519466.516
29 reduce 16 0 0
29 compute 88787005612.826
29 alltoall 16777216 2147483648
29 compute 168843605031.49
29 reduce 16 0 0
29 compute 91382983142.904
29 alltoall 16777216 2147483648
29 compute 168800640294.425
29 reduce 16 0 0
29 compute 129497839503.293
29 alltoall 16777216 2147483648
29 compute 199782571706.27
29 reduce 16 0 0
29 compute 123948217281.243
29 alltoall 16777216 2147483648
29 compute 200926624064.361
29 reduce 16 0 0
29 compute 122630057053.96
29 alltoall 16777216 2147483648
29 compute 196854099042.702
29 reduce 16 0 0
29 compute 121385661296.528
29 alltoall 16777216 2147483648
29 compute 195860021336.664
29 reduce 16 0 0
29 compute 118221590072.848
29 alltoall 16777216 2147483648
29 compute 193388952703.937
29 reduce 16 0 0
29 compute 117675766955.517
29 alltoall 16777216 2147483648
29 compute 192850738026.715
29 reduce 16 0 0
29 compute 117414921805.345
29 alltoall 16777216 2147483648
29 compute 190508483791.532
29 reduce 16 0 0
29 compute 116802214565.035
29 alltoall 16777216 2147483648
29 compute 189338034739.841
29 reduce 16 0 0
29 compute 116611095434.019
29 alltoall 16777216 2147483648
29 compute 189992546243.07
29 reduce 16 0 0
29 compute 113323853106.432
29 alltoall 16777216 2147483648
29 compute 189567926582.224
29 reduce 16 0 0
29 compute 113132633320.515
29 alltoall 16777216 2147483648
29 compute 188872143701.829
29 reduce 16 0 0
29 compute 112249925602.33
29 alltoall 16777216 2147483648
29 compute 186286680499.011
29 reduce 16 0 0
29 compute 112393027677.129
29 alltoall 16777216 2147483648
29 compute 185897131076.46
29 reduce 16 0 0
29 compute 113005597665.303
29 alltoall 16777216 2147483648
29 compute 183930945893.233
29 reduce 16 0 0
29 compute 112119305435.521
29 alltoall 16777216 2147483648
29 compute 184191352143.353
29 reduce 16 0 0
29 compute 111947311919.478
29 alltoall 16777216 2147483648
29 compute 183164257178.856
29 reduce 16 0 0
29 compute 111463215549.401
29 alltoall 16777216 2147483648
29 compute 183217527613.932
29 reduce 16 0 0
29 compute 110898871096.636
29 alltoall 16777216 2147483648
29 compute 183619248776.654
29 reduce 16 0 0
29 compute 109717852346.652
29 alltoall 16777216 2147483648
29 compute 182360424421.771
29 reduce 16 0 0
29 compute 109914701987.768
29 alltoall 16777216 2147483648
29 compute 182206461354.696
29 reduce 16 0 0
29 compute 109800869881.332
29 alltoall 16777216 2147483648
29 compute 180492126588.274
29 reduce 16 0 0
29 compute 99504.464
29 finalize
29 compute 414957.624
29 compute 58805.671
