# version: 1.0
72 compute 483022695.569
72 compute 7793414139.098
72 init
72 compute 499056.236
72 compute 51286.148
72 compute 35780.258
72 bcast 4 0
72 compute 15105.738
72 bcast 4 0
72 compute 3334.6
72 bcast 4 0
72 compute 3084.505
72 bcast 4 0
72 compute 4635.094
72 bcast 4 0
72 compute 18690.433
72 compute 15772.658
72 compute 310177750589.237
72 alltoall 16777216 2147483648
72 compute 66863670426.649
72 barrier
72 compute 283233019380.719
72 alltoall 16777216 2147483648
72 compute 169386125227.521
72 alltoall 16777216 2147483648
72 compute 164996256494.392
72 reduce 16 0 0
72 compute 86515330420.825
72 alltoall 16777216 2147483648
72 compute 175812364404.145
72 reduce 16 0 0
72 compute 82413797046.846
72 alltoall 16777216 2147483648
72 compute 175875922363.662
72 reduce 16 0 0
72 compute 132864189663.771
72 alltoall 16777216 2147483648
72 compute 164847326789.268
72 reduce 16 0 0
72 compute 130441851524.931
72 alltoall 16777216 2147483648
72 compute 201657907296.432
72 reduce 16 0 0
72 compute 128300182199.727
72 alltoall 16777216 2147483648
72 compute 198605619951.157
72 reduce 16 0 0
72 compute 125414074412.03
72 alltoall 16777216 2147483648
72 compute 195650879592.99
72 reduce 16 0 0
72 compute 123635383032.718
72 alltoall 16777216 2147483648
72 compute 191239576017.715
72 reduce 16 0 0
72 compute 123388824492.729
72 alltoall 16777216 2147483648
72 compute 191570950258.761
72 reduce 16 0 0
72 compute 121788772937.431
72 alltoall 16777216 2147483648
72 compute 188832765177.007
72 reduce 16 0 0
72 compute 121658664998.528
72 alltoall 16777216 2147483648
72 compute 189413786381.197
72 reduce 16 0 0
72 compute 121612255519.625
72 alltoall 16777216 2147483648
72 compute 186802957493.08
72 reduce 16 0 0
72 compute 120626120263.905
72 alltoall 16777216 2147483648
72 compute 186302710054.595
72 reduce 16 0 0
72 compute 119907788734.945
72 alltoall 16777216 2147483648
72 compute 186242826657.548
72 reduce 16 0 0
72 compute 120018590790.399
72 alltoall 16777216 2147483648
72 compute 185772636453.14
72 reduce 16 0 0
72 compute 120638248154.086
72 alltoall 16777216 2147483648
72 compute 184881234232.299
72 reduce 16 0 0
72 compute 122720119631.406
72 alltoall 16777216 2147483648
72 compute 182889793839.071
72 reduce 16 0 0
72 compute 127182193108.582
72 alltoall 16777216 2147483648
72 compute 181452509061.654
72 reduce 16 0 0
72 compute 130473860833.848
72 alltoall 16777216 2147483648
72 compute 182967762072.412
72 reduce 16 0 0
72 compute 134844987931.194
72 alltoall 16777216 2147483648
72 compute 181177833824.712
72 reduce 16 0 0
72 compute 142405565876.147
72 alltoall 16777216 2147483648
72 compute 180836259259.015
72 reduce 16 0 0
72 compute 160846873761.23
72 alltoall 16777216 2147483648
72 compute 181606268851.513
72 reduce 16 0 0
72 compute 198875063334.083
72 alltoall 16777216 2147483648
72 compute 180894860168.902
72 reduce 16 0 0
72 compute 128922067943.21
72 alltoall 16777216 2147483648
72 compute 181139935412.119
72 reduce 16 0 0
72 compute 78418470966.308
72 alltoall 16777216 2147483648
72 compute 179201742178.459
72 reduce 16 0 0
72 compute 85899.296
72 finalize
72 compute 373858.679
72 compute 43249.762
