# version: 1.0
89 compute 568324698.017
89 compute 10178358190.249
89 init
89 compute 536670.524
89 compute 42732.899
89 compute 29277.788
89 bcast 4 0
89 compute 18056.859
89 bcast 4 0
89 compute 3751.425
89 bcast 4 0
89 compute 2984.467
89 bcast 4 0
89 compute 4218.269
89 bcast 4 0
89 compute 8269.808
89 compute 12771.518
89 compute 316636771301.446
89 alltoall 16777216 2147483648
89 compute 71585212331.041
89 barrier
89 compute 290458426825.929
89 alltoall 16777216 2147483648
89 compute 182874720896.862
89 alltoall 16777216 2147483648
89 compute 172962336138.125
89 reduce 16 0 0
89 compute 93064658686.869
89 alltoall 16777216 2147483648
89 compute 177944895308.068
89 reduce 16 0 0
89 compute 86719674041.905
89 alltoall 16777216 2147483648
89 compute 172366883502.074
89 reduce 16 0 0
89 compute 96884088285.467
89 alltoall 16777216 2147483648
89 compute 178557546493.752
89 reduce 16 0 0
89 compute 132360980850.391
89 alltoall 16777216 2147483648
89 compute 212016674799.512
89 reduce 16 0 0
89 compute 132026203183.201
89 alltoall 16777216 2147483648
89 compute 207869296110.931
89 reduce 16 0 0
89 compute 129366039771.753
89 alltoall 16777216 2147483648
89 compute 203193518440.342
89 reduce 16 0 0
89 compute 126761179984.366
89 alltoall 16777216 2147483648
89 compute 202424577520.452
89 reduce 16 0 0
89 compute 125294306234.077
89 alltoall 16777216 2147483648
89 compute 201600227619.814
89 reduce 16 0 0
89 compute 123824421973.562
89 alltoall 16777216 2147483648
89 compute 200308598537.203
89 reduce 16 0 0
89 compute 122969301551.234
89 alltoall 16777216 2147483648
89 compute 198085521122.009
89 reduce 16 0 0
89 compute 122007661683.559
89 alltoall 16777216 2147483648
89 compute 197734466988.778
89 reduce 16 0 0
89 compute 120884772514.425
89 alltoall 16777216 2147483648
89 compute 194443095042.532
89 reduce 16 0 0
89 compute 118792140583.019
89 alltoall 16777216 2147483648
89 compute 193926661639.05
89 reduce 16 0 0
89 compute 118866933210.088
89 alltoall 16777216 2147483648
89 compute 193438010405.449
89 reduce 16 0 0
89 compute 118205499977.601
89 alltoall 16777216 2147483648
89 compute 190961216597.982
89 reduce 16 0 0
89 compute 116741348561.406
89 alltoall 16777216 2147483648
89 compute 191878664929.252
89 reduce 16 0 0
89 compute 118723408558.104
89 alltoall 16777216 2147483648
89 compute 191816191781.807
89 reduce 16 0 0
89 compute 118465597093.628
89 alltoall 16777216 2147483648
89 compute 190605029498.298
89 reduce 16 0 0
89 compute 118136121373.746
89 alltoall 16777216 2147483648
89 compute 190997932444.704
89 reduce 16 0 0
89 compute 117631080764.548
89 alltoall 16777216 2147483648
89 compute 189911082498.606
89 reduce 16 0 0
89 compute 117045986779.956
89 alltoall 16777216 2147483648
89 compute 189211433016.127
89 reduce 16 0 0
89 compute 115369149223.728
89 alltoall 16777216 2147483648
89 compute 189296843743.208
89 reduce 16 0 0
89 compute 115787423824.367
89 alltoall 16777216 2147483648
89 compute 188060608318.858
89 reduce 16 0 0
89 compute 115492051192.069
89 alltoall 16777216 2147483648
89 compute 188441759384.579
89 reduce 16 0 0
89 compute 109124.785
89 finalize
89 compute 450821.247
89 compute 44166.777
