# version: 1.0
49 compute 3355168546.412
49 compute 2532511688.886
49 init
49 compute 1001263.669
49 compute 102839.064
49 compute 75245.249
49 bcast 4 0
49 compute 54504.037
49 bcast 4 0
49 compute 28660.887
49 bcast 4 0
49 compute 27293.701
49 bcast 4 0
49 compute 26693.473
49 bcast 4 0
49 compute 38848.09
49 compute 56338.067
49 compute 539756162847.365
49 alltoall 16777216 2147483648
49 compute 121292133102.648
49 barrier
49 compute 500631897807.381
49 alltoall 16777216 2147483648
49 compute 301308315550.849
49 alltoall 16777216 2147483648
49 compute 310344698622.058
49 reduce 16 0 0
49 compute 146689284954.396
49 alltoall 16777216 2147483648
49 compute 290565162636.797
49 reduce 16 0 0
49 compute 156248937609.182
49 alltoall 16777216 2147483648
49 compute 310337708616.865
49 reduce 16 0 0
49 compute 232044218408.538
49 alltoall 16777216 2147483648
49 compute 290987732168.89
49 reduce 16 0 0
49 compute 229976248311.736
49 alltoall 16777216 2147483648
49 compute 354870923226.93
49 reduce 16 0 0
49 compute 226127229923.669
49 alltoall 16777216 2147483648
49 compute 349384435686.946
49 reduce 16 0 0
49 compute 220076161824.567
49 alltoall 16777216 2147483648
49 compute 346614252617.242
49 reduce 16 0 0
49 compute 220950339986.085
49 alltoall 16777216 2147483648
49 compute 342581575048.53
49 reduce 16 0 0
49 compute 216075595520.167
49 alltoall 16777216 2147483648
49 compute 341164979113.22
49 reduce 16 0 0
49 compute 213929013662.243
49 alltoall 16777216 2147483648
49 compute 338113365807.316
49 reduce 16 0 0
49 compute 211675441396.741
49 alltoall 16777216 2147483648
49 compute 333956478940.333
49 reduce 16 0 0
49 compute 211152622767.795
49 alltoall 16777216 2147483648
49 compute 332330683722.826
49 reduce 16 0 0
49 compute 208723812387.104
49 alltoall 16777216 2147483648
49 compute 330065429586.566
49 reduce 16 0 0
49 compute 206923814631.111
49 alltoall 16777216 2147483648
49 compute 328794889231.294
49 reduce 16 0 0
49 compute 203815049515.769
49 alltoall 16777216 2147483648
49 compute 328584691436.473
49 reduce 16 0 0
49 compute 202622604041.946
49 alltoall 16777216 2147483648
49 compute 325035998645.449
49 reduce 16 0 0
49 compute 201782488869.447
49 alltoall 16777216 2147483648
49 compute 325711666384.994
49 reduce 16 0 0
49 compute 204459700906.912
49 alltoall 16777216 2147483648
49 compute 323743574944.331
49 reduce 16 0 0
49 compute 205482647412.26
49 alltoall 16777216 2147483648
49 compute 323668608968.081
49 reduce 16 0 0
49 compute 207177562251.913
49 alltoall 16777216 2147483648
49 compute 320168370949.543
49 reduce 16 0 0
49 compute 210270650395.602
49 alltoall 16777216 2147483648
49 compute 321697638767.238
49 reduce 16 0 0
49 compute 213271965945.619
49 alltoall 16777216 2147483648
49 compute 319499250663.752
49 reduce 16 0 0
49 compute 216719281828.051
49 alltoall 16777216 2147483648
49 compute 319291655540.904
49 reduce 16 0 0
49 compute 221141926644.694
49 alltoall 16777216 2147483648
49 compute 317362005285.676
49 reduce 16 0 0
49 compute 227711658060.99
49 alltoall 16777216 2147483648
49 compute 316886944331.086
49 reduce 16 0 0
49 compute 225435.633
49 finalize
49 compute 838618.554
49 compute 126781.492
