# version: 1.0
102 compute 835951507.574
102 compute 12498204980.504
102 init
102 compute 1184750.034
102 compute 42582.842
102 compute 27710.526
102 bcast 4 0
102 compute 16973.114
102 bcast 4 0
102 compute 3934.828
102 bcast 4 0
102 compute 3668.06
102 bcast 4 0
102 compute 5402.052
102 bcast 4 0
102 compute 9336.88
102 compute 11070.872
102 compute 314652874256.935
102 alltoall 16777216 2147483648
102 compute 70408662295.19
102 barrier
102 compute 287918471609.577
102 alltoall 16777216 2147483648
102 compute 173624890646.535
102 alltoall 16777216 2147483648
102 compute 169360226639.796
102 reduce 16 0 0
102 compute 90491115962.112
102 alltoall 16777216 2147483648
102 compute 169134686166.972
102 reduce 16 0 0
102 compute 89135451588.667
102 alltoall 16777216 2147483648
102 compute 169919723117.697
102 reduce 16 0 0
102 compute 91029018620.812
102 alltoall 16777216 2147483648
102 compute 169040521848.123
102 reduce 16 0 0
102 compute 129389573461.158
102 alltoall 16777216 2147483648
102 compute 205327620140.941
102 reduce 16 0 0
102 compute 126970377949.396
102 alltoall 16777216 2147483648
102 compute 202402601289.323
102 reduce 16 0 0
102 compute 122485699568.953
102 alltoall 16777216 2147483648
102 compute 197843563713.119
102 reduce 16 0 0
102 compute 121465179318.565
102 alltoall 16777216 2147483648
102 compute 195971179994.242
102 reduce 16 0 0
102 compute 119645184499.908
102 alltoall 16777216 2147483648
102 compute 194858014718.784
102 reduce 16 0 0
102 compute 118987630591.004
102 alltoall 16777216 2147483648
102 compute 193776194099.771
102 reduce 16 0 0
102 compute 116088512077.776
102 alltoall 16777216 2147483648
102 compute 191627990292.407
102 reduce 16 0 0
102 compute 116205891331.616
102 alltoall 16777216 2147483648
102 compute 190916828603.618
102 reduce 16 0 0
102 compute 114821465166.175
102 alltoall 16777216 2147483648
102 compute 190384811080.42
102 reduce 16 0 0
102 compute 113654843234.904
102 alltoall 16777216 2147483648
102 compute 188850571890.988
102 reduce 16 0 0
102 compute 113146013069.555
102 alltoall 16777216 2147483648
102 compute 188736663355.52
102 reduce 16 0 0
102 compute 112292845622.409
102 alltoall 16777216 2147483648
102 compute 187913066724.349
102 reduce 16 0 0
102 compute 113041293524.577
102 alltoall 16777216 2147483648
102 compute 187417341270.232
102 reduce 16 0 0
102 compute 112583807295.846
102 alltoall 16777216 2147483648
102 compute 184488836377.755
102 reduce 16 0 0
102 compute 111601591829.08
102 alltoall 16777216 2147483648
102 compute 185577507048.799
102 reduce 16 0 0
102 compute 111358976486.937
102 alltoall 16777216 2147483648
102 compute 184199618733.464
102 reduce 16 0 0
102 compute 110870576582.138
102 alltoall 16777216 2147483648
102 compute 184858435305.331
102 reduce 16 0 0
102 compute 110137728755.747
102 alltoall 16777216 2147483648
102 compute 183766752240.012
102 reduce 16 0 0
102 compute 109036549516.586
102 alltoall 16777216 2147483648
102 compute 182840134875.833
102 reduce 16 0 0
102 compute 109253412276.465
102 alltoall 16777216 2147483648
102 compute 183930407255.295
102 reduce 16 0 0
102 compute 110034275058.275
102 alltoall 16777216 2147483648
102 compute 182601452094.162
102 reduce 16 0 0
102 compute 94285.815
102 finalize
102 compute 396133.807
102 compute 45734.039
