# version: 1.0
41 compute 5470914774.581
41 compute 2831455661.111
41 init
41 compute 1935718.627
41 compute 104189.577
41 compute 86766.292
41 bcast 4 0
41 compute 54003.847
41 bcast 4 0
41 compute 29177.75
41 bcast 4 0
41 compute 27010.26
41 bcast 4 0
41 compute 26360.013
41 bcast 4 0
41 compute 38481.284
41 compute 60489.644
41 compute 539054738924.188
41 alltoall 16777216 2147483648
41 compute 125266448752.255
41 barrier
41 compute 500424678327.223
41 alltoall 16777216 2147483648
41 compute 313200810615.683
41 alltoall 16777216 2147483648
41 compute 291904890690.074
41 reduce 16 0 0
41 compute 156704649063.755
41 alltoall 16777216 2147483648
41 compute 307369976740.463
41 reduce 16 0 0
41 compute 146844030085.209
41 alltoall 16777216 2147483648
41 compute 306410732616.158
41 reduce 16 0 0
41 compute 179386004354.822
41 alltoall 16777216 2147483648
41 compute 298719446287.553
41 reduce 16 0 0
41 compute 226494023018.767
41 alltoall 16777216 2147483648
41 compute 358582173366.282
41 reduce 16 0 0
41 compute 226319025461.622
41 alltoall 16777216 2147483648
41 compute 351593941847.022
41 reduce 16 0 0
41 compute 219644749733.578
41 alltoall 16777216 2147483648
41 compute 346881884478.718
41 reduce 16 0 0
41 compute 216966722786.565
41 alltoall 16777216 2147483648
41 compute 340428749002.049
41 reduce 16 0 0
41 compute 211576605653.425
41 alltoall 16777216 2147483648
41 compute 340537050607.693
41 reduce 16 0 0
41 compute 211380616455.82
41 alltoall 16777216 2147483648
41 compute 335054733001.682
41 reduce 16 0 0
41 compute 205837554642.445
41 alltoall 16777216 2147483648
41 compute 334770027271.267
41 reduce 16 0 0
41 compute 208137679207.768
41 alltoall 16777216 2147483648
41 compute 331314410985.88
41 reduce 16 0 0
41 compute 207680009876.151
41 alltoall 16777216 2147483648
41 compute 328743311939.368
41 reduce 16 0 0
41 compute 204729033764.521
41 alltoall 16777216 2147483648
41 compute 329632393695.434
41 reduce 16 0 0
41 compute 203759768083.471
41 alltoall 16777216 2147483648
41 compute 328334034839.814
41 reduce 16 0 0
41 compute 202569026790.324
41 alltoall 16777216 2147483648
41 compute 327278220899.585
41 reduce 16 0 0
41 compute 203806134529.361
41 alltoall 16777216 2147483648
41 compute 322613101944.436
41 reduce 16 0 0
41 compute 203220229670.087
41 alltoall 16777216 2147483648
41 compute 321752195457.572
41 reduce 16 0 0
41 compute 203098934862.235
41 alltoall 16777216 2147483648
41 compute 321223258854.679
41 reduce 16 0 0
41 compute 201618274424.995
41 alltoall 16777216 2147483648
41 compute 319824967889.282
41 reduce 16 0 0
41 compute 201257525375.762
41 alltoall 16777216 2147483648
41 compute 320664806023.213
41 reduce 16 0 0
41 compute 201292142108.457
41 alltoall 16777216 2147483648
41 compute 320444294093.843
41 reduce 16 0 0
41 compute 198726207040.178
41 alltoall 16777216 2147483648
41 compute 317889797353.811
41 reduce 16 0 0
41 compute 200575353398.879
41 alltoall 16777216 2147483648
41 compute 319106317672.6
41 reduce 16 0 0
41 compute 199538871235.268
41 alltoall 16777216 2147483648
41 compute 318623014703.901
41 reduce 16 0 0
41 compute 221250.71
41 finalize
41 compute 791133.85
41 compute 114560.183
