# version: 1.0
58 compute 1588000260.879
58 compute 1425125225.209
58 init
58 compute 1367936.285
58 compute 57955.348
58 compute 76979.241
58 bcast 4 0
58 compute 30178.13
58 bcast 4 0
58 compute 16739.692
58 bcast 4 0
58 compute 16356.213
58 bcast 4 0
58 compute 15505.89
58 bcast 4 0
58 compute 20674.52
58 compute 41899.249
58 compute 310774402364.121
58 alltoall 16777216 2147483648
58 compute 70295750321.605
58 barrier
58 compute 288138680373.788
58 alltoall 16777216 2147483648
58 compute 173571157185.576
58 alltoall 16777216 2147483648
58 compute 173675243056.516
58 reduce 16 0 0
58 compute 84614098777.234
58 alltoall 16777216 2147483648
58 compute 167459422508.598
58 reduce 16 0 0
58 compute 90261373326.406
58 alltoall 16777216 2147483648
58 compute 174635790292.482
58 reduce 16 0 0
58 compute 135666274951.713
58 alltoall 16777216 2147483648
58 compute 167249074156.587
58 reduce 16 0 0
58 compute 135576573994.964
58 alltoall 16777216 2147483648
58 compute 202102235927.175
58 reduce 16 0 0
58 compute 132953990825.25
58 alltoall 16777216 2147483648
58 compute 202151994028.071
58 reduce 16 0 0
58 compute 130216007270.047
58 alltoall 16777216 2147483648
58 compute 197084244748.183
58 reduce 16 0 0
58 compute 130039362203.753
58 alltoall 16777216 2147483648
58 compute 196887710977.052
58 reduce 16 0 0
58 compute 128550874159.819
58 alltoall 16777216 2147483648
58 compute 194766954979.227
58 reduce 16 0 0
58 compute 128209915094.59
58 alltoall 16777216 2147483648
58 compute 193366930405.309
58 reduce 16 0 0
58 compute 126951253834.993
58 alltoall 16777216 2147483648
58 compute 191903329214.787
58 reduce 16 0 0
58 compute 126794786950.162
58 alltoall 16777216 2147483648
58 compute 190879039699.289
58 reduce 16 0 0
58 compute 126805620665.41
58 alltoall 16777216 2147483648
58 compute 188645030514.934
58 reduce 16 0 0
58 compute 127016653977.607
58 alltoall 16777216 2147483648
58 compute 189266274197.86
58 reduce 16 0 0
58 compute 127862701820.331
58 alltoall 16777216 2147483648
58 compute 188744495197.156
58 reduce 16 0 0
58 compute 130302981724.452
58 alltoall 16777216 2147483648
58 compute 186820398101.327
58 reduce 16 0 0
58 compute 133989003647.39
58 alltoall 16777216 2147483648
58 compute 187108754768.571
58 reduce 16 0 0
58 compute 140293861700.041
58 alltoall 16777216 2147483648
58 compute 185777473140.383
58 reduce 16 0 0
58 compute 150019454754.893
58 alltoall 16777216 2147483648
58 compute 185199339032.873
58 reduce 16 0 0
58 compute 173165235177.139
58 alltoall 16777216 2147483648
58 compute 183945857440.802
58 reduce 16 0 0
58 compute 210223683955.134
58 alltoall 16777216 2147483648
58 compute 184762317861.243
58 reduce 16 0 0
58 compute 92320273344.554
58 alltoall 16777216 2147483648
58 compute 184045707402.708
58 reduce 16 0 0
58 compute 78439679555.844
58 alltoall 16777216 2147483648
58 compute 183456664734.853
58 reduce 16 0 0
58 compute 79404394791.715
58 alltoall 16777216 2147483648
58 compute 183300716530.379
58 reduce 16 0 0
58 compute 80057207616.358
58 alltoall 16777216 2147483648
58 compute 182562736171.033
58 reduce 16 0 0
58 compute 99537.81
58 finalize
58 compute 411072.815
58 compute 55871.223
