# version: 1.0
81 compute 527230504.822
81 compute 9166110248.811
81 init
81 compute 1187134.273
81 compute 39781.778
81 compute 28077.332
81 bcast 4 0
81 compute 24225.869
81 bcast 4 0
81 compute 4018.193
81 bcast 4 0
81 compute 3184.543
81 bcast 4 0
81 compute 3534.676
81 bcast 4 0
81 compute 9336.88
81 compute 9887.089
81 compute 319108377488.366
81 alltoall 16777216 2147483648
81 compute 72235847711.903
81 barrier
81 compute 293800873439.843
81 alltoall 16777216 2147483648
81 compute 183227671567.17
81 alltoall 16777216 2147483648
81 compute 174789733868.82
81 reduce 16 0 0
81 compute 93444702698.736
81 alltoall 16777216 2147483648
81 compute 182593297546.611
81 reduce 16 0 0
81 compute 87705032385.844
81 alltoall 16777216 2147483648
81 compute 174117067119.218
81 reduce 16 0 0
81 compute 132790745282.174
81 alltoall 16777216 2147483648
81 compute 182313141394.379
81 reduce 16 0 0
81 compute 134243643607.152
81 alltoall 16777216 2147483648
81 compute 213333677887.249
81 reduce 16 0 0
81 compute 133831348994.712
81 alltoall 16777216 2147483648
81 compute 208870785065.507
81 reduce 16 0 0
81 compute 130539105167.277
81 alltoall 16777216 2147483648
81 compute 200638305911.747
81 reduce 16 0 0
81 compute 127742914535.12
81 alltoall 16777216 2147483648
81 compute 203133675291.917
81 reduce 16 0 0
81 compute 127948085653.863
81 alltoall 16777216 2147483648
81 compute 203081397467.223
81 reduce 16 0 0
81 compute 126553510116.459
81 alltoall 16777216 2147483648
81 compute 201243296654.235
81 reduce 16 0 0
81 compute 125640285372.876
81 alltoall 16777216 2147483648
81 compute 197715401696.719
81 reduce 16 0 0
81 compute 125913709818.031
81 alltoall 16777216 2147483648
81 compute 196968441076.17
81 reduce 16 0 0
81 compute 122947521077.798
81 alltoall 16777216 2147483648
81 compute 195971967893.53
81 reduce 16 0 0
81 compute 121441601979.246
81 alltoall 16777216 2147483648
81 compute 195516075153.428
81 reduce 16 0 0
81 compute 122277976497.503
81 alltoall 16777216 2147483648
81 compute 195017773820.849
81 reduce 16 0 0
81 compute 121776251647.815
81 alltoall 16777216 2147483648
81 compute 193135986046.455
81 reduce 16 0 0
81 compute 120486785903.627
81 alltoall 16777216 2147483648
81 compute 192890253770.327
81 reduce 16 0 0
81 compute 122842580815.646
81 alltoall 16777216 2147483648
81 compute 192663024872.812
81 reduce 16 0 0
81 compute 123927735767.891
81 alltoall 16777216 2147483648
81 compute 190723160587.727
81 reduce 16 0 0
81 compute 124304869807.722
81 alltoall 16777216 2147483648
81 compute 192062220353.818
81 reduce 16 0 0
81 compute 123892697575.102
81 alltoall 16777216 2147483648
81 compute 190608277848.869
81 reduce 16 0 0
81 compute 124695474581.154
81 alltoall 16777216 2147483648
81 compute 190835186674.803
81 reduce 16 0 0
81 compute 123803649232.919
81 alltoall 16777216 2147483648
81 compute 190656105833.266
81 reduce 16 0 0
81 compute 125471872283.545
81 alltoall 16777216 2147483648
81 compute 189955487466.084
81 reduce 16 0 0
81 compute 125479122087.424
81 alltoall 16777216 2147483648
81 compute 189300846747.105
81 reduce 16 0 0
81 compute 74561.656
81 finalize
81 compute 463676.13
81 compute 61073.199
