4 init
4 compute 0.08646
4 compute 0.11488
4 bcast 1 0 1 
4 compute 0.02402
4 bcast 1 0 1 
4 compute 0.02112
4 bcast 1 0 1 
4 compute 0.02142
4 bcast 1 0 1 
4 compute 0.02138
4 bcast 1 0 16 
4 compute 0.02706
4 compute 0.02936
4 compute 238849
4 alltoall 134217728 134217728 26 26
4 compute 57279.4
4 compute 0.06618
4 barrier
4 compute 0.07342
4 compute 197126
4 alltoall 134217728 134217728 26 26
4 compute 159868
4 alltoall 134217728 134217728 26 26
4 compute 140261
4 reduce 16 0 0 26 
4 compute 81090.2
4 alltoall 134217728 134217728 26 26
4 compute 139768
4 reduce 16 0 0 26 
4 compute 80960.1
4 alltoall 134217728 134217728 26 26
4 compute 138883
4 reduce 16 0 0 26 
4 compute 81000.4
4 alltoall 134217728 134217728 26 26
4 compute 139356
4 reduce 16 0 0 26 
4 compute 80944
4 alltoall 134217728 134217728 26 26
4 compute 139498
4 reduce 16 0 0 26 
4 compute 81345.2
4 alltoall 134217728 134217728 26 26
4 compute 138927
4 reduce 16 0 0 26 
4 compute 81249.8
4 alltoall 134217728 134217728 26 26
4 compute 139653
4 reduce 16 0 0 26 
4 compute 80878.7
4 alltoall 134217728 134217728 26 26
4 compute 139435
4 reduce 16 0 0 26 
4 compute 80738.7
4 alltoall 134217728 134217728 26 26
4 compute 139704
4 reduce 16 0 0 26 
4 compute 81249.8
4 alltoall 134217728 134217728 26 26
4 compute 139333
4 reduce 16 0 0 26 
4 compute 81205.4
4 alltoall 134217728 134217728 26 26
4 compute 139399
4 reduce 16 0 0 26 
4 compute 80875.8
4 alltoall 134217728 134217728 26 26
4 compute 139392
4 reduce 16 0 0 26 
4 compute 80821.7
4 alltoall 134217728 134217728 26 26
4 compute 139779
4 reduce 16 0 0 26 
4 compute 82224.5
4 alltoall 134217728 134217728 26 26
4 compute 138971
4 reduce 16 0 0 26 
4 compute 84438.6
4 alltoall 134217728 134217728 26 26
4 compute 139947
4 reduce 16 0 0 26 
4 compute 95987.6
4 alltoall 134217728 134217728 26 26
4 compute 139776
4 reduce 16 0 0 26 
4 compute 155125
4 alltoall 134217728 134217728 26 26
4 compute 142341
4 reduce 16 0 0 26 
4 compute 161874
4 alltoall 134217728 134217728 26 26
4 compute 186338
4 reduce 16 0 0 26 
4 compute 159181
4 alltoall 134217728 134217728 26 26
4 compute 198941
4 reduce 16 0 0 26 
4 compute 157229
4 alltoall 134217728 134217728 26 26
4 compute 198236
4 reduce 16 0 0 26 
4 compute 155761
4 alltoall 134217728 134217728 26 26
4 compute 196058
4 reduce 16 0 0 26 
4 compute 153799
4 alltoall 134217728 134217728 26 26
4 compute 194693
4 reduce 16 0 0 26 
4 compute 151624
4 alltoall 134217728 134217728 26 26
4 compute 193767
4 reduce 16 0 0 26 
4 compute 150702
4 alltoall 134217728 134217728 26 26
4 compute 192720
4 reduce 16 0 0 26 
4 compute 149408
4 alltoall 134217728 134217728 26 26
4 compute 191326
4 reduce 16 0 0 26 
4 compute 0.06066
4 compute 0.03568
4 finalize
