B 0 "400000-40a000 0 /nix/store/nf55qlxbya44af8jsf6xdbpba33mhy23-NPB-3.1/bin/ft.E.128"
B 0 "7f421c073000-7f421c190000 0 /nix/store/j3r8qbyr9pindh4fdn5mw3zp0qxks3nx-papi-5.6.0/lib/libpfm.so.4.8.0"
B 0 "7f421c457000-7f421c46d000 0 /nix/store/r43dk927l97n78rff7hnvsq49f3szkg6-zlib-1.2.11/lib/libz.so.1.2.11"
B 0 "7f421c66e000-7f421c670000 0 /nix/store/2kcrj1ksd2a14bm5sky182fv2xwfhfap-glibc-2.26-131/lib/libutil-2.26.so"
B 0 "7f421c871000-7f421c8dc000 0 /nix/store/c5xfsp7mvyaasv8f638vrbhv9vjnjj4j-libnl-3.3.0/lib/libnl-route-3.so.200.25.0"
B 0 "7f421cae5000-7f421cb04000 0 /nix/store/c5xfsp7mvyaasv8f638vrbhv9vjnjj4j-libnl-3.3.0/lib/libnl-3.so.200.25.0"
B 0 "7f421cd06000-7f421cd1a000 0 /nix/store/jfz41csbqcwqh2pdanaqwbjlg4ia8mmp-rdma-core-17/lib/libibverbs.so.1.1.17.0"
B 0 "7f421cf1c000-7f421cf31000 0 /nix/store/jfz41csbqcwqh2pdanaqwbjlg4ia8mmp-rdma-core-17/lib/librdmacm.so.1.1.17.0"
B 0 "7f421d132000-7f421d339000 0 /nix/store/zllrk0d9l55dzn6kvl6apr3yd7bflg9v-openmpi-3.0.0/lib/libopen-pal.so.40.0.0"
B 0 "7f421d557000-7f421d681000 0 /nix/store/zllrk0d9l55dzn6kvl6apr3yd7bflg9v-openmpi-3.0.0/lib/libopen-rte.so.40.0.0"
B 0 "7f421d891000-7f421d898000 0 /nix/store/2kcrj1ksd2a14bm5sky182fv2xwfhfap-glibc-2.26-131/lib/librt-2.26.so"
B 0 "7f421da99000-7f421da9c000 0 /nix/store/2kcrj1ksd2a14bm5sky182fv2xwfhfap-glibc-2.26-131/lib/libdl-2.26.so"
B 0 "7f421dc9d000-7f421ddf6000 0 /nix/store/pxy47wnmlfr4hjcvldv7ggk34skpgaw6-libxml2-2.9.7/lib/libxml2.so.2.9.7"
B 0 "7f421e001000-7f421e04c000 0 /nix/store/j3r8qbyr9pindh4fdn5mw3zp0qxks3nx-papi-5.6.0/lib/libpapi.so.5.6.0.0"
B 0 "7f421e25b000-7f421e404000 0 /nix/store/2kcrj1ksd2a14bm5sky182fv2xwfhfap-glibc-2.26-131/lib/libc-2.26.so"
B 0 "7f421e60d000-7f421e626000 0 /nix/store/2kcrj1ksd2a14bm5sky182fv2xwfhfap-glibc-2.26-131/lib/libpthread-2.26.so"
B 0 "7f421e82b000-7f421e869000 0 /nix/store/irh4sy0gay53xk046lwncrrr3dvj71wv-gfortran-7.3.0-lib/lib/libquadmath.so.0.0.0"
B 0 "7f421ea6a000-7f421ea80000 0 /nix/store/2kcrj1ksd2a14bm5sky182fv2xwfhfap-glibc-2.26-131/lib/libgcc_s.so.1"
B 0 "7f421ec80000-7f421edcb000 0 /nix/store/2kcrj1ksd2a14bm5sky182fv2xwfhfap-glibc-2.26-131/lib/libm-2.26.so"
B 0 "7f421efcc000-7f421f19b000 0 /nix/store/irh4sy0gay53xk046lwncrrr3dvj71wv-gfortran-7.3.0-lib/lib/libgfortran.so.4.0.0"
B 0 "7f421f39d000-7f421f3f2000 0 /nix/store/zllrk0d9l55dzn6kvl6apr3yd7bflg9v-openmpi-3.0.0/lib/libmpi_mpifh.so.40.0.0"
B 0 "7f421f5f4000-7f421f5f9000 0 /nix/store/zllrk0d9l55dzn6kvl6apr3yd7bflg9v-openmpi-3.0.0/lib/libmpi_usempi_ignore_tkr.so.40.0.0"
B 0 "7f421f7fa000-7f421f829000 0 /nix/store/zllrk0d9l55dzn6kvl6apr3yd7bflg9v-openmpi-3.0.0/lib/libmpi_usempif08.so.40.0.0"
B 0 "7f421fa2b000-7f421fc49000 0 /nix/store/zllrk0d9l55dzn6kvl6apr3yd7bflg9v-openmpi-3.0.0/lib/libmpi.so.40.0.0"
B 0 "7f421fe7b000-7f421ff65000 0 /nix/store/7y06dglddhr03nsp1niw3xlx70ga0r2d-extrae-3.6.1/lib/libmpitracef-3.6.1.so"
B 0 "7f4221b1e000-7f4221b43000 0 /nix/store/2kcrj1ksd2a14bm5sky182fv2xwfhfap-glibc-2.26-131/lib/ld-2.26.so"
