B 0 "400000-40a000 0 /nix/store/nf55qlxbya44af8jsf6xdbpba33mhy23-NPB-3.1/bin/ft.E.128"
B 0 "7f2d4eb54000-7f2d4ec71000 0 /nix/store/j3r8qbyr9pindh4fdn5mw3zp0qxks3nx-papi-5.6.0/lib/libpfm.so.4.8.0"
B 0 "7f2d4ef38000-7f2d4ef4e000 0 /nix/store/r43dk927l97n78rff7hnvsq49f3szkg6-zlib-1.2.11/lib/libz.so.1.2.11"
B 0 "7f2d4f14f000-7f2d4f151000 0 /nix/store/2kcrj1ksd2a14bm5sky182fv2xwfhfap-glibc-2.26-131/lib/libutil-2.26.so"
B 0 "7f2d4f352000-7f2d4f3bd000 0 /nix/store/c5xfsp7mvyaasv8f638vrbhv9vjnjj4j-libnl-3.3.0/lib/libnl-route-3.so.200.25.0"
B 0 "7f2d4f5c6000-7f2d4f5e5000 0 /nix/store/c5xfsp7mvyaasv8f638vrbhv9vjnjj4j-libnl-3.3.0/lib/libnl-3.so.200.25.0"
B 0 "7f2d4f7e7000-7f2d4f7fb000 0 /nix/store/jfz41csbqcwqh2pdanaqwbjlg4ia8mmp-rdma-core-17/lib/libibverbs.so.1.1.17.0"
B 0 "7f2d4f9fd000-7f2d4fa12000 0 /nix/store/jfz41csbqcwqh2pdanaqwbjlg4ia8mmp-rdma-core-17/lib/librdmacm.so.1.1.17.0"
B 0 "7f2d4fc13000-7f2d4fe1a000 0 /nix/store/zllrk0d9l55dzn6kvl6apr3yd7bflg9v-openmpi-3.0.0/lib/libopen-pal.so.40.0.0"
B 0 "7f2d50038000-7f2d50162000 0 /nix/store/zllrk0d9l55dzn6kvl6apr3yd7bflg9v-openmpi-3.0.0/lib/libopen-rte.so.40.0.0"
B 0 "7f2d50372000-7f2d50379000 0 /nix/store/2kcrj1ksd2a14bm5sky182fv2xwfhfap-glibc-2.26-131/lib/librt-2.26.so"
B 0 "7f2d5057a000-7f2d5057d000 0 /nix/store/2kcrj1ksd2a14bm5sky182fv2xwfhfap-glibc-2.26-131/lib/libdl-2.26.so"
B 0 "7f2d5077e000-7f2d508d7000 0 /nix/store/pxy47wnmlfr4hjcvldv7ggk34skpgaw6-libxml2-2.9.7/lib/libxml2.so.2.9.7"
B 0 "7f2d50ae2000-7f2d50b2d000 0 /nix/store/j3r8qbyr9pindh4fdn5mw3zp0qxks3nx-papi-5.6.0/lib/libpapi.so.5.6.0.0"
B 0 "7f2d50d3c000-7f2d50ee5000 0 /nix/store/2kcrj1ksd2a14bm5sky182fv2xwfhfap-glibc-2.26-131/lib/libc-2.26.so"
B 0 "7f2d510ee000-7f2d51107000 0 /nix/store/2kcrj1ksd2a14bm5sky182fv2xwfhfap-glibc-2.26-131/lib/libpthread-2.26.so"
B 0 "7f2d5130c000-7f2d5134a000 0 /nix/store/irh4sy0gay53xk046lwncrrr3dvj71wv-gfortran-7.3.0-lib/lib/libquadmath.so.0.0.0"
B 0 "7f2d5154b000-7f2d51561000 0 /nix/store/2kcrj1ksd2a14bm5sky182fv2xwfhfap-glibc-2.26-131/lib/libgcc_s.so.1"
B 0 "7f2d51761000-7f2d518ac000 0 /nix/store/2kcrj1ksd2a14bm5sky182fv2xwfhfap-glibc-2.26-131/lib/libm-2.26.so"
B 0 "7f2d51aad000-7f2d51c7c000 0 /nix/store/irh4sy0gay53xk046lwncrrr3dvj71wv-gfortran-7.3.0-lib/lib/libgfortran.so.4.0.0"
B 0 "7f2d51e7e000-7f2d51ed3000 0 /nix/store/zllrk0d9l55dzn6kvl6apr3yd7bflg9v-openmpi-3.0.0/lib/libmpi_mpifh.so.40.0.0"
B 0 "7f2d520d5000-7f2d520da000 0 /nix/store/zllrk0d9l55dzn6kvl6apr3yd7bflg9v-openmpi-3.0.0/lib/libmpi_usempi_ignore_tkr.so.40.0.0"
B 0 "7f2d522db000-7f2d5230a000 0 /nix/store/zllrk0d9l55dzn6kvl6apr3yd7bflg9v-openmpi-3.0.0/lib/libmpi_usempif08.so.40.0.0"
B 0 "7f2d5250c000-7f2d5272a000 0 /nix/store/zllrk0d9l55dzn6kvl6apr3yd7bflg9v-openmpi-3.0.0/lib/libmpi.so.40.0.0"
B 0 "7f2d5295c000-7f2d52a46000 0 /nix/store/7y06dglddhr03nsp1niw3xlx70ga0r2d-extrae-3.6.1/lib/libmpitracef-3.6.1.so"
B 0 "7f2d545ff000-7f2d54624000 0 /nix/store/2kcrj1ksd2a14bm5sky182fv2xwfhfap-glibc-2.26-131/lib/ld-2.26.so"
